{
  "CustomerAccounts_AggregatorQuote": {
    "url": "bglsecurity/v1/convertaggregatorquote"
  },
  "CustomerAccounts_RetrieveQuotes": {
    "url": "bglsecurity/v1/retrievequotes"
  },
  "CustomerAccounts_CreateQuotePost": {
    "url": "bglsecurity/v1/createquote"
  } 
}