<?xml version="1.0" encoding="utf-8"?>
<!-- Generator: Adobe Illustrator 22.1.0, SVG Export Plug-In . SVG Version: 6.00 Build 0)  -->
<svg version="1.1" id="Layer_1" xmlns="http://www.w3.org/2000/svg" xmlns:xlink="http://www.w3.org/1999/xlink" x="0px" y="0px"
	 viewBox="0 0 58.19 52.42" style="enable-background:new 0 0 58.19 52.42;" xml:space="preserve">
<style type="text/css">
	.st0{fill:#000;}
</style>
<g>
	<path class="st0" d="M6.58,27.23l5.29-5.22c0.39-0.39,0.61-0.9,0.62-1.45c0-0.55-0.21-1.07-0.59-1.46
		c-0.8-0.81-2.11-0.82-2.92-0.02l-1.34,1.32c2.59-9.43,11.35-16.27,21.3-16.27c7.88,0,15.21,4.24,19.15,11.08
		c0.57,0.99,1.83,1.32,2.82,0.76c0.98-0.57,1.32-1.83,0.76-2.82C46.99,5.04,38.28,0,28.93,0C17.67,0,7.83,7.1,4.19,17.56l-0.16-0.52
		c-0.33-1.09-1.49-1.71-2.58-1.37c-0.53,0.16-0.96,0.52-1.22,1c-0.26,0.49-0.31,1.04-0.15,1.57l2.62,8.6l0.03,0.08
		c0.06,0.16,0.14,0.31,0.24,0.46c0.02,0.03,0.05,0.06,0.09,0.11c0.04,0.06,0.09,0.11,0.14,0.16c0.06,0.06,0.12,0.11,0.19,0.16
		l0.09,0.07c0.15,0.11,0.32,0.2,0.5,0.26l0.11,0.03c0.14,0.04,0.28,0.07,0.41,0.08l0.03,0.03l0.14-0.02c0.01,0,0.03,0,0.04,0l0.07,0
		C5.54,28.27,6.21,27.88,6.58,27.23z M3.67,27.04L3.67,27.04L3.67,27.04L3.67,27.04z"/>
	<path class="st0" d="M58.08,33.79l-2.86-8.35l-0.04-0.09c-0.03-0.07-0.06-0.15-0.1-0.21c-0.03-0.06-0.06-0.11-0.09-0.16
		c-0.04-0.06-0.08-0.12-0.14-0.19c-0.04-0.05-0.08-0.09-0.1-0.11l-0.17-0.16c-0.05-0.04-0.1-0.08-0.16-0.12
		c-0.06-0.04-0.12-0.08-0.18-0.11c-0.05-0.03-0.11-0.05-0.16-0.07c-0.07-0.03-0.14-0.06-0.22-0.08c-0.06-0.02-0.11-0.03-0.17-0.04
		c-0.07-0.02-0.14-0.03-0.21-0.03c-0.06-0.01-0.12-0.01-0.2-0.01c-0.07,0-0.14,0-0.21,0.01c-0.06,0.01-0.12,0.02-0.18,0.03
		c-0.08,0.01-0.15,0.03-0.17,0.04l-0.23,0.08c-0.07,0.03-0.14,0.06-0.22,0.1l-0.05,0.03c-0.43,0.19-0.79,0.54-1.01,0.96l-5.29,5.91
		c-0.37,0.41-0.55,0.94-0.52,1.49s0.27,1.06,0.68,1.42c0.82,0.73,2.18,0.65,2.91-0.16l0.98-1.09c-2.86,9.09-11.29,15.43-21.05,15.43
		c-8.03,0-15.43-4.37-19.33-11.4c-0.55-0.99-1.81-1.36-2.8-0.81c-0.99,0.55-1.35,1.81-0.8,2.8c4.62,8.34,13.41,13.52,22.94,13.52
		c11.37,0,21.49-7.51,24.94-18.17l0.3,0.89c0.36,1.05,1.57,1.65,2.62,1.28C57.87,36.04,58.45,34.87,58.08,33.79z M53.65,24.85
		L53.65,24.85L53.65,24.85L53.65,24.85z"/>
</g>
</svg>
