<?xml version="1.0" encoding="iso-8859-1"?>
<!-- Generator: Adobe Illustrator 23.0.1, SVG Export Plug-In . SVG Version: 6.00 Build 0)  -->
<svg version="1.1" id="Layer_1" xmlns="http://www.w3.org/2000/svg" xmlns:xlink="http://www.w3.org/1999/xlink" x="0px" y="0px"
	 viewBox="0 0 21.57 14.36" style="enable-background:new 0 0 21.57 14.36;" xml:space="preserve">
<path style="fill:#D9D9D9;" d="M8.23,13.13L9.21,9.9l1.52,0.99l0.44,0.28l-1.48,0.99L8.23,13.13z M17.41,2.71L8.79,9.05
	C8.78,9.06,8.76,9.07,8.75,9.08c0,0.01-0.01,0.01-0.01,0.01C8.73,9.1,8.73,9.11,8.72,9.12C8.71,9.13,8.71,9.14,8.7,9.15
	C8.69,9.17,8.68,9.19,8.67,9.21L8.66,9.22l0,0l-0.99,3.21L6.89,8.1L17.41,2.71z M7.27,14.2C7.27,14.21,7.27,14.21,7.27,14.2
	 M21.43,0.06C21.34,0,21.22,0,21.16,0c-0.01,0-0.02,0-0.03,0L0.29,4.31C0.14,4.35,0.02,4.47,0,4.62s0.05,0.3,0.19,0.37l5.97,3.15
	c0.53,3.11,0.95,5.38,1.05,5.81c0.03,0.11,0.08,0.32,0.24,0.38c0.13,0.05,0.28-0.02,0.39-0.08l3.98-2.65l4.17,2.71
	c0.06,0.04,0.13,0.06,0.2,0.06c0.04,0,0.08-0.01,0.11-0.02c0.1-0.03,0.19-0.11,0.22-0.22l5.03-13.64c0-0.01,0.01-0.03,0.01-0.04
	s0-0.01,0-0.02V0.42c0-0.01,0.01-0.02,0.01-0.03c0-0.03,0-0.05,0-0.08c0-0.01,0-0.01,0-0.02C21.56,0.26,21.54,0.13,21.43,0.06z"/>
</svg>
