<?xml version="1.0" encoding="utf-8"?>
<!-- Generator: Adobe Illustrator 23.0.1, SVG Export Plug-In . SVG Version: 6.00 Build 0)  -->
<svg version="1.1" id="icon-fbels-info" xmlns="http://www.w3.org/2000/svg" xmlns:xlink="http://www.w3.org/1999/xlink" x="0px"
	 y="0px" viewBox="0 0 24 24" style="enable-background:new 0 0 24 24;" xml:space="preserve">
<style type="text/css">
	.st0{fill:#000;}
</style>
<title>icon-fbels-info</title>
<path id="Circle" class="st0" d="M18.4,5.6c3.5,3.5,3.5,9.2,0,12.7s-9.2,3.5-12.7,0c-3.5-3.5-3.5-9.2,0-12.7l0,0
	C9.1,2.1,14.8,2.1,18.4,5.6 M19.1,4.9C15.2,1,8.8,1,4.9,4.9S1,15.2,4.9,19.1s10.2,3.9,14.1,0c0,0,0,0,0,0l0,0
	C23,15.2,23,8.8,19.1,4.9L19.1,4.9z"/>
<polygon class="st0" points="16.9,8.1 15.9,7.1 12,11 8,7.1 7.1,8.1 11,12 7.1,15.9 8,16.9 12,13 15.9,16.9 16.9,15.9 13,12 "/>
</svg>
