<?xml version="1.0" encoding="utf-8"?>
<svg version="1.1" id="Layer_1" xmlns="http://www.w3.org/2000/svg" xmlns:xlink="http://www.w3.org/1999/xlink" x="0px" y="0px"
	 viewBox="0 0 13.5 13.5" style="enable-background:new 0 0 13.5 13.5;" xml:space="preserve">
<polygon fill="#000" points="13.5,1.4 12.1,0 6.8,5.4 1.3,0 0,1.4 5.4,6.8 0,12.1 1.3,13.5 6.8,8.1 12.1,13.5 13.5,12.1 8.1,6.8 "/>
</svg>
