<?xml version="1.0" encoding="utf-8"?>
<!-- Generator: Adobe Illustrator 22.1.0, SVG Export Plug-In . SVG Version: 6.00 Build 0)  -->
<svg version="1.1" id="Layer_1" xmlns="http://www.w3.org/2000/svg" xmlns:xlink="http://www.w3.org/1999/xlink" x="0px" y="0px"
	 viewBox="0 0 15.26 14.62" style="enable-background:new 0 0 15.26 14.62;" xml:space="preserve">
<path d="M5.16,3.64l2.03-2.1v9.17c0,0.25,0.19,0.45,0.44,0.45s0.44-0.2,0.44-0.45V1.54l2.03,2.1c0.08,0.09,0.2,0.13,0.31,0.13
	c0.11,0,0.22-0.04,0.31-0.13c0.17-0.18,0.17-0.46,0-0.64L7.94,0.13C7.85,0.05,7.74,0,7.63,0C7.51,0,7.4,0.05,7.32,0.13L4.54,3.01
	c-0.17,0.18-0.17,0.46,0,0.64C4.71,3.82,4.99,3.82,5.16,3.64z M14.82,7.13c-0.24,0-0.44,0.2-0.44,0.45v4.11
	c0,1.12-0.88,2.02-1.96,2.02H2.83c-1.08,0-1.96-0.91-1.96-2.02V7.51c0-0.25-0.19-0.45-0.44-0.45S0,7.26,0,7.51v4.18
	c0,1.62,1.27,2.93,2.83,2.93h9.59c1.56,0,2.83-1.32,2.83-2.93V7.58C15.26,7.33,15.06,7.13,14.82,7.13z"/>
</svg>
