<?xml version="1.0" encoding="utf-8"?>
<!-- Generator: Adobe Illustrator 22.1.0, SVG Export Plug-In . SVG Version: 6.00 Build 0)  -->
<svg version="1.1" id="Layer_1" xmlns="http://www.w3.org/2000/svg" xmlns:xlink="http://www.w3.org/1999/xlink" x="0px" y="0px"
	 viewBox="0 0 20.05 15.65" style="enable-background:new 0 0 20.05 15.65;" xml:space="preserve">
<style type="text/css">
	.st0{fill:#000;}
</style>
<path class="st0" d="M18.47,0H1.58c-0.44,0-0.8,0.15-1.12,0.46C0.15,0.78,0,1.14,0,1.58v12.48c0,0.44,0.15,0.8,0.46,1.12
	s0.68,0.46,1.12,0.46h16.89c0.44,0,0.8-0.15,1.12-0.46c0.31-0.31,0.46-0.68,0.46-1.12V1.58c0-0.44-0.15-0.8-0.46-1.12
	C19.27,0.15,18.91,0,18.47,0z M19.09,14.06c0,0.17-0.06,0.32-0.18,0.44c-0.12,0.12-0.27,0.18-0.44,0.18H1.58
	c-0.17,0-0.32-0.06-0.44-0.18c-0.12-0.12-0.18-0.27-0.18-0.44V4.58l0.44,0.5c0.23,0.26,0.49,0.51,0.76,0.73
	C4.2,7.38,5.85,8.68,7.06,9.69c0.38,0.32,0.7,0.58,0.94,0.76c0.23,0.17,0.55,0.35,0.94,0.53c0.77,0.35,1.4,0.34,2.17,0
	c0.4-0.18,0.71-0.36,0.94-0.53c0.25-0.18,0.55-0.43,0.94-0.76c1.21-1.01,2.85-2.31,4.9-3.88c0.27-0.22,0.52-0.46,0.76-0.72l0.44-0.5
	V14.06z M19.1,1.79l0,0.21c0,0.5-0.19,1.05-0.57,1.65c-0.37,0.58-0.78,1.04-1.21,1.39c-1.48,1.16-3.01,2.38-4.6,3.64
	c-0.04,0.03-0.17,0.15-0.4,0.33c-0.23,0.19-0.4,0.34-0.54,0.44c-0.14,0.11-0.32,0.23-0.52,0.37c-0.23,0.15-0.44,0.27-0.63,0.34
	c-0.2,0.08-0.4,0.12-0.59,0.12c-0.2,0-0.4-0.04-0.61-0.12c-0.19-0.07-0.4-0.19-0.63-0.34C8.58,9.67,8.41,9.55,8.28,9.45
	C8.14,9.35,7.96,9.2,7.74,9.01c-0.22-0.19-0.35-0.3-0.4-0.34C5.75,7.41,4.22,6.2,2.74,5.04C1.56,4.1,0.96,2.94,0.96,1.58
	c0-0.17,0.06-0.32,0.18-0.44c0.12-0.12,0.27-0.18,0.44-0.18h16.93c0.37,0,0.58,0.27,0.58,0.74l0,0.03C19.1,1.75,19.1,1.77,19.1,1.79
	z"/>
</svg>
