<?xml version="1.0" encoding="UTF-8"?>
<svg width="32px" height="24px" viewBox="0 0 32 24" version="1.1" xmlns="http://www.w3.org/2000/svg" xmlns:xlink="http://www.w3.org/1999/xlink">
    <title>1 Elements/4 Icons/3 Addons/2 Guaranteed Replacement Vehicle/Default</title>
    <g id="Post-Office---Car---SPAO" stroke="none" stroke-width="1" fill="none" fill-rule="evenodd">
        <g id="Assets-/-Budget" transform="translate(-84.000000, -205.000000)" fill="#BA112D">
            <g id="1-Elements/4-Icons/3-Addons/2-Guaranteed-Replacement-Vehicle/Default" transform="translate(80.000000, 197.000000)">
                <path d="M12.9354719,20.0725546 C12.9354719,20.4040961 12.667602,20.6728635 12.3371678,20.6728635 L10.0443868,20.6728635 C9.71395262,20.6728635 9.44608276,20.4040961 9.44608276,20.0725546 C9.44608276,19.7410132 9.71395262,19.4722458 10.0443868,19.4722458 L12.3371678,19.4722458 C12.667602,19.4722458 12.9354719,19.7410132 12.9354719,20.0725546 Z M12.3371678,21.7638249 L10.0443868,21.7638249 C9.71395262,21.7638249 9.44608276,22.0325923 9.44608276,22.3641337 C9.44608276,22.6956752 9.71395262,22.9644426 10.0443868,22.9644426 L12.3371678,22.9644426 C12.667602,22.9644426 12.9354719,22.6956752 12.9354719,22.3641337 C12.9354719,22.0325923 12.667602,21.7638249 12.3371678,21.7638249 Z M35.957016,25.2111986 C35.9441724,25.6244513 35.9330838,25.981435 35.9330838,26.1957052 C35.9330838,26.6701093 35.6817961,27.6090724 34.9893589,28.2518031 L34.978031,28.2620484 C34.3269166,28.8362639 33.6852155,29.1425014 33.0163914,29.1985303 C32.8299598,29.2139782 32.4957073,29.2188607 32.1510841,29.2188607 C31.9020301,29.2188607 31.6480301,29.2162994 31.4396607,29.2134179 C30.8096608,30.9129134 29.180246,32.02928 27.373304,31.9994152 C25.566362,31.9695503 23.9744776,30.7999424 23.4006079,29.0805496 L17.4984578,29.0805496 C16.9196245,30.8153984 15.3051633,31.9887669 13.4818259,31.9997831 C11.6584886,32.0107993 10.030061,30.8570236 9.43044708,29.1292946 C9.3085526,29.1384193 9.16791126,29.1448226 9.01259152,29.1448226 C8.32307857,29.153489 7.63986442,29.0123198 7.00986835,28.7310097 C5.95174766,28.2502824 5.23649508,27.1096154 5.23649508,25.8954707 L5.23649508,16.4653386 L4.59830407,16.4653386 C4.26786986,16.4653386 4,16.1965712 4,15.8650297 C4,15.5334883 4.26786986,15.2647209 4.59830407,15.2647209 L6.64107372,15.2647209 C6.97150794,15.2647209 7.2393778,15.5334883 7.2393778,15.8650297 C7.2393778,16.1965712 6.97150794,16.4653386 6.64107372,16.4653386 L6.43310323,16.4653386 L6.43310323,18.637016 C8.13571707,17.3759672 11.6393059,14.8293769 13.1979279,14.0506562 C13.3210988,13.9891045 13.4603042,13.9187483 13.6132307,13.8415086 C14.7817585,13.2510448 16.7374948,12.2627763 18.5352789,11.6526223 L18.5449315,11.6494207 C20.5225259,11.0154144 21.3980442,10.8320401 22.448028,10.8320401 C22.7591461,10.8320401 23.8421563,10.8698996 24.7276463,11.3567101 C25.4921991,11.7770063 26.0101709,12.4744051 26.2313041,12.7720783 C26.2584272,12.8085771 26.280365,12.8385125 26.2972771,12.8596434 L26.3241609,12.8931806 L26.3460189,12.9303197 C27.0035152,14.0476947 28.4292339,17.2215677 28.8526737,18.1723769 C30.513486,18.3188523 32.0045395,18.4693297 33.0838003,18.613724 C33.8385849,18.7093245 34.53925,19.0573062 35.0727226,19.6015123 L35.0814977,19.610717 C35.5106811,20.0395777 35.8417427,21.0561808 35.9233514,21.5049717 L35.9278187,21.5330661 C36.0439695,22.4036741 35.993712,24.026349 35.957016,25.2111986 Z M16.0926826,17.253264 C17.7864415,17.3567573 22.9905701,17.6834054 27.4880617,18.0556769 C26.916083,16.7856634 25.859478,14.477836 25.3341671,13.5733706 C25.3159786,13.5493582 25.2949981,13.5215039 25.271385,13.4896475 C25.0820018,13.2347164 24.6879987,12.7042834 24.1521575,12.4096518 C23.4858064,12.0433033 22.5518138,12.0327379 22.4475494,12.0327379 C21.6411152,12.0327379 20.9391849,12.1423143 18.9135666,12.7916084 C17.952961,13.1300337 17.0112222,13.5201326 16.0924433,13.9602096 L16.0926826,17.253264 Z M16.519188,27.7401799 C16.525,26.4957307 15.7823649,25.3705527 14.638157,24.8902526 C13.4939492,24.4099525 12.1740008,24.669327 11.2949019,25.547214 C10.415803,26.4251011 10.1510612,27.7482322 10.624346,28.8985305 C11.0976307,30.0488288 12.2155299,30.7992765 13.4558369,30.7992765 C15.1429227,30.8014467 16.5133484,29.4329102 16.519188,27.7401799 L16.519188,27.7401799 Z M30.5059974,27.7401799 C30.5089878,26.5701977 29.8496947,25.4999715 28.8053374,24.979526 C27.76098,24.4590805 26.5126996,24.5786856 25.5853918,25.2880481 C24.6580839,25.9974105 24.2125878,27.1734932 24.4362323,28.3217591 C24.4426153,28.3453156 24.4475703,28.3692384 24.4510703,28.393396 C24.7902778,29.9207432 26.2187624,30.9487724 27.7694064,30.7814838 C29.3200505,30.6141951 30.4980655,29.3049679 30.5059075,27.7401799 L30.5059974,27.7401799 Z M34.7437351,21.7070757 C34.6653174,21.2941432 34.3884223,20.6125125 34.2359744,20.4602741 L34.2115636,20.4352212 C33.8639548,20.0851104 33.409136,19.8624079 32.9201841,19.8028959 C28.2282038,19.1751329 15.5864376,18.4253871 15.459278,18.4181834 C15.4549702,18.4181834 15.450822,18.4170628 15.4465142,18.4167427 C15.4359043,18.4158622 15.4254539,18.4146616 15.4150035,18.4133009 C15.4045531,18.4119402 15.3960173,18.4106595 15.3866838,18.4089787 C15.3773502,18.4072978 15.3661819,18.4048165 15.3559708,18.4024153 C15.3457598,18.4000141 15.3374633,18.397853 15.3283691,18.3952116 C15.3192749,18.3925702 15.3092234,18.3892886 15.2997303,18.3860069 C15.2902372,18.3827252 15.2813025,18.3796036 15.272288,18.3759217 C15.2632736,18.3722398 15.2547378,18.3684778 15.2460424,18.3644758 C15.2373471,18.3604737 15.2279338,18.3564717 15.2190789,18.3515091 C15.210224,18.3465466 15.2031241,18.3426245 15.1951467,18.3379822 C15.1871693,18.3333398 15.177756,18.3277369 15.1693,18.3219739 C15.1608439,18.3162109 15.1542227,18.3116486 15.1468037,18.3063659 C15.1393848,18.3010832 15.130849,18.2945998 15.1228716,18.2882766 C15.1148942,18.2819533 15.1085921,18.2764305 15.1016517,18.2703474 C15.0947114,18.2642642 15.0869733,18.2573006 15.0799532,18.2504971 C15.0729331,18.2436936 15.0665512,18.2370502 15.0600098,18.2300866 C15.0534683,18.2231231 15.0470066,18.2161595 15.0407843,18.2088757 C15.0345619,18.201592 15.0284193,18.1937479 15.0223565,18.1859839 C15.0162937,18.1782199 15.0111084,18.1712564 15.0057635,18.1636525 C15.0004187,18.1560485 14.9945952,18.1470039 14.9892503,18.1385195 C14.9839055,18.1300352 14.9795179,18.1229915 14.9749708,18.1149874 C14.9704237,18.1069833 14.9653979,18.0972983 14.9608508,18.0882537 C14.9563037,18.079209 14.9528734,18.0716051 14.9487252,18.0630407 C14.944577,18.0544763 14.9407478,18.0448713 14.9374771,18.0356666 C14.9342064,18.0264619 14.9306165,18.0174172 14.9275054,18.0081324 C14.9243942,17.9988477 14.9218414,17.989883 14.919528,17.9806783 C14.9172145,17.9714736 14.9141033,17.9609081 14.9115506,17.9508229 C14.9089978,17.9407378 14.9078012,17.9326536 14.9062057,17.9234489 C14.9042912,17.9128834 14.9026159,17.902318 14.9013395,17.8914324 C14.9002227,17.8822277 14.8994249,17.8729429 14.8987868,17.8636581 C14.897989,17.8527725 14.8973508,17.8418869 14.8971115,17.8308412 C14.8971115,17.8266791 14.8964733,17.8228371 14.8964733,17.8184348 L14.8964733,14.5394677 C14.6242848,14.6749774 14.3733162,14.8016826 14.1519437,14.9135001 C13.9971824,14.9917004 13.8567804,15.062857 13.7319343,15.125129 C12.0070635,15.9868524 7.51762908,19.3213681 6.43310323,20.1325855 L6.43310323,25.8955508 C6.43310323,26.6464972 6.86579673,27.347738 7.51005056,27.6404486 C8.11537473,27.9239544 8.77175419,27.9582121 9.2019747,27.9399627 C9.19886352,27.8738487 9.19686917,27.8073344 9.19686917,27.74042 C9.2271318,25.4016829 11.1253122,23.5217084 13.4564352,23.5217084 C15.7875582,23.5217084 17.6857386,25.4016829 17.7160012,27.74042 C17.7160012,27.7873241 17.7139271,27.833668 17.7124911,27.8801719 L23.1872127,27.8801719 C23.185697,27.833668 23.1837027,27.7873241 23.1837027,27.74042 C23.2139653,25.4016829 25.1121457,23.5217084 27.4432687,23.5217084 C29.7743917,23.5217084 31.6725721,25.4016829 31.7028347,27.74042 C31.7028347,27.8331077 31.6987662,27.9245147 31.6929427,28.0159218 C32.1636086,28.0205642 32.7002475,28.0204841 32.9177111,28.0023148 C33.1742639,27.9809438 33.5843016,27.8916178 34.1823663,27.3660674 C34.5692696,27.0030006 34.736715,26.4166189 34.736715,26.1962655 C34.736715,25.9629454 34.7480429,25.5973974 34.7611258,25.1741396 C34.7638381,25.0873749 34.7666302,24.9966883 34.7695021,24.9035203 L34.2372508,24.8806286 L32.9718775,24.8806286 C32.6414433,24.8806286 32.3735735,24.6118611 32.3735735,24.2803197 C32.3735735,23.9487782 32.6414433,23.6800108 32.9718775,23.6800108 L34.2754624,23.6805711 L34.7983004,23.7030627 C34.8100272,22.9349875 34.8037251,22.1717948 34.7437351,21.7070757 Z M28.8231307,11.5887494 C28.8176029,10.1416059 29.6821549,8.83385589 31.0130853,8.27619212 C32.3440156,7.71852836 33.878745,8.02097233 34.9005858,9.04228883 C35.9224267,10.0636053 36.2297801,11.6022989 35.6791182,12.9398307 C35.1284563,14.2773625 33.8284193,15.1498684 32.386098,15.1498684 C30.4221458,15.1536229 28.8269867,13.5592823 28.8231307,11.5887494 L28.8231307,11.5887494 Z M30.441849,12.0577107 L31.3586104,12.9741023 C31.5142494,13.1296432 31.7659357,13.1296432 31.9215747,12.9741023 L34.2339003,10.6629131 C34.3355173,10.5621341 34.3756476,10.4145175 34.3391043,10.2759269 C34.302561,10.1373363 34.1949267,10.0289435 34.0569342,9.99176843 C33.9189418,9.95459334 33.7716716,9.99431504 33.6708562,10.0959013 L31.6400527,12.1256657 L31.0048931,11.4908591 C30.9040777,11.3892728 30.7568075,11.3495511 30.6188151,11.3867262 C30.4808226,11.4239013 30.3731883,11.5322941 30.336645,11.6708847 C30.3001017,11.8094753 30.340232,11.9570919 30.441849,12.0578708 L30.441849,12.0577107 Z" id="Default"></path>
            </g>
        </g>
    </g>
</svg>