<?xml version="1.0" encoding="UTF-8"?>
<svg width="609px" height="129px" viewBox="0 0 609 129" version="1.1" xmlns="http://www.w3.org/2000/svg" xmlns:xlink="http://www.w3.org/1999/xlink">
    <title>enterprise-rent-a-car-vector-logo</title>
    <g id="Page-1" stroke="none" stroke-width="1" fill="none" fill-rule="evenodd">
        <g id="enterprise-rent-a-car-vector-logo" transform="translate(4.000000, 4.000000)">
            <rect id="Rectangle" fill="#FFFFFF" fill-rule="nonzero" x="0.2" y="0.3" width="600" height="120"></rect>
            <rect id="Rectangle" stroke="#FFFFFF" stroke-width="8.3355" x="0.2" y="0.3" width="600" height="120"></rect>
            <g id="Group" fill-rule="nonzero">
                <rect id="Rectangle" fill="#000000" x="120.2" y="0.3" width="480" height="120"></rect>
                <path d="M366.5,84.5 C358.6,84.5 353.8,81.8 349.3,78.3 L349.3,102.6 L335.7,102.6 L335.7,41.1 L349.3,41.1 L349.3,45.7 C353.9,42.1 360.2,40 366.5,40 C376.3,40 384.1,42.7 389.8,47.6 C394.4,51.6 396.8,56.6 396.8,62.2 C396.8,75.3 384.7,84.5 366.5,84.5 M378.5,52.9 C375.4,50 371.4,48.6 365.8,48.6 C355.6,48.6 349.3,54 349.3,61.8 C349.3,65.3 350.7,68.5 353.2,70.8 C356.3,73.7 360.2,75.1 365.8,75.1 C371.4,75.1 375.4,73.6 378.5,70.8 C381,68.5 382.3,65.3 382.3,61.8 C382.3,58.3 381,55.2 378.5,52.9" id="Shape" fill="#FFFFFF"></path>
                <path d="M455,34.4 C452.1,34.4 449.4,33.6 447.6,32.1 C446.1,31 445.4,29.6 445.4,28.2 C445.4,26.8 446.2,25.4 447.6,24.2 C449.4,22.8 452.1,21.9 454.9,21.9 C457.8,21.9 460.5,22.8 462.3,24.2 C463.7,25.4 464.5,26.8 464.5,28.2 C464.5,31.7 460.3,34.4 455,34.4 M462.4,83.6 L447.5,83.6 L447.5,41.1 L462.4,41.1 L462.4,83.6 Z" id="Shape" fill="#FFFFFF"></path>
                <path d="M494.3,85.1 C482.5,85.1 475.8,82.8 469.7,77.5 L468.9,76.7 L470,76.1 L479.2,71.2 L479.8,70.8 L480.4,71.3 C484.2,73.7 487.7,76 494.4,76 C499.2,76 502.6,75 504.5,73.5 C505.2,72.9 505.6,72.4 505.6,71.6 C505.6,68.1 498.7,67.1 493.7,66.3 L492,66.1 C481.6,64.6 470.9,62 470.9,53.4 C470.9,50.4 472.3,47.8 475,45.5 C479.4,42 488.1,39.8 496.9,39.8 C507,39.8 514.5,42.4 518.7,47 L519.4,47.8 L509,52.9 L508.3,53.3 L507.7,52.8 C504.4,50.2 501.2,48.9 496.2,48.9 C491.4,48.9 487.4,50.2 487.4,52.7 C487.4,56.4 494.6,57.3 499.8,58 C500.6,58.2 501.4,58.2 502,58.4 C512.1,59.9 522.2,62.7 522.2,71.3 C521.9,81.4 506.8,85.1 494.3,85.1" id="Path" fill="#FFFFFF"></path>
                <path d="M160.5,83.3 L160.5,58.6 C160.5,55.6 159.5,53.4 157.5,51.7 C154.7,49.4 150.7,48.9 147.7,48.9 C137.8,48.9 135,53.5 135,61.6 L135,83.2 L120.2,83.2 L120.2,41 L135,41 L135,45.8 C138.9,42.2 144.4,39.9 152.4,39.9 C159.9,39.9 166.2,41.8 170.2,45.2 C173.6,48.1 175.2,51.8 175.2,56.3 L175.2,83.2 L160.5,83.2" id="Path" fill="#FFFFFF"></path>
                <path d="M179.1,49.6 L179.1,40.8 L188.9,40.8 L188.9,29.4 L203.8,29.4 L203.8,40.8 L219.4,40.8 L219.4,49.6 L203.8,49.6 L203.8,69 C203.8,73.1 205.6,75.7 212.2,75.7 C214.8,75.7 217.5,75.4 219.4,74.4 L219.4,83.1 C216.3,84.1 211.9,84.5 208.4,84.5 C192.5,84.5 188.9,79.6 188.9,69.9 L188.9,49.6 L179.1,49.6 L179.1,49.6 Z" id="Path" fill="#FFFFFF"></path>
                <path d="M269.5,71.2 C264.8,74 261.7,75.1 255.6,75.2 C248.5,75.4 242.1,73.3 238.7,70 C237.4,68.7 236.6,67.2 236.3,65.7 L282.4,65.7 C284.8,65.7 286.1,64.7 286.1,61.7 C286,56.6 283.7,51.3 279.7,47.4 C274.4,42.2 264.8,39 254.2,39 C243.3,39 233.7,42.7 227.8,48.5 C224,52.3 221.8,56.9 221.8,61.8 C221.8,66.9 223.9,71.7 227.8,75.4 C233.5,81 243.4,84.4 254.6,84.4 C259.5,84.4 265.6,83.8 270.2,82.1 C272.3,81.4 274.3,80.5 276.2,79.3 C278.1,78.2 279.9,76.8 281.4,75.2 C282.4,74.2 283.2,73.1 283.9,71.8 C284.4,70.8 282.6,71 281.5,71 L269.5,71.2 L269.5,71.2 M269.8,57.5 L235.5,57.5 C236.7,54.2 243.5,48.2 254,48 C264.5,47.9 269.6,52.3 271.8,55.4 C272.8,57.2 271.2,57.5 269.8,57.5" id="Shape" fill="#FFFFFF"></path>
                <path d="M329.5,40.8 C329.5,40.8 326.7,40.2 323.9,40.2 C317.2,40.2 310.4,44.4 306.7,47.9 L306.7,41.3 L291.9,41.3 L291.9,83.5 L306.7,83.5 L306.7,62.4 C306.7,54.2 312.1,50.2 322.9,50.2 C324.3,50.2 326.1,50.4 328.3,50.7 L329.5,51 L329.5,40.8 L329.5,40.8 Z" id="Path" fill="#FFFFFF"></path>
                <path d="M441,40.8 C441,40.8 438.2,40.2 435.4,40.2 C428.7,40.2 421.9,44.4 418.2,47.9 L418.2,41.3 L403.4,41.3 L403.4,83.5 L418.2,83.5 L418.2,62.4 C418.2,54.2 423.6,50.2 434.5,50.2 C435.9,50.2 437.7,50.4 439.9,50.7 L441.1,51 L441.1,40.8 L441,40.8 Z" id="Path" fill="#FFFFFF"></path>
                <path d="M573,71.2 C568.3,74 565.2,75.1 559.1,75.2 C552,75.4 545.6,73.3 542.2,70 C540.9,68.7 540.1,67.2 539.8,65.7 L585.9,65.7 C588.3,65.7 589.6,64.7 589.6,61.7 C589.5,56.6 587.2,51.3 583.2,47.4 C577.9,42.2 568.3,39 557.7,39 C546.8,39 537.2,42.7 531.3,48.5 C527.5,52.3 525.3,56.9 525.3,61.8 C525.3,66.9 527.4,71.7 531.3,75.4 C537,81 546.9,84.4 558,84.4 C562.9,84.4 569,83.8 573.6,82.1 C575.7,81.4 577.7,80.5 579.6,79.3 C581.5,78.2 583.3,76.8 584.8,75.2 C585.8,74.2 586.6,73.1 587.3,71.8 C587.8,70.8 586,71 584.9,71 L573,71.2 L573,71.2 M573.3,57.5 L539,57.5 C540.2,54.2 547,48.2 557.5,48 C568,47.9 573.1,52.3 575.4,55.4 C576.3,57.2 574.7,57.5 573.3,57.5" id="Shape" fill="#FFFFFF"></path>
                <path d="M112.2,56.3 C109.8,44.6 96.1,32.7 74.5,32.7 L74.5,32.7 C55.4,32.7 41.5,42.8 37,53.2 C36.9,53.4 36.5,54.3 36.4,54.7 L36.4,54.7 L0.2,54.7 L0.2,65.4 C18.3,65.4 99.1,65.4 101.5,65.4 C106.5,65.4 110.1,65.3 111.6,63.4 C112.7,62.1 112.9,59.9 112.2,56.3 M96.2,54 C95.9,54.7 94.7,54.8 93.6,54.8 L51.8,54.8 C52.1,54 52.7,53.3 52.7,53.3 C56.6,47.5 65.8,43.4 74.8,43.4 C84.2,43.4 91.9,46.6 95.8,52.1 C96.3,53 96.4,53.6 96.2,54" id="Shape" fill="#FFFFFF"></path>
                <path d="M74.2,76.5 C65.7,76.5 57.6,73 53.3,67.9 L37.2,67.9 C41.5,78.1 54.3,88 74.4,88 C95,88 103.3,80.8 108.7,73.7 C109,73.3 109.1,73.1 109.3,72.7 L90.4,72.7 C86.7,75.7 79.6,76.5 74.2,76.5" id="Path" fill="#FFFFFF"></path>
                <path d="M0.2,0.3 L0.2,54.8 L36.4,54.8 L36.4,54.8 C36.5,54.4 36.9,53.5 37,53.3 C41.5,42.9 55.4,32.8 74.5,32.8 L74.5,32.8 C96.2,32.8 109.9,44.7 112.2,56.4 C112.9,60 112.7,62.2 111.6,63.5 C110,65.4 106.5,65.5 101.5,65.5 C99.1,65.5 19.8,65.5 0.2,65.5 L0.2,120.3 L120.2,120.3 L120.2,0.3 L0.2,0.3 L0.2,0.3 Z M108.7,73.7 C103.3,80.8 95,87.9 74.4,88 C54.3,88 41.5,78.1 37.2,67.9 L53.3,67.9 C57.5,73 65.7,76.5 74.2,76.5 C79.5,76.5 86.6,75.8 90.4,72.7 L109.3,72.7 C109.2,73.1 109,73.3 108.7,73.7" id="Shape" fill="#00A664"></path>
                <path d="M96.2,54 C96.4,53.6 96.3,53 95.8,52.1 C91.9,46.5 84.2,43.3 74.8,43.4 C65.8,43.4 56.7,47.5 52.7,53.3 C52.7,53.3 52.1,54.1 51.8,54.8 L93.5,54.8 C94.7,54.8 95.8,54.6 96.2,54" id="Path" fill="#00A664"></path>
                <path d="M105.4,60.1 C106.2,59.5 106.4,58.8 106.4,57.5 C106.2,51.9 96.5,36.9 74.5,36.9 C53.3,36.9 45.6,49.2 43.7,53 C43.7,53 43.2,53.8 42.9,54.8 L45.4,54.8 C45.6,54.3 45.8,53.8 46.1,53.3 C47.8,50.1 55.8,39.1 74.5,39.1 C96.4,39.1 104.1,54 104.1,57.2 C104.1,57.7 104,58 103.8,58.1 C103.2,58.7 102.4,59 96.9,59 L0.2,59 L0.2,61.2 L96.8,61.2 C103.9,61.1 104.7,60.6 105.4,60.1" id="Path" fill="#00A664"></path>
                <path d="M102,72.6 L101.8,72.9 C93.3,83.5 75.5,83.3 73.5,83.3 C58.3,83 47.8,75.2 44.1,67.8 L46.6,67.8 C50.1,73.9 59,80.7 73.6,81.1 C74.3,81.1 90.4,81.8 99.2,72.6 L102,72.6 Z" id="Path" fill="#00A664"></path>
                <rect id="Rectangle" fill="#FFFFFF" x="472.7" y="101.9" width="12.2" height="3.5"></rect>
                <path d="M502.5,109.8 L502.4,109.8 C500.7,111.6 498.6,112.4 495.4,112.4 C491,112.4 486.8,110.7 486.8,107.5 C486.8,102.2 495.2,101.8 501.1,101.8 L502.6,101.8 L502.6,101.4 C502.6,99.4 500.4,98.3 497.2,98.3 C494.7,98.3 493,99 491.4,100 L488.3,97.9 C490.9,96.1 494.1,95.3 497.8,95.3 C507.9,95.3 507.9,100.3 507.9,102.6 L507.9,111.9 L502.5,111.9 L502.5,109.8 Z M502.1,104.7 L500.9,104.7 C497.6,104.7 492.6,104.9 492.6,107.2 C492.6,108.7 494.8,109.3 496.8,109.3 C500.9,109.3 502.2,107.8 502.2,105.6 L502.2,104.7 L502.1,104.7 Z" id="Shape" fill="#FFFFFF"></path>
                <path d="M564,109.8 L563.9,109.8 C562.2,111.6 560.1,112.4 556.9,112.4 C552.5,112.4 548.2,110.7 548.2,107.5 C548.2,102.2 556.6,101.8 562.5,101.8 L564,101.8 L564,101.4 C564,99.4 561.8,98.3 558.6,98.3 C556.1,98.3 554.4,99 552.8,100 L549.7,97.9 C552.3,96.1 555.5,95.3 559.2,95.3 C569.3,95.3 569.3,100.3 569.3,102.6 L569.3,111.9 L564,111.9 L564,109.8 Z M563.7,104.7 L562.5,104.7 C559.2,104.7 554.2,104.9 554.2,107.2 C554.2,108.7 556.4,109.3 558.4,109.3 C562.5,109.3 563.8,107.8 563.8,105.6 L563.8,104.7 L563.7,104.7 Z" id="Shape" fill="#FFFFFF"></path>
                <rect id="Rectangle" fill="#FFFFFF" x="510.7" y="101.9" width="12.2" height="3.5"></rect>
                <path d="M542.7,100.6 C541.3,99.6 539.8,99 538.2,99 C533.8,99 531.2,101.3 531.2,103.9 C531.2,106.4 533.8,108.8 538.2,108.8 C540,108.8 541.7,108.3 542.8,107.3 L546.8,110.2 C544.4,111.9 540.3,112.5 538.2,112.5 C531,112.5 525.3,109.1 525.3,104 C525.3,98.9 531,95.5 538.2,95.5 C541.2,95.5 544.5,96.2 546.8,98 L542.7,100.6 Z" id="Path" fill="#FFFFFF"></path>
                <path d="M447.6,111.9 L447.6,102.3 C447.6,101.2 447.2,100.3 446.5,99.6 C445.4,98.7 443.9,98.5 442.7,98.5 C438.9,98.5 437.8,100.3 437.8,103.4 L437.8,111.8 L432.1,111.8 L432.1,95.4 L437.8,95.4 L437.8,97.2 C439.3,95.8 441.5,94.9 444.6,94.9 C447.5,94.9 450,95.7 451.5,96.9 C452.8,98 453.5,99.5 453.5,101.2 L453.5,111.6 L447.6,111.6" id="Path" fill="#FFFFFF"></path>
                <path d="M454.8,98.9 L454.8,95.5 L459.6,95.5 L459.6,91 L465.4,91 L465.4,95.4 L471.5,95.4 L471.5,98.8 L465.4,98.8 L465.4,106.3 C465.4,107.9 466.1,108.9 468.7,108.9 C469.7,108.9 470.8,108.8 471.5,108.4 L471.5,111.8 C470.3,112.2 468.6,112.3 467.2,112.3 C461,112.3 459.6,110.4 459.6,106.6 L459.6,98.7 L454.8,98.7 L454.8,98.9 Z" id="Path" fill="#FFFFFF"></path>
                <path d="M403.6,95.4 C403.6,95.4 402.5,95.2 401.4,95.2 C398.8,95.2 396.2,96.8 394.7,98.2 L394.7,95.6 L389,95.6 L389,112 L394.7,112 L394.7,103.8 C394.7,100.6 396.8,99.1 401,99.1 C401.5,99.1 402.2,99.2 403.1,99.3 L403.6,99.4 L403.6,95.4 Z" id="Path" fill="#FFFFFF"></path>
                <path d="M587.9,95.4 C587.9,95.4 586.8,95.2 585.7,95.2 C583.1,95.2 580.5,96.8 579,98.2 L579,95.6 L573.3,95.6 L573.3,112 L579,112 L579,103.8 C579,100.6 581.1,99.1 585.3,99.1 C585.9,99.1 586.5,99.2 587.4,99.3 L587.9,99.4 L587.9,95.4 L587.9,95.4 Z" id="Path" fill="#FFFFFF"></path>
                <path d="M422.9,107.3 C421.1,108.4 419.9,108.8 417.6,108.8 C414.9,108.9 412.5,108.1 411.2,106.8 C410.7,106.3 410.4,105.7 410.3,105.2 L427.9,105.2 C428.8,105.2 429.3,104.8 429.3,103.7 C429.3,101.8 428.4,99.7 426.9,98.3 C424.9,96.3 421.2,95.1 417.2,95.1 C413,95.1 409.4,96.5 407.2,98.7 C405.7,100.2 404.9,101.9 404.9,103.8 C404.9,105.8 405.7,107.6 407.2,109 C409.4,111.1 413.1,112.4 417.4,112.4 C419.3,112.4 421.6,112.2 423.4,111.5 C424.2,111.2 425,110.9 425.7,110.4 C426.4,110 427.1,109.4 427.7,108.8 C428.1,108.4 428.4,108 428.6,107.5 C428.8,107.1 428.1,107.2 427.7,107.2 L422.9,107.3 L422.9,107.3 M423,102.1 L409.9,102.1 C410.4,100.9 413,98.5 416.9,98.5 C420.9,98.5 422.9,100.1 423.7,101.3 C424.1,102 423.5,102.1 423,102.1" id="Shape" fill="#FFFFFF"></path>
                <path d="M8.6,107.7 C11.1,107.7 13,109.7 13,112.2 C13,114.7 11,116.7 8.6,116.7 C6.1,116.7 4.1,114.7 4.1,112.2 C4.1,109.7 6.1,107.7 8.6,107.7 L8.6,107.7 Z M8.6,108.4 C6.6,108.4 5,110.1 5,112.2 C5,114.3 6.6,116 8.6,116 C10.6,116 12.2,114.3 12.2,112.2 C12.2,110.1 10.6,108.4 8.6,108.4 L8.6,108.4 Z M7.7,114.8 L6.9,114.8 L6.9,109.8 C7.3,109.8 7.7,109.7 8.3,109.7 C9.1,109.7 9.6,109.9 9.9,110.1 C10.2,110.3 10.4,110.7 10.4,111.1 C10.4,111.8 10,112.2 9.4,112.3 L9.4,112.3 C9.8,112.4 10.1,112.8 10.2,113.5 C10.3,114.3 10.4,114.6 10.5,114.7 L9.7,114.7 C9.6,114.5 9.5,114.1 9.4,113.4 C9.3,112.8 9,112.5 8.3,112.5 L7.7,112.5 L7.7,114.8 Z M7.7,112 L8.3,112 C9,112 9.5,111.8 9.5,111.1 C9.5,110.7 9.2,110.2 8.3,110.2 C8,110.2 7.9,110.2 7.7,110.2 L7.7,112 Z" id="Shape" fill="#FFFFFF"></path>
            </g>
        </g>
    </g>
</svg>