<?xml version="1.0" encoding="UTF-8"?>
<svg width="32px" height="24px" viewBox="0 0 32 24" version="1.1" xmlns="http://www.w3.org/2000/svg" xmlns:xlink="http://www.w3.org/1999/xlink">
    <title>1 Elements/4 Icons/3 Addons/1 Breakdown/Default</title>
    <g id="Post-Office---Car---SPAO" stroke="none" stroke-width="1" fill="none" fill-rule="evenodd">
        <g id="Assets-/-Budget" transform="translate(-204.000000, -206.000000)" fill="#BA112D">
            <g id="1-Elements/4-Icons/3-Addons/1-Breakdown/Default" transform="translate(200.000000, 198.000000)">
                <path d="M9.50854903,26.9613918 C8.65436167,26.9681674 7.96677885,27.6643012 7.97135165,28.5176901 C7.97597026,29.371079 8.67101075,30.0597812 9.52522156,30.0573734 C10.3794324,30.054953 11.0705616,29.3623333 11.0703246,28.5089321 C11.0658401,27.6511323 10.3671739,26.9588374 9.50854903,26.9613918 Z M9.50854903,29.260017 C9.09511803,29.253481 8.76464077,28.9144965 8.76899979,28.5014302 C8.77335882,28.0883639 9.11091633,27.7564157 9.52439336,27.7585787 C9.9378704,27.7607628 10.2719206,28.0962415 10.2719206,28.5093307 C10.2680149,28.9269079 9.92653202,29.2625378 9.50854903,29.2596184 L9.50854903,29.260017 Z M21.0521696,20.3820449 C20.1979801,20.3885995 19.5102177,21.084557 19.5145732,21.9379475 C19.5189703,22.791338 20.2138343,23.4802187 21.0680461,23.4780284 C21.922258,23.4758277 22.6135461,22.7833843 22.6135461,21.9299826 C22.609281,21.0721829 21.9107939,20.3797103 21.0521696,20.3820449 L21.0521696,20.3820449 Z M21.0521696,22.680669 C20.6387386,22.6741329 20.3082614,22.3351484 20.3126204,21.9220821 C20.3169794,21.5090159 20.6545369,21.1770677 21.068014,21.1792306 C21.481491,21.1814147 21.8155412,21.5168934 21.8155412,21.9299826 C21.8118541,22.347716 21.470307,22.6835875 21.0521696,22.680669 Z M29.950324,26.961393 C29.0961345,26.9679476 28.408372,27.6639051 28.4127276,28.5172956 C28.4171246,29.370686 29.1119887,30.0595668 29.9662005,30.0573765 C30.8204123,30.0551758 31.5117005,29.3627324 31.5117005,28.5093307 C31.5074354,27.651531 30.8089482,26.9590584 29.950324,26.961393 Z M29.950324,29.260017 C29.536893,29.253481 29.2064157,28.9144965 29.2107747,28.5014302 C29.2151337,28.0883639 29.5526913,27.7564157 29.9661683,27.7585787 C30.3796453,27.7607628 30.7136955,28.0962415 30.7136955,28.5093307 C30.7097898,28.9269079 30.3683069,29.2625378 29.950324,29.2596184 L29.950324,29.260017 Z M29.2871818,23.1788677 C29.2871818,23.3990209 29.1085423,23.5774904 28.8881793,23.5774904 L26.9642692,23.5774904 C26.7439062,23.5774904 26.5652667,23.3990209 26.5652667,23.1788677 C26.5652667,22.9587144 26.7439062,22.7802449 26.9642692,22.7802449 L28.8881793,22.7802449 C29.1083866,22.7802449 29.2869616,22.9584715 29.2871818,23.178469 L29.2871818,23.1788677 Z M35.6274111,17.7196495 L32.209476,14.0499285 C31.9437059,13.7654638 31.5717812,13.6038109 31.182284,13.6034711 L24.6395211,13.6034711 C23.8686145,13.6021028 23.2421573,14.2245752 23.2393416,14.9947442 L23.2393416,19.1202504 L11.9274617,8.35632019 C11.918524,8.34770994 11.9091874,8.33949831 11.8997709,8.33144614 C11.3451921,7.86165814 10.5227601,7.89493171 10.0080203,8.4079817 L9.14824979,9.25816429 C8.63526048,9.76048666 8.59398482,10.5720353 9.053367,11.1237187 L9.37009517,11.5075924 L9.37009517,16.0572332 C8.45535337,16.2721978 7.86031315,17.1543052 8.00422552,18.0820438 C8.1481379,19.0097825 8.98251582,19.670578 9.91947668,19.5988499 C10.8564375,19.5271217 11.5802999,18.7470364 11.5810477,17.8082235 C11.5810477,17.5880702 11.4024082,17.4096007 11.1820452,17.4096007 C10.9616823,17.4096007 10.7830428,17.5880702 10.7830428,17.8082235 C10.789034,18.219308 10.545749,18.5932449 10.1672786,18.7546729 C9.78880819,18.9161009 9.35021414,18.833004 9.05717944,18.5443514 C8.76414474,18.2556988 8.67478669,17.8187386 8.83101063,17.4383877 C8.98723457,17.0580368 9.35805675,16.8097298 9.76957645,16.8099127 C9.98993944,16.8099127 10.1685789,16.6314432 10.1685789,16.4112899 C10.1685789,16.4061876 10.1673021,16.4014041 10.1670627,16.3963814 C10.1668233,16.3913588 10.1685789,16.3866551 10.1685789,16.3815527 L10.1685789,12.4750498 L17.7485887,21.6629054 L17.7485887,24.0471477 L13.8314217,24.0471477 L13.8314217,23.6753922 C13.8319086,22.908308 13.2107053,22.2856273 12.4428931,22.283561 L7.04231469,22.283561 C6.27570319,22.2857587 5.65550573,22.9074343 5.65586087,23.6733193 L5.65586087,24.0072057 L5.38549679,24.0072057 C4.61930777,24.0094475 3.99951328,24.6308633 4.00000029,25.3963263 L4.00000029,27.9544478 C3.99951338,28.7205142 4.61982085,29.3424069 5.386614,29.3446048 L6.09077358,29.3446048 C6.49786147,30.9083903 7.91099384,32 9.52833955,32 C11.1456853,32 12.5588176,30.9083903 12.9659055,29.3446048 L26.5327879,29.3446048 C26.9393376,30.9059155 28.3488252,31.9968202 29.9636348,32 C31.5784445,32.0031522 32.992207,30.9177827 33.4048874,29.3580782 L34.6084385,29.3501058 C35.375442,29.3452269 35.9958195,28.7248712 36.0000003,27.9585935 L36.0000003,18.6643057 C36.0000003,18.3134785 35.8670876,17.9756572 35.6274111,17.7192509 L35.6274111,17.7196495 Z M31.3333464,14.8648729 L34.7511218,18.5343547 C34.7843053,18.5696778 34.8028422,18.616261 34.8029921,18.6647043 L34.8029921,20.5530599 L27.9034412,20.5530599 L27.9034412,14.799657 L31.1824436,14.799657 C31.2395569,14.7994617 31.2941957,14.8229303 31.3333464,14.8644742 L31.3333464,14.8648729 Z M9.99022483,10.1085063 L10.8500752,9.25832373 C10.9233916,9.18713468 11.0374468,9.1792484 11.1198807,9.23966819 L20.8922494,18.5384206 L20.7501247,18.5384206 C19.6203462,18.5374977 18.5853474,19.1691948 18.0705039,20.17389 L9.97705774,10.3627479 C9.91443193,10.2873837 9.92015917,10.1766237 9.99022483,10.1081077 L9.99022483,10.1085063 Z M18.9451173,21.5128638 C18.9532838,20.5242594 19.7605589,19.7286278 20.7501247,19.7338603 L21.4315412,19.7338603 C22.4224357,19.7282315 23.2309509,20.5249214 23.2389426,21.5148569 L23.2389426,24.0468288 L18.9451173,24.0468288 L18.9451173,21.5128638 Z M5.19699547,27.9544478 L5.19699547,25.3963263 C5.19594138,25.2910806 5.28015861,25.204735 5.38549679,25.203074 L6.25436459,25.203074 C6.58490907,25.203074 6.85286832,24.9353697 6.85286832,24.6051398 L6.85286832,23.6733193 C6.85162585,23.567475 6.93637273,23.4805976 7.04231469,23.4791103 L12.4428931,23.4791103 C12.5499111,23.4804671 12.6356116,23.5681551 12.6344143,23.6750733 L12.6344143,24.6447629 C12.6344143,24.9749928 12.9023735,25.2426971 13.232918,25.2426971 L23.2399002,25.2426971 L23.2399002,28.1487366 L13.0561599,28.1487366 C12.8647806,26.346267 11.3428875,24.9785736 9.52857896,24.9785736 C7.71427037,24.9785736 6.19237728,26.346267 6.00099802,28.1487366 L5.3865342,28.1487366 C5.28056692,28.1472057 5.19580963,28.0603186 5.19699547,27.9544478 Z M9.52857896,30.8041398 C8.35230541,30.8086611 7.35547084,29.9401448 7.20000047,28.7752918 C7.20000047,28.7657248 7.20143688,28.7563173 7.20143688,28.7466707 C7.20125566,28.6997655 7.1955506,28.6530446 7.18443938,28.6074716 C7.18247097,28.5682471 7.18146016,28.5287835 7.18140696,28.4890807 C7.16907353,27.5377375 7.73322618,26.6732044 8.60949357,26.3006161 C9.48576096,25.9280278 10.5005117,26.1212123 11.1782165,26.78964 C11.8559214,27.4580677 12.062294,28.4692905 11.7006246,29.3494325 C11.3389552,30.2295744 10.4809083,30.8042364 9.52857896,30.8041398 L9.52857896,30.8041398 Z M29.9703539,30.8041445 C28.7700691,30.8093298 27.7606355,29.9060583 27.6341146,28.713585 C27.6333963,28.7008291 27.6325983,28.6880731 27.6311619,28.6755564 C27.6261345,28.614009 27.6231819,28.5519036 27.6231819,28.4890807 C27.6108159,27.5376912 28.1749757,26.6730997 29.0512798,26.3004784 C29.9275839,25.9278572 30.9423882,26.121043 31.6201263,26.7895036 C32.2978644,27.4579641 32.504239,28.4692404 32.1425371,29.3494194 C31.7808353,30.2295985 30.9227299,30.8042683 29.9703539,30.8041445 L29.9703539,30.8041445 Z M34.6003787,28.1541578 L33.4991318,28.1615722 C33.314481,26.3557212 31.793798,24.9812621 29.9768227,24.9779569 C28.1598474,24.9746517 26.6341645,26.3435693 26.4429325,28.1487366 L24.4363491,28.1487366 L24.4363491,14.9941861 C24.438835,14.8844465 24.529668,14.7973712 24.6395211,14.7993836 L26.706354,14.7993836 L26.706354,21.1503563 C26.706354,21.4805862 26.9743132,21.7482904 27.3048577,21.7482904 L34.8029921,21.7482904 L34.8029921,27.9583543 C34.8005503,28.0680543 34.7102036,28.1553643 34.6003787,28.1541578 L34.6003787,28.1541578 Z" id="Default"></path>
            </g>
        </g>
    </g>
</svg>