<?xml version="1.0" encoding="utf-8"?>
<!-- Generator: Adobe Illustrator 22.1.0, SVG Export Plug-In . SVG Version: 6.00 Build 0)  -->
<svg version="1.1" id="Layer_1" xmlns="http://www.w3.org/2000/svg" xmlns:xlink="http://www.w3.org/1999/xlink" x="0px" y="0px"
	 viewBox="0 0 18.32 15.82" style="enable-background:new 0 0 18.32 15.82;" xml:space="preserve">
<style type="text/css">
	.st0{fill:#000;}
</style>
<path class="st0" d="M9.02,5h0.16c0.68,0,1.26,0.25,1.76,0.74c0.49,0.49,0.74,1.08,0.74,1.76l-0.04,0.16L9.02,5z M5.43,5.66
	C5.14,6.26,5,6.87,5,7.5c0,1.15,0.41,2.13,1.23,2.95s1.8,1.23,2.95,1.23c0.62,0,1.24-0.16,1.84-0.47L9.73,9.92
	C9.52,9.97,9.34,10,9.18,10c-0.7,0-1.3-0.24-1.78-0.72C6.92,8.8,6.68,8.2,6.68,7.5c0-0.18,0.01-0.36,0.04-0.55L5.43,5.66z
	 M0.82,1.05L1.87,0l14.8,14.77l-1.05,1.05l-2.46-2.42l-0.35-0.35c-1.17,0.47-2.38,0.7-3.63,0.7c-2.06,0-3.92-0.58-5.59-1.74
	S0.73,9.35,0,7.5c0.65-1.67,1.69-3.05,3.12-4.14L0.82,1.05z M9.18,3.32c-0.52,0-1.03,0.1-1.52,0.31l-1.8-1.8
	c1.07-0.39,2.16-0.59,3.28-0.59c2.06,0,3.92,0.58,5.59,1.74s2.86,2.66,3.59,4.51c-0.6,1.56-1.55,2.88-2.85,3.95l-2.42-2.42
	c0.18-0.49,0.27-1,0.27-1.52c0-1.15-0.4-2.13-1.21-2.95C11.3,3.73,10.33,3.32,9.18,3.32z"/>
</svg>
