<?xml version="1.0" encoding="utf-8"?>
<!-- Generator: Adobe Illustrator 22.1.0, SVG Export Plug-In . SVG Version: 6.00 Build 0)  -->
<svg version="1.1" id="Layer_1" xmlns="http://www.w3.org/2000/svg" xmlns:xlink="http://www.w3.org/1999/xlink" x="0px" y="0px"
	 viewBox="0 0 56.69 56.69" style="enable-background:new 0 0 56.69 56.69;" xml:space="preserve">
<style type="text/css">
	.st0{fill:#000;}
</style>
<g>
	<path class="st0" d="M51.57,22.54V6.18c0.01-1.63-0.63-3.2-1.78-4.36C48.64,0.66,47.08,0,45.44,0H18.45c-0.39,0-0.76,0.19-1,0.5
		L0.26,22.89C0.08,23.11-0.01,23.39,0,23.67v31.76c0.01,0.7,0.58,1.26,1.29,1.26h49.06c3.5-0.04,6.32-2.88,6.35-6.38v-21.5
		C56.69,25.77,54.55,23.15,51.57,22.54z M35.6,21.25l-2.3-1.2v-3.02v-0.07c0.62-0.08,1.11-0.29,1.48-0.6l5.17,4.43
		c0.14,0.12,0.31,0.18,0.49,0.19L49,21.12v1.3H36.01v-0.48C36.01,21.65,35.85,21.38,35.6,21.25z M30.86,13.57
		c-0.01-0.03-0.03-0.05-0.05-0.08c-0.03-0.06-0.06-0.11-0.11-0.16c-0.03-0.03-0.06-0.05-0.09-0.07c-0.05-0.04-0.09-0.07-0.14-0.1
		c-0.04-0.02-0.08-0.03-0.11-0.04c-0.04-0.01-0.07-0.03-0.11-0.04c0.11-0.33,0.29-0.62,0.53-0.87c0.06,0.01,0.11,0.03,0.17,0.03
		c0.2,0,0.4-0.08,0.55-0.23c0.12-0.12,0.17-0.26,0.2-0.41c0.26-0.1,0.54-0.15,0.83-0.15c0.1,0,0.2-0.02,0.3-0.06
		c0.05-0.02,0.1-0.06,0.15-0.1c0.03-0.02,0.07-0.04,0.1-0.07l0.53-0.53c0.81,0.22,1.16,1.39,1.28,2.37
		c-0.42,0.01-0.76,0.35-0.76,0.77c0,1.33-0.27,1.6-1.59,1.6c-0.1,0-0.2,0.02-0.29,0.06c-0.03,0.01-0.05,0.03-0.08,0.05
		c-0.06,0.03-0.11,0.06-0.16,0.11c-0.03,0.02-0.05,0.05-0.07,0.08c-0.04,0.04-0.07,0.09-0.1,0.14c-0.02,0.04-0.03,0.07-0.04,0.11
		c-0.01,0.03-0.03,0.06-0.03,0.09c-0.43-0.24-0.84-0.82-0.84-2.23C30.92,13.75,30.9,13.66,30.86,13.57z M49,6.13v13.44l-8.26-0.13
		l-5.19-4.45c0.03-0.11,0.05-0.23,0.07-0.35h0.08c0.43,0,0.77-0.35,0.77-0.77c0-1.1-0.22-2.19-0.67-3.06l2.77-3.46l3.02-1.52
		c0.38-0.19,0.54-0.66,0.34-1.04c-0.19-0.38-0.65-0.54-1.04-0.34l-3.17,1.59c-0.1,0.05-0.19,0.12-0.26,0.21l-2.68,3.34
		c-0.41-0.29-0.9-0.46-1.47-0.46c-0.01,0-0.01,0-0.02,0V5.19c0-0.21-0.08-0.4-0.23-0.55l-2.1-2.08h14.48C47.41,2.57,49,4.16,49,6.13
		z M19.09,2.56h10.22l0.08,0.42c0.03,0.16,0.1,0.3,0.22,0.41l2.15,2.12V10c-0.31,0.06-0.62,0.15-0.9,0.29l-4.91-4.91
		c-0.15-0.15-0.34-0.23-0.55-0.23h-6.92l-0.93-0.57L19.09,2.56z M16.59,5.82l1.25,0.77c0.12,0.07,0.26,0.11,0.41,0.11h6.82
		l4.52,4.52c-0.46,0.52-0.8,1.15-0.94,1.86h-5.64c-0.24,0-0.47,0.11-0.62,0.31l-2.08,2.76l-5.84-1.46c-0.41-0.1-0.83,0.15-0.94,0.56
		c-0.1,0.41,0.15,0.83,0.56,0.94l6.33,1.58c0.06,0.02,0.12,0.02,0.19,0.02c0.24,0,0.47-0.11,0.62-0.31l2.15-2.86h5.95h0.06
		c0.18,1.71,1.01,2.79,2.34,3.08v2.8c0,0.29,0.16,0.55,0.42,0.69l2.3,1.2v0.01H3.88L16.59,5.82z M54.14,50.31
		c0,2.11-1.71,3.83-3.83,3.83H2.56v-5.45h15.26c0.49,0.04,0.96-0.19,1.21-0.6c0.26-0.41,0.26-0.94,0-1.35
		c-0.26-0.41-0.73-0.65-1.21-0.6H2.56V24.98h47.75c2.12,0.01,3.83,1.72,3.83,3.84V50.31z"/>
	<path class="st0" d="M45.38,29.77h-9.76c-0.7,0-1.28,0.57-1.28,1.28v2.46c-0.04,0.49,0.19,0.96,0.6,1.21
		c0.41,0.26,0.94,0.26,1.35,0c0.41-0.26,0.65-0.73,0.6-1.21v-1.18h7.18v1.18c-0.04,0.49,0.19,0.96,0.6,1.21
		c0.41,0.26,0.94,0.26,1.35,0c0.41-0.26,0.65-0.73,0.6-1.21v-2.46C46.65,30.35,46.08,29.77,45.38,29.77z"/>
</g>
</svg>
