<?xml version="1.0" encoding="utf-8"?>
<!-- Generator: Adobe Illustrator 22.1.0, SVG Export Plug-In . SVG Version: 6.00 Build 0)  -->
<svg version="1.1" id="Layer_1" xmlns="http://www.w3.org/2000/svg" xmlns:xlink="http://www.w3.org/1999/xlink" x="0px" y="0px"
	 viewBox="0 0 20 20" style="enable-background:new 0 0 20 20;" xml:space="preserve">
<style type="text/css">
	.st0{fill:#B30909;}
</style>
<path class="st0" d="M10,19c5,0,9-4,9-9s-4-9-9-9s-9,4-9,9S5,19,10,19z M10,20C4.5,20,0,15.5,0,10S4.5,0,10,0s10,4.5,10,10
	S15.5,20,10,20z M13.1,5.8l-2.8,2.8L7.4,5.8L6,7.2L8.8,10L6,12.8l1.4,1.4l2.8-2.8l2.8,2.8l1.4-1.4L11.7,10l2.8-2.8L13.1,5.8z"/>
</svg>
