<?xml version="1.0" encoding="UTF-8" standalone="no"?>
<svg
   xmlns:dc="http://purl.org/dc/elements/1.1/"
   xmlns:cc="http://creativecommons.org/ns#"
   xmlns:rdf="http://www.w3.org/1999/02/22-rdf-syntax-ns#"
   xmlns:svg="http://www.w3.org/2000/svg"
   xmlns="http://www.w3.org/2000/svg"
   viewBox="0 0 1013.7333 270.77332"
   height="270.77332"
   width="1013.7333"
   xml:space="preserve"
   id="svg2"
   version="1.1"><metadata
     id="metadata8"><rdf:RDF><cc:Work
         rdf:about=""><dc:format>image/svg+xml</dc:format><dc:type
           rdf:resource="http://purl.org/dc/dcmitype/StillImage" /></cc:Work></rdf:RDF></metadata><defs
     id="defs6" /><g
     transform="matrix(1.3333333,0,0,-1.3333333,0,270.77333)"
     id="g10"><g
       transform="scale(0.1)"
       id="g12"><path
         id="path14"
         style="fill:#1f305a;fill-opacity:1;fill-rule:nonzero;stroke:none"
         d="m 1374.39,1279.88 c -1.63,5.54 -1.16,14.4 1.01,19.75 l 292.83,720.11 H 690.059 c -57.426,0 -125.954,-41.75 -152.325,-92.74 L 45.8203,961.039 C -70.1172,736.621 41.6563,552.988 294.258,552.988 H 1586.88 l -212.49,726.892" /><path
         id="path16"
         style="fill:#1f305a;fill-opacity:1;fill-rule:nonzero;stroke:none"
         d="m 2196.03,2019.74 h -367.58 l -292.87,-720.11 c -2.2,-5.35 -2.62,-14.21 -0.99,-19.75 L 1747.1,552.988 h 368.36 l -216.36,736.942 296.93,729.81" /><path
         id="path18"
         style="fill:#1f305a;fill-opacity:1;fill-rule:nonzero;stroke:none"
         d="m 2534.72,1600.75 -101,264.05 -99.04,-264.05 z m 272.51,-281.52 h -161.05 l -63.99,161.6 H 2289.2 l -60.49,-161.6 h -157.03 l 285.52,711.6 h 156.49 l 293.54,-711.6" /><path
         id="path20"
         style="fill:#1f305a;fill-opacity:1;fill-rule:nonzero;stroke:none"
         d="m 3153.87,1319.23 v 77.14 c -18.99,-27.5 -44.02,-49.19 -75.02,-65.04 -30.93,-15.84 -63.63,-23.76 -98.02,-23.76 -35.12,0 -66.56,7.58 -94.45,22.81 -27.87,15.19 -48.05,36.57 -60.48,64.05 -12.51,27.46 -18.67,65.53 -18.67,114.07 v 326.23 h 138.16 v -236.89 c 0,-72.53 2.54,-116.94 7.65,-133.27 5.05,-16.32 14.24,-29.28 27.79,-38.86 13.41,-9.53 30.45,-14.27 51.12,-14.27 23.57,0 44.76,6.38 63.38,19.15 18.72,12.8 31.54,28.64 38.35,47.57 6.91,18.97 10.33,65.28 10.33,139.11 v 217.46 h 138.23 v -515.5 h -128.37" /><path
         id="path22"
         style="fill:#1f305a;fill-opacity:1;fill-rule:nonzero;stroke:none"
         d="m 3680.33,1834.73 v -108.74 h -119.07 v -207.75 c 0,-42.09 0.89,-66.62 2.65,-73.55 1.76,-6.98 5.8,-12.72 12.13,-17.27 6.31,-4.54 13.98,-6.78 23.07,-6.78 12.61,0 57.24,3.55 81.22,12.24 l 4.59,-113.65 c -31.75,-13.65 -86.97,-11.66 -127.09,-11.66 -24.59,0 -46.78,4.1 -66.52,12.34 -19.72,8.3 -34.19,18.99 -43.41,32.02 -9.21,13.11 -15.62,30.84 -19.13,53.18 -2.98,15.85 -4.36,47.87 -4.36,96.12 v 224.76 h -99.59 v 108.74 h 99.59 v 102.4 l 136.85,44.62 v -147.02 h 119.07" /><path
         id="path24"
         style="fill:#1f305a;fill-opacity:1;fill-rule:nonzero;stroke:none"
         d="m 3843.15,1576.97 c 0,-51.17 12.17,-90.31 36.39,-117.48 24.34,-27.19 54.21,-40.79 89.85,-40.79 35.56,0 65.4,13.6 89.54,40.79 24.1,27.17 36.17,66.64 36.17,118.44 0,50.47 -12.07,89.3 -36.17,116.52 -24.14,27.13 -53.98,40.76 -89.54,40.76 -35.64,0 -65.51,-13.63 -89.85,-40.76 -24.22,-27.22 -36.39,-66.34 -36.39,-117.48 z m -139.81,7.27 c 0,45.32 11.19,89.12 33.49,131.56 22.36,42.38 53.99,74.77 94.95,97.05 40.92,22.34 86.62,33.55 137.14,33.55 77.94,0 141.9,-25.33 191.72,-76.03 49.82,-50.64 74.76,-114.64 74.76,-191.94 0,-78 -25.22,-142.66 -75.44,-193.96 -50.37,-51.29 -113.71,-76.9 -190.09,-76.9 -47.22,0 -92.35,10.67 -135.19,32.02 -42.9,21.38 -75.49,52.69 -97.85,93.94 -22.3,41.26 -33.49,91.49 -33.49,150.71" /><path
         id="path26"
         style="fill:#1f305a;fill-opacity:1;fill-rule:nonzero;stroke:none"
         d="m 2273.99,543.488 -193.94,712.152 h 167.87 l 122.47,-489.128 136.99,489.128 h 217.89 l 131.01,-497.421 124.57,497.421 h 165.11 L 2948.78,543.488 H 2751.36 L 2613.03,1075.97 2478.24,543.488 h -204.25" /><path
         id="path28"
         style="fill:#1f305a;fill-opacity:1;fill-rule:nonzero;stroke:none"
         d="m 3137.95,555.109 v 517.971 h 144.41 V 555.109 h -144.41" /><path
         id="path30"
         style="fill:#1f305a;fill-opacity:1;fill-rule:nonzero;stroke:none"
         d="m 3813.04,555.109 h -137.27 v 263.129 c 0,55.66 -2.88,91.653 -8.79,108.012 -5.88,16.301 -15.39,29.078 -28.58,38.148 -13.21,9.043 -29.07,13.602 -47.63,13.602 -23.75,0 -45.13,-6.5 -63.96,-19.441 -18.89,-12.981 -31.85,-30.098 -38.81,-51.481 -7.02,-21.348 -10.55,-60.828 -10.55,-118.457 V 555.109 h -137.19 v 515.551 h 127.4 v -60.43 c 45.3,58.25 102.28,72.09 171,72.09 30.27,0 57.99,-5.41 83.02,-16.23 25.07,-10.88 44.01,-24.68 56.88,-41.5 12.88,-16.83 21.83,-35.969 26.91,-57.32 4.99,-21.348 7.57,-51.95 7.57,-91.77 V 555.109" /><path
         id="path32"
         style="fill:#1f305a;fill-opacity:1;fill-rule:nonzero;stroke:none"
         d="m 7084.99,555.109 h -137.2 v 263.129 c 0,55.66 -2.92,91.653 -8.82,108.012 -5.8,16.301 -15.4,29.078 -28.54,38.148 -13.21,9.043 -29.03,13.602 -47.61,13.602 -23.8,0 -45.12,-6.5 -64.03,-19.441 -18.86,-12.981 -31.82,-30.098 -38.78,-51.481 -7.03,-21.348 -10.55,-60.828 -10.55,-118.457 V 555.109 h -137.24 v 515.551 h 127.52 v -60.43 c 45.22,58.25 102.22,72.09 170.91,72.09 30.3,0 57.96,-5.41 83.03,-16.23 25.04,-10.88 44.04,-24.68 56.9,-41.5 12.88,-16.83 21.85,-35.969 26.86,-57.32 5.09,-21.348 7.55,-51.95 7.55,-91.77 V 555.109" /><path
         id="path34"
         style="fill:#1f305a;fill-opacity:1;fill-rule:nonzero;stroke:none"
         d="m 4002.76,818.531 c 0,-55 7.61,-94.82 22.82,-119.441 21.99,-35.578 52.73,-53.399 92.24,-53.399 31.37,0 58.05,13.348 80.11,40.09 21.97,26.649 32.94,66.559 32.94,119.641 0,59.207 -10.65,101.879 -32.03,127.879 -21.31,26.07 -48.67,39.09 -82.02,39.09 -32.37,0 -59.47,-12.84 -81.35,-38.582 -21.86,-25.7 -32.71,-64.149 -32.71,-115.278 z M 4366.79,549.578 H 4240.1 v 75.731 c -21.01,-29.411 -45.9,-51.34 -74.51,-65.758 -28.64,-14.391 -57.47,-21.582 -86.62,-21.582 -59.22,0 -109.97,23.84 -152.17,71.601 -42.28,47.739 -63.35,114.27 -63.35,199.731 0,87.347 20.51,153.801 61.63,199.239 41.1,45.48 93.05,68.28 155.82,68.28 57.57,0 107.42,-24 149.49,-71.87 v 256.29 h 136.4 V 549.578" /><path
         id="path36"
         style="fill:#1f305a;fill-opacity:1;fill-rule:nonzero;stroke:none"
         d="m 5402.47,555.109 h -136.42 v 515.551 h 126.74 v -73.281 c 21.65,34.661 41.14,57.441 58.45,68.441 17.34,11 37.02,16.5 58.95,16.5 31.09,0 55.74,-5.5 84.57,-22.68 l -36.94,-121.949 c -22.99,14.86 -45.82,14.028 -65.61,13.399 -23.73,-0.781 -35.15,-13.738 -48.4,-24.27 -13.29,-10.511 -23.74,-29.531 -31.32,-57.011 -7.64,-27.547 -10.02,-67.75 -10.02,-155.43 v -159.27" /><path
         id="path38"
         style="fill:#1f305a;fill-opacity:1;fill-rule:nonzero;stroke:none"
         d="m 4786.32,757.859 h -0.5 c -5.56,21.672 -15.38,39.942 -29.42,54.582 -23.63,23.957 -65.32,43.5 -124.54,60.688 -52.48,15.242 -56.61,16.23 -65.54,23.992 -7.54,6.59 -9.27,15.399 -9.27,25.129 0,11.32 3.02,20.52 9.27,29.672 35.62,52.718 192.72,1.027 192.72,1.027 0,44.332 -0.36,85.301 -0.36,102.641 0,8.6 -103.43,31.41 -168.63,26 -60.48,-4.93 -105.13,-19.78 -134,-50.25 -28.87,-30.38 -43.33,-67.918 -43.33,-112.641 0,-49.469 18.97,-95.679 63.82,-119.828 22.41,-12.062 109.65,-42.633 125.79,-47.793 39.98,-12.617 43.41,-35.43 43.41,-49.469 0,-16.668 -9.21,-32.75 -23.02,-43.679 -60.76,-48.11 -201.41,20.129 -201.41,20.129 0,-48.2 0.36,-97.668 0.36,-116.489 0,-9.461 100.97,-27.679 180.27,-23.359 64.76,3.59 112.71,16.551 143.69,49.648 30.86,33.082 46.35,73.852 46.35,122.422 0,17.11 -2,32.91 -5.66,47.578" /><path
         id="path40"
         style="fill:#1f305a;fill-opacity:1;fill-rule:nonzero;stroke:none"
         d="m 7499.61,757.859 h -0.58 c -5.55,21.672 -15.3,39.942 -29.4,54.582 -23.55,23.957 -65.22,43.5 -124.58,60.688 -52.44,15.242 -56.58,16.23 -65.45,23.992 -7.6,6.59 -9.32,15.399 -9.32,25.129 0,11.32 3.07,20.52 9.26,29.672 35.71,52.718 192.77,1.027 192.77,1.027 0,44.332 -0.33,85.301 -0.33,102.641 0,8.6 -103.44,31.41 -168.65,26 -60.43,-4.93 -105.17,-19.78 -134.04,-50.25 -28.88,-30.38 -43.33,-67.918 -43.33,-112.641 0,-49.469 19,-95.679 63.85,-119.828 22.39,-12.062 109.62,-42.633 125.79,-47.793 39.94,-12.617 43.37,-35.43 43.37,-49.469 0,-16.668 -9.19,-32.75 -22.99,-43.679 -60.82,-48.11 -201.45,20.129 -201.45,20.129 0,-48.2 0.42,-97.668 0.42,-116.489 0,-9.461 100.91,-27.679 180.14,-23.359 64.86,3.59 112.85,16.551 143.74,49.648 30.96,33.082 46.42,73.852 46.42,122.422 0,17.11 -2,32.91 -5.64,47.578" /><path
         id="path42"
         style="fill:#1f305a;fill-opacity:1;fill-rule:nonzero;stroke:none"
         d="m 5206.36,679.289 c -20.5,-13.918 -97.98,-24.598 -122.93,-24.598 -34.61,0 -62.21,12.598 -82.74,37.868 -20.56,25.211 -30.84,68.402 -30.84,129.589 0,54.993 10.15,94.25 30.41,117.704 20.2,23.449 47.21,35.218 81.27,35.218 22.9,0 87.89,-5.859 112.85,-16.808 l 10.79,106.038 c -34.49,13.82 -78.1,18.02 -125.57,18.02 -76.68,0 -137.56,-23.68 -182.53,-71.14 -45.02,-47.399 -67.51,-113.629 -67.51,-198.782 0,-84.128 14.16,-151.25 58.94,-198.796 44.86,-47.571 108.9,-75.903 184.28,-75.903 55.55,0 107.07,3.981 145.56,23.672 l -11.98,117.918" /><path
         id="path44"
         style="fill:#1f305a;fill-opacity:1;fill-rule:nonzero;stroke:none"
         d="m 5736.99,945.43 c 19.73,21.699 44.85,32.57 75.15,32.57 28.3,0 52.43,-10.301 72.18,-30.879 19.78,-20.562 30.08,-43.941 31.13,-83.449 h -207.62 c -0.3,37.25 9.42,60.09 29.16,81.758 z m 283.72,-245.16 c -34.53,-19.879 -110.46,-67.5 -201.61,-54.821 -31.68,4.371 -58.7,11.242 -80.13,33.68 -21.36,22.562 -32.68,48.223 -33.63,88.68 h 348.04 c 1.97,104.511 -19.61,187.902 -64.77,238.541 -45.16,50.65 -106.74,75.97 -184.84,75.97 -69.57,0 -127.09,-24.22 -172.53,-72.58 -45.47,-48.349 -68.25,-115.271 -68.25,-200.662 0,-71.59 17.31,-130.777 51.94,-177.726 43.85,-58.571 112.07,-94.461 203.32,-94.461 57.69,0 156.42,6.597 202.46,45.281 V 700.27" /><path
         id="path46"
         style="fill:#1f305a;fill-opacity:1;fill-rule:nonzero;stroke:none"
         d="m 6263.25,945.43 c 19.79,21.699 44.78,32.57 75.19,32.57 28.28,0 52.35,-10.301 72.12,-30.879 19.78,-20.562 30.17,-43.941 31.16,-83.449 h -207.65 c -0.34,37.25 9.41,60.09 29.18,81.758 z m 283.71,-245.16 c -34.56,-19.879 -110.47,-67.5 -201.66,-54.821 -31.65,4.371 -58.64,11.242 -80.07,33.68 -21.45,22.562 -32.66,48.223 -33.59,88.68 h 347.97 c 2.03,104.511 -19.58,187.902 -64.74,238.541 -45.18,50.65 -106.77,75.97 -184.9,75.97 -69.54,0 -127.02,-24.22 -172.51,-72.58 -45.44,-48.349 -68.19,-115.271 -68.19,-200.662 0,-71.59 17.25,-130.777 51.87,-177.726 43.82,-58.571 112.09,-94.461 203.37,-94.461 57.67,0 156.42,6.597 202.45,45.281 V 700.27" /><path
         id="path48"
         style="fill:#1f305a;fill-opacity:1;fill-rule:nonzero;stroke:none"
         d="m 2390.69,19.6914 c 0,-2.2812 -1.6,-4.1133 -4.72,-5.543 C 2365.56,4.71094 2344.1,0 2321.6,0 c -33.31,0 -59.16,11.4492 -77.38,34.3789 -16.73,21.1602 -25.11,49.0195 -25.11,83.5821 0,33.219 9.13,60.98 27.39,83.23 19.43,23.911 45.25,35.86 77.39,35.86 23.13,0 43.49,-5.063 61.1,-15.153 2.7,-1.429 4.06,-2.929 4.06,-4.558 0,-1.199 -0.3,-2.551 -0.95,-4.078 l -5.4,-12.383 c -0.98,-2.168 -2.33,-3.258 -4.06,-3.258 -0.89,0 -1.84,0.328 -2.94,0.969 -15.32,8.91 -31.87,13.379 -49.7,13.379 -21.83,0 -39.58,-8.547 -53.25,-25.59 -13.71,-17.051 -20.55,-39.32 -20.55,-66.801 0,-27.0467 5.93,-49.1483 17.75,-66.328 13.15,-19.2187 31.85,-28.8203 56.05,-28.8203 17.94,0 35.26,4.1406 51.99,12.3789 1.4,0.6328 2.44,0.9727 3.09,0.9727 1.74,0 3.16,-1.3516 4.21,-4.0704 l 4.41,-10.2617 c 0.67,-1.6289 0.99,-2.8906 0.99,-3.7578" /><path
         id="path50"
         style="fill:#1f305a;fill-opacity:1;fill-rule:nonzero;stroke:none"
         d="m 2642.28,8.78125 c 0,-3.8125 -1.91,-5.70312 -5.72,-5.70312 h -108.67 c -4.47,0 -6.68,2.45312 -6.68,7.32027 V 225.961 c 0,4.668 2.11,7.008 6.33,7.008 h 17.93 c 4.47,0 6.68,-2.34 6.68,-7.008 V 27.8516 h 83.76 c 4.24,0 6.37,-1.7813 6.37,-5.3907 V 8.78125" /><path
         id="path52"
         style="fill:#1f305a;fill-opacity:1;fill-rule:nonzero;stroke:none"
         d="m 2900.19,9.10156 c 0,-4.01172 -2.23,-6.02343 -6.69,-6.02343 h -116.36 c -2.68,0 -4.52,0.40234 -5.52,1.22265 -0.97,0.82031 -1.48,2.73047 -1.48,5.78902 V 226.289 c 0,4.461 2.13,6.68 6.35,6.68 h 117.35 c 3.57,0 5.36,-1.571 5.36,-4.731 0,-1.078 -0.42,-5.859 -1.3,-14.34 -0.33,-3.468 -3.3,-5.207 -8.96,-5.207 h -87.82 v -73.152 h 78.36 c 4.47,0 6.7,-2.008 6.7,-6.027 v -12.051 c 0,-3.91 -2.11,-5.871 -6.37,-5.871 h -78.69 V 27.5117 h 92.05 c 4.67,0 7.02,-1.9023 7.02,-5.6914 V 9.10156" /><path
         id="path54"
         style="fill:#1f305a;fill-opacity:1;fill-rule:nonzero;stroke:none"
         d="m 3147.36,94.1406 -26.57,76.4294 c -3.15,9.02 -5.64,16.621 -7.49,22.801 l -0.33,1 h -0.32 c -1.19,-4.031 -3.96,-12.172 -8.3,-24.441 l -27.38,-75.7894 z m 64.83,-87.32029 c 0,-2.49218 -1.7,-3.74218 -5.05,-3.74218 h -20.69 c -4.56,0 -7.57,2.01171 -8.97,6.02343 L 3155.51,71.1992 H 3069 L 3046.01,8.78125 c -1.42,-3.8125 -3.95,-5.70312 -7.67,-5.70312 h -19.71 c -2.5,0 -3.72,1.10156 -3.72,3.25 0,1.09375 0.2,2.23046 0.63,3.4414 l 83.9,218.46847 c 1.2,3.16 3.15,4.731 5.89,4.731 h 17.75 c 3.04,0 5.03,-1.36 6,-4.059 l 82.46,-218.8202 c 0.43,-1.21089 0.65,-2.28902 0.65,-3.26949" /><path
         id="path56"
         style="fill:#1f305a;fill-opacity:1;fill-rule:nonzero;stroke:none"
         d="m 3445.36,165.199 c 0,29.43 -18.38,44.153 -55.1,44.153 h -21.31 v -89.473 h 25.74 c 15.11,0 27.2,3.883 36.33,11.59 9.55,8.031 14.34,19.269 14.34,33.73 z M 3485.75,6.82031 c 0,-2.49218 -1.44,-3.74218 -4.41,-3.74218 h -20.04 c -4.54,0 -7.95,2.01171 -10.24,6.02343 l -50,87.33984 h -32.11 V 10.0898 c 0,-4.67964 -2.12,-7.01167 -6.38,-7.01167 h -18.24 c -4.24,0 -6.33,2.33203 -6.33,7.01167 V 225.641 c 0,4.898 2.22,7.328 6.68,7.328 h 48.06 c 33.63,0 57.14,-7.989 70.37,-23.949 9.11,-11.071 13.69,-25.579 13.69,-43.508 0,-15.434 -4.5,-28.891 -13.55,-40.403 -8.36,-10.75 -19.41,-18.5 -33.21,-23.289 l 0.33,-0.66 54.4,-91.0702 c 0.68,-1.0898 0.98,-2.16792 0.98,-3.26949" /><path
         id="path58"
         style="fill:#1f305a;fill-opacity:1;fill-rule:nonzero;stroke:none"
         d="m 3741.7,8.78125 c 0,-3.8125 -1.89,-5.70312 -5.68,-5.70312 h -108.67 c -4.47,0 -6.7,2.45312 -6.7,7.32027 V 225.961 c 0,4.668 2.13,7.008 6.35,7.008 h 17.93 c 4.47,0 6.66,-2.34 6.66,-7.008 V 27.8516 h 83.78 c 4.22,0 6.33,-1.7813 6.33,-5.3907 V 8.78125" /><path
         id="path60"
         style="fill:#1f305a;fill-opacity:1;fill-rule:nonzero;stroke:none"
         d="m 3992.5,229.719 c 0,-1.199 -0.53,-2.668 -1.49,-4.41 L 3923.73,93.8281 V 9.10156 c 0,-4.01172 -1.92,-6.02343 -5.73,-6.02343 h -19.69 c -3.77,0 -5.71,2.12109 -5.71,6.35156 V 93.1914 l -71.34,133.0976 c -0.69,1.32 -0.99,2.441 -0.99,3.43 0,2.179 1.66,3.25 5.05,3.25 h 18.56 c 5.43,0 9.12,-1.899 11.1,-5.688 l 54.75,-108.019 h 0.31 l 52.61,107.027 c 2.15,4.461 5.67,6.68 10.45,6.68 h 14 c 3.59,0 5.4,-1.071 5.4,-3.25" /><path
         id="path62"
         style="fill:#1f305a;fill-opacity:1;fill-rule:nonzero;stroke:none"
         d="m 4466.75,27.5117 c 0,-5.8633 -2.45,-10.1015 -7.31,-12.6914 C 4441.28,4.92188 4419.49,0 4394.1,0 c -35.1,0 -62.08,10.9492 -80.97,32.8984 -17.7,20.75 -26.57,49.0899 -26.57,85.0626 0,34.629 9.9,62.93 29.64,84.867 20.56,22.813 47.91,34.223 82.16,34.223 19.73,0 38.19,-3.692 55.4,-11.09 2.67,-1.09 4.03,-2.66 4.03,-4.731 0,-0.96 -0.23,-2.039 -0.65,-3.242 l -4.68,-13.047 c -0.91,-2.39 -2.32,-3.57 -4.26,-3.57 -1.2,0 -2.35,0.219 -3.43,0.649 -15.21,6.179 -30.31,9.281 -45.3,9.281 -21.93,0 -39.85,-6.903 -53.74,-20.68 -17.42,-17.281 -26.09,-41.293 -26.09,-72.031 0,-27.0587 5.86,-49.0392 17.57,-65.9806 13.05,-19 31.81,-28.5078 56.21,-28.5078 17.06,0 31.2,2.7695 42.39,8.2968 V 111.59 h -35.04 c -4.02,0 -6.05,1.961 -6.05,5.871 v 12.711 c 0,3.566 2.03,5.367 6.05,5.367 h 59.62 c 2.72,0 4.46,-0.469 5.23,-1.379 0.77,-0.941 1.13,-2.582 1.13,-4.969 V 27.5117" /><path
         id="path64"
         style="fill:#1f305a;fill-opacity:1;fill-rule:nonzero;stroke:none"
         d="m 4765.25,118.59 c 0,29.558 -5.4,52.39 -16.17,68.512 -10.85,16.128 -26.36,24.199 -46.55,24.199 -19.23,0 -34.8,-8.629 -46.68,-25.91 -11.87,-17.27 -17.84,-39.641 -17.84,-67.121 0,-29.3208 5.56,-52.1997 16.67,-68.5786 11.15,-16.4101 26.7,-24.6133 46.72,-24.6133 19.09,0 34.53,8.4532 46.23,25.3438 11.73,16.8789 17.62,39.6172 17.62,68.1681 z m 32.92,0.988 c 0,-37.0467 -9.34,-66.4764 -28.02,-88.3085 C 4752.11,10.3984 4728.78,0 4700.08,0 c -29.63,0 -52.86,10.3789 -69.56,31.1797 -16.73,20.8008 -25.08,49.4492 -25.08,85.9613 0,36.05 9,65.058 27.02,86.988 18.04,21.941 41.6,32.922 70.71,32.922 30.11,0 53.61,-10.922 70.56,-32.75 16.29,-21.071 24.44,-49.332 24.44,-84.723" /><path
         id="path66"
         style="fill:#1f305a;fill-opacity:1;fill-rule:nonzero;stroke:none"
         d="m 5012.72,217.672 c 0,-3.602 -1.89,-5.371 -5.66,-5.371 h -20.37 V 24.1016 h 20.02 c 3.81,0 5.7,-1.6914 5.7,-5.0625 V 8.46094 c 0,-3.58985 -1.58,-5.38281 -4.71,-5.38281 h -71.03 c -3.37,0 -5.06,1.6914 -5.06,5.0625 V 19.3789 c 0,3.1406 1.69,4.7227 5.06,4.7227 h 20.05 V 212.301 h -21.35 c -3.37,0 -5.08,1.558 -5.08,4.699 v 10.93 c 0,3.359 1.6,5.039 4.73,5.039 h 72.04 c 3.77,0 5.66,-1.571 5.66,-4.731 v -10.566" /><path
         id="path68"
         style="fill:#1f305a;fill-opacity:1;fill-rule:nonzero;stroke:none"
         d="m 5338.12,10.0898 c 0,-4.67964 -1.9,-7.01167 -5.7,-7.01167 h -15.31 c -3.7,0 -7.08,2.12109 -10.11,6.35156 L 5186.61,178.23 h -0.68 V 10.0898 c 0,-4.67964 -2.2,-7.01167 -6.65,-7.01167 h -15.33 c -4.46,0 -6.66,2.33203 -6.66,7.01167 V 225.961 c 0,4.668 2.2,7.008 6.66,7.008 h 13.34 c 3.39,0 6.25,-1.68 8.64,-5.039 L 5308.65,55.5391 h 0.79 V 225.961 c 0,4.668 2.07,7.008 6.21,7.008 h 16.12 c 4.22,0 6.35,-2.34 6.35,-7.008 V 10.0898" /><path
         id="path70"
         style="fill:#1f305a;fill-opacity:1;fill-rule:nonzero;stroke:none"
         d="m 5657.3,27.5117 c 0,-5.8633 -2.43,-10.1015 -7.34,-12.6914 C 5631.86,4.92188 5610.07,0 5584.63,0 c -35.06,0 -62.07,10.9492 -80.97,32.8984 -17.7,20.75 -26.54,49.0899 -26.54,85.0626 0,34.629 9.86,62.93 29.66,84.867 20.53,22.813 47.87,34.223 82.11,34.223 19.73,0 38.22,-3.692 55.37,-11.09 2.72,-1.09 4.08,-2.66 4.08,-4.731 0,-0.96 -0.23,-2.039 -0.66,-3.242 l -4.72,-13.047 c -0.87,-2.39 -2.27,-3.57 -4.24,-3.57 -1.19,0 -2.34,0.219 -3.41,0.649 -15.19,6.179 -30.28,9.281 -45.29,9.281 -21.96,0 -39.89,-6.903 -53.78,-20.68 -17.37,-17.281 -26.05,-41.293 -26.05,-72.031 0,-27.0587 5.84,-49.0392 17.61,-65.9806 13.02,-19 31.75,-28.5078 56.19,-28.5078 17.04,0 31.18,2.7695 42.35,8.2968 V 111.59 h -35.03 c -4.02,0 -6.02,1.961 -6.02,5.871 v 12.711 c 0,3.566 2,5.367 6.02,5.367 h 59.64 c 2.72,0 4.45,-0.469 5.24,-1.379 0.73,-0.941 1.11,-2.582 1.11,-4.969 V 27.5117" /><path
         id="path72"
         style="fill:#1f305a;fill-opacity:1;fill-rule:nonzero;stroke:none"
         d="m 6084.2,162.27 c 0,31.371 -18.9,47.082 -56.7,47.082 h -18.42 v -95.473 c 4.25,-0.231 11.38,-0.328 21.34,-0.328 35.85,0 53.78,16.238 53.78,48.719 z m 31.28,0.64 c 0,-23.68 -8.28,-42.031 -24.77,-55.058 -15.09,-12.0629 -34.87,-18.0903 -59.32,-18.0903 -13.03,0 -20.47,0.1485 -22.31,0.4766 V 9.76953 c 0,-4.46094 -2.19,-6.6914 -6.67,-6.6914 h -17.94 c -4.22,0 -6.35,2.33203 -6.35,7.01167 V 225.961 c 0,4.668 2.13,7.008 6.35,7.008 h 43.68 c 34.22,0 58.43,-8.481 72.67,-25.418 9.77,-11.621 14.66,-26.5 14.66,-44.641" /><path
         id="path74"
         style="fill:#1f305a;fill-opacity:1;fill-rule:nonzero;stroke:none"
         d="m 6369.81,8.78125 c 0,-3.8125 -1.91,-5.70312 -5.7,-5.70312 h -108.66 c -4.46,0 -6.69,2.45312 -6.69,7.32027 V 225.961 c 0,4.668 2.09,7.008 6.32,7.008 h 17.96 c 4.45,0 6.65,-2.34 6.65,-7.008 V 27.8516 h 83.76 c 4.25,0 6.36,-1.7813 6.36,-5.3907 V 8.78125" /><path
         id="path76"
         style="fill:#1f305a;fill-opacity:1;fill-rule:nonzero;stroke:none"
         d="M 6607.35,94.1406 6580.8,170.57 c -3.17,9.02 -5.66,16.621 -7.5,22.801 l -0.32,1 h -0.32 c -1.19,-4.031 -3.97,-12.172 -8.31,-24.441 l -27.37,-75.7894 z m 64.88,-87.32029 c 0,-2.49218 -1.71,-3.74218 -5.08,-3.74218 h -20.68 c -4.57,0 -7.6,2.01171 -8.95,6.02343 l -22.01,62.09764 h -86.52 L 6506.03,8.78125 c -1.44,-3.8125 -3.98,-5.70312 -7.69,-5.70312 h -19.68 c -2.52,0 -3.75,1.10156 -3.75,3.25 0,1.09375 0.2,2.23046 0.62,3.4414 l 83.93,218.46847 c 1.2,3.16 3.16,4.731 5.86,4.731 h 17.75 c 3.05,0 5.07,-1.36 6.05,-4.059 l 82.44,-218.8202 c 0.45,-1.21089 0.67,-2.28902 0.67,-3.26949" /><path
         id="path78"
         style="fill:#1f305a;fill-opacity:1;fill-rule:nonzero;stroke:none"
         d="m 6960.45,19.6914 c 0,-2.2812 -1.58,-4.1133 -4.72,-5.543 C 6935.3,4.71094 6913.81,0 6891.33,0 c -33.3,0 -59.11,11.4492 -77.36,34.3789 -16.72,21.1602 -25.1,49.0195 -25.1,83.5821 0,33.219 9.13,60.98 27.37,83.23 19.43,23.911 45.28,35.86 77.39,35.86 23.14,0 43.48,-5.063 61.12,-15.153 2.68,-1.429 4.06,-2.929 4.06,-4.558 0,-1.199 -0.31,-2.551 -0.95,-4.078 l -5.4,-12.383 c -0.97,-2.168 -2.34,-3.258 -4.08,-3.258 -0.87,0 -1.85,0.328 -2.94,0.969 -15.3,8.91 -31.87,13.379 -49.7,13.379 -21.81,0 -39.55,-8.547 -53.27,-25.59 -13.68,-17.051 -20.53,-39.32 -20.53,-66.801 0,-27.0467 5.92,-49.1483 17.79,-66.328 13.15,-19.2187 31.79,-28.8203 56.01,-28.8203 17.96,0 35.28,4.1406 51.99,12.3789 1.41,0.6328 2.42,0.9727 3.09,0.9727 1.76,0 3.14,-1.3516 4.23,-4.0704 l 4.45,-10.2617 c 0.62,-1.6289 0.95,-2.8906 0.95,-3.7578" /><path
         id="path80"
         style="fill:#1f305a;fill-opacity:1;fill-rule:nonzero;stroke:none"
         d="m 7220.96,9.10156 c 0,-4.01172 -2.24,-6.02343 -6.69,-6.02343 h -116.32 c -2.72,0 -4.55,0.40234 -5.53,1.22265 -1,0.82031 -1.49,2.73047 -1.49,5.78902 V 226.289 c 0,4.461 2.13,6.68 6.35,6.68 h 117.33 c 3.58,0 5.38,-1.571 5.38,-4.731 0,-1.078 -0.42,-5.859 -1.32,-14.34 -0.32,-3.468 -3.28,-5.207 -8.94,-5.207 h -87.82 v -73.152 h 78.36 c 4.42,0 6.68,-2.008 6.68,-6.027 v -12.051 c 0,-3.91 -2.14,-5.871 -6.36,-5.871 h -78.68 V 27.5117 h 92.06 c 4.66,0 6.99,-1.9023 6.99,-5.6914 V 9.10156" /><path
         id="path82"
         style="fill:#1f305a;fill-opacity:1;fill-rule:nonzero;stroke:none"
         d="m 7488.82,65.4805 c 0,-20.961 -7.75,-37.4219 -23.31,-49.3711 C 7451.31,5.35156 7433.28,0 7411.45,0 c -18.71,0 -37.38,3.01953 -56.05,9.10156 -3.08,0.98824 -4.58,2.78904 -4.58,5.38674 0,1.1836 0.09,2.1601 0.32,2.9219 l 4.26,14.9882 c 0.73,2.711 2.31,4.0899 4.7,4.0899 1.43,0 2.72,-0.2188 3.9,-0.6602 18.3,-6.5078 34.08,-9.7578 47.45,-9.7578 12.82,0 23.45,2.8711 31.93,8.6289 9.88,6.6094 14.79,16.1211 14.79,28.4805 0,14.8984 -9.76,27.5508 -29.32,37.9803 l -42.37,22.649 c -24.51,13.132 -36.8,31.16 -36.8,54.082 0,18.16 7.43,32.82 22.34,44.007 13.44,10.09 29.64,15.153 48.54,15.153 19.21,0 36.86,-3.371 52.96,-10.102 3.58,-1.41 5.36,-3.308 5.36,-5.719 0,-0.761 -0.2,-1.73 -0.65,-2.921 l -5.05,-13.7 c -0.87,-2.48 -2.43,-3.73 -4.73,-3.73 -0.94,0 -2.27,0.371 -3.93,1.141 -15.5,6.421 -29.62,9.609 -42.36,9.609 -10.61,0 -19.67,-2.391 -27.2,-7.18 -8.78,-5.629 -13.19,-13.558 -13.19,-23.769 0,-13.7 8.72,-25.149 26.07,-34.379 l 35.68,-19.071 c 14.65,-7.832 25.48,-15.968 32.44,-24.441 8.58,-10.4296 12.86,-22.8671 12.86,-37.3085" /><path
         id="path84"
         style="fill:#1f305a;fill-opacity:1;fill-rule:nonzero;stroke:none"
         d="m 7563.28,1041.95 c 4.22,0 6.94,2.73 6.94,7.29 0,4.44 -2.72,6.95 -6.94,6.95 h -6.83 v -14.24 z m -14.92,20.39 h 16.51 c 8.08,0 13.55,-5.13 13.55,-13.1 0,-6.6 -4.32,-10.47 -7.86,-11.39 v -0.22 c 0,0 0.46,-0.46 1.49,-2.4 l 8.19,-15.82 h -8.88 l -7.97,16.62 h -6.94 v -16.62 h -8.09 z m 13.89,-55.46 c 18.33,0 32.45,14.81 32.45,33.82 0,19.02 -14.12,33.82 -32.45,33.82 -18.1,0 -32.11,-14.8 -32.11,-33.82 0,-19.01 14.01,-33.82 32.11,-33.82 z m 0,75.38 c 22.67,0 40.76,-18.45 40.76,-41.56 0,-23.12 -18.09,-41.559 -40.76,-41.559 -22.43,0 -40.42,18.439 -40.42,41.559 0,23.11 17.99,41.56 40.42,41.56" /></g></g></svg>