{
  "WelcomeQuote_Quotes": {
    "url": "/sas/v1/baskets/1/quotes"
  },

  "WelcomeQuote_PaymentDetails": {
    "url": "/sas/v1/baskets/1/quotes/{quoteid}/paymentdetails"
  },
  "WelcomeQuote_PaymentDetailsSelect": {
    "url": "/sas/v1/baskets/1/paymentdetails/{paymentdetailsid}/select"
  },
  "WelcomeQuote_Quote": {
    "url": "/sas/v1/baskets/1/quotes/{quoteid}?include=covers,fees,underwriters"
  }
}