{
  "OptionalExtras_Quotes": {
    "url": "/sas/v1/baskets/1/quotes"
  },
  "OptionalExtras_Policy": {
    "url": "/sas/v1/policies/{policyid}?include=all"
  },
  "OptionalExtras_Covers": {
    "url": "/sas/v1/covers?policyid={policyid}"
  },
  "OptionalExtras_Policy_Covers": {
    "url": "/sas/v1/covers?policyid={policyid}"
  }
}
