<?xml version="1.0" encoding="UTF-8"?>
<svg width="112px" height="54px" viewBox="0 0 112 54" version="1.1" xmlns="http://www.w3.org/2000/svg" xmlns:xlink="http://www.w3.org/1999/xlink">
    <!-- Generator: Sketch 59.1 (86144) - https://sketch.com -->
    <title>Car</title>
    <desc>Created with Sketch.</desc>
    <g id="Price-Presentation" stroke="none" stroke-width="1" fill="none" fill-rule="evenodd">
        <g transform="translate(-783.000000, -743.000000)" fill-rule="nonzero" id="Payment-Frequency">
            <g transform="translate(0.000000, 460.000000)">
                <g id="Payment-Selector" transform="translate(454.000000, 136.000000)">
                    <g id="Car" transform="translate(329.000000, 147.000000)">
                        <path d="M111,35.76 C109.1,28.76 108.4,26.27 107.86,25.4 C107.32,24.53 105.68,21.95 100.2,21.03 L88.28,19.03 C87.0171816,18.6442028 85.8251094,18.0566091 84.75,17.29 L84.75,17.29 C83.75,16.29 68.42,3.66 66.75,2.29 C66.65,2.2 64.39,0 59.04,0 L35,0 C34.6,0 32.38,0.21 28.29,4.29 L19.29,13.29 C19.29,13.29 17.45,15.02 13,15.02 L5,15.02 C4.3,15.02 1.94,15.12 1.12,16.45 C0.76273441,17.0688022 0.76273441,17.8311978 1.12,18.45 L4.12,24.45 C4.54369767,25.256338 4.84051894,26.123191 5,27.02 L5,32.85 C4.75211305,33.6334269 4.36973844,34.3677215 3.87,35.02 C2.87,35.02 1,35.11 1,37.02 C1,38.1 2.57,42.89 3,44.34 C3.02984361,44.4215519 3.07018297,44.498869 3.12,44.57 C3.35,44.93 5.49,48.02 7.95,48.02 L14.35,48.02 C16.3638653,51.7188005 20.2384945,54.0209092 24.45,54.0209092 C28.6615055,54.0209092 32.5361347,51.7188005 34.55,48.02 L78.35,48.02 C80.3638653,51.7188005 84.2384945,54.0209092 88.45,54.0209092 C92.6615055,54.0209092 96.5361347,51.7188005 98.55,48.02 L105,48.02 C107.021503,47.9502378 108.914009,47.0094546 110.19,45.44 C111.86,43.25 112.12,40.02 111,35.76 Z" id="Path" fill="#6859A3"></path>
                        <path d="M108.48,34.25 C105.84,35.07 104.98,33.72 104.89,33.57 C104.141471,31.9891191 103.493515,30.3625494 102.95,28.7 C102.819179,28.3735018 102.844968,28.0050885 103.02,27.7 C103.748384,26.8305038 104.7312,26.2114342 105.83,25.93 C105.915327,26.05286 105.988981,26.1834281 106.05,26.32 C106.08789,26.4376772 106.149109,26.5465107 106.23,26.64 C106.4,27.09 106.93,28.66 108.48,34.25 Z" id="Path" fill="#D7EFFC"></path>
                        <path d="M39,18.02 C35.6862915,18.02 33,15.3337085 33,12.02 C33,8.7062915 35.6862915,6.02 39,6.02 L53.43,6.02 L53.43,18.02 L39,18.02 Z" id="Path" fill="#D7EFFC"></path>
                        <path d="M55.43,6.02 L68.05,6.02 C73.44,10.46 79.82,15.75 82.28,17.85 C81.5258297,17.9680741 80.7633414,18.0249263 80,18.02 L55.43,18.02 L55.43,6.02 Z" id="Path" fill="#D7EFFC"></path>
                        <circle id="Oval" fill="#D7EFFC" cx="24.5" cy="42.52" r="9.5"></circle>
                        <circle id="Oval" fill="#D7EFFC" cx="88.5" cy="42.52" r="9.5"></circle>
                        <path d="M108.62,44.21 C107.722363,45.2965675 106.407836,45.953831 105,46.02 L99.45,46.02 C99.8170442,44.889706 100.002679,43.7083934 100,42.52 C100,36.1687254 94.8512746,31.02 88.5,31.02 C82.1487254,31.02 77,36.1687254 77,42.52 C76.9973209,43.7083934 77.1829558,44.889706 77.55,46.02 L35.45,46.02 C35.8170442,44.889706 36.0026791,43.7083934 36,42.52 C36,36.1687254 30.8512746,31.02 24.5,31.02 C18.1487254,31.02 13,36.1687254 13,42.52 C12.9973209,43.7083934 13.1829558,44.889706 13.55,46.02 L8,46.02 C7,46.02 5.51,44.44 4.9,43.57 C4.15876017,41.4372386 3.52792359,39.2676948 3.01,37.07 C3.34143234,37.0263139 3.67586297,37.0095924 4.01,37.02 C5.43,37.02 6.4,35.02 7.01,33.34 C7.02440715,33.2338198 7.02440715,33.1261802 7.01,33.02 L7.01,27.02 C6.85168887,25.8123346 6.47559928,24.6434075 5.9,23.57 L2.9,17.57 L2.9,17.47 C3.55302787,17.1515678 4.27383162,16.9971098 5,17.02 L13,17.02 C18.35,17.02 20.61,14.82 20.71,14.73 L29.71,5.73 C33.23,2.21 35,2.02 35,2.02 L59,2.02 C63.45,2.02 65.28,3.72 65.36,3.79 L65.64,4.02 L39,4.02 C34.581722,4.02 31,7.601722 31,12.02 C31,16.438278 34.581722,20.02 39,20.02 L80,20.02 C81.4059152,20.1220691 82.8163206,19.8961304 84.12,19.36 C85.2492755,20.0154653 86.4420272,20.5548839 87.68,20.97 L87.84,20.97 L99.84,22.97 C101.349064,23.1766895 102.804983,23.6687832 104.13,24.42 C102.966288,24.8656092 101.97019,25.662488 101.28,26.7 C100.830979,27.4926354 100.747098,28.4408484 101.05,29.3 C101.620756,31.0542945 102.308979,32.7681703 103.11,34.43 C103.916404,35.7559642 105.391049,36.526014 106.94,36.43 C107.64277,36.4169143 108.339967,36.3023989 109.01,36.09 L109.01,36.2 C110,39.88 109.88,42.54 108.62,44.21 Z" id="Path" fill="#E9F5FC"></path>
                        <circle id="Oval" fill="#6859A3" cx="24.5" cy="42.52" r="6.5"></circle>
                        <circle id="Oval" fill="#FFFFFF" cx="24.5" cy="42.52" r="4.5"></circle>
                        <circle id="Oval" fill="#6859A3" cx="88.5" cy="42.52" r="6.5"></circle>
                        <circle id="Oval" fill="#FFFFFF" cx="88.5" cy="42.52" r="4.5"></circle>
                        <rect id="Rectangle" fill="#6859A3" x="11" y="20.02" width="8" height="8" rx="1"></rect>
                        <rect id="Rectangle" fill="#D7EFFC" x="13" y="22.02" width="4" height="4"></rect>
                        <path d="M32,22.02 C31.4477153,22.02 31,22.4677153 31,23.02 L31,28.02 C31,28.5722847 31.4477153,29.02 32,29.02 C32.5522847,29.02 33,28.5722847 33,28.02 L33,23.02 C33,22.4677153 32.5522847,22.02 32,22.02 Z" id="Path" fill="#6859A3"></path>
                        <path d="M54,22.02 C53.4477153,22.02 53,22.4677153 53,23.02 L53,42.02 C53,42.5722847 53.4477153,43.02 54,43.02 C54.5522847,43.02 55,42.5722847 55,42.02 L55,23.02 C55,22.4677153 54.5522847,22.02 54,22.02 Z" id="Path" fill="#6859A3"></path>
                        <path d="M85,22.02 C84.4477153,22.02 84,22.4677153 84,23.02 L84,28.02 C84,28.5722847 84.4477153,29.02 85,29.02 C85.5522847,29.02 86,28.5722847 86,28.02 L86,23.02 C86,22.4677153 85.5522847,22.02 85,22.02 Z" id="Path" fill="#6859A3"></path>
                    </g>
                </g>
            </g>
        </g>
    </g>
</svg>