<?xml version="1.0" encoding="utf-8"?>
<!-- Generator: Adobe Illustrator 22.1.0, SVG Export Plug-In . SVG Version: 6.00 Build 0)  -->
<svg version="1.1" id="Layer_1" xmlns="http://www.w3.org/2000/svg" xmlns:xlink="http://www.w3.org/1999/xlink" x="0px" y="0px"
	 viewBox="0 0 56.69 56.81" style="enable-background:new 0 0 56.69 56.81;" xml:space="preserve">
<style type="text/css">
	.st0{fill:#6859A3;}
</style>
<path class="st0" d="M29.43,33.06c0,1.7,0.45,2.95,1.36,3.86c0.91,0.91,2.16,1.25,3.75,1.25c1.59,0,2.84-0.45,3.75-1.25
	c0.91-0.91,1.36-2.16,1.36-3.86V18.63H36.7v14.43c0,1.36-0.68,2.05-2.16,2.05c-1.48,0-2.16-0.68-2.16-2.05V18.63h-2.95V33.06z
	 M26.47,38.17v-3.07h-5.79V29.2h4.2v-3.07h-4.2V21.7h5.45v-3.07h-8.41v19.54H26.47z M27.95,0c0.45,1.02,0.68,2.16,1.02,3.18h3.18
	c-0.91,0.57-1.7,1.25-2.61,1.93c-0.11,1.02,0.57,1.93,0.57,2.95c-0.8-0.45-1.48-1.48-2.5-1.48c-0.68,0.45-1.25,1.02-1.93,1.48
	c0.11-0.91,0.45-1.93,0.68-2.84c-0.8-0.68-1.7-1.36-2.61-2.05c1.02-0.11,2.05-0.11,3.07,0C27.49,2.16,27.61,1.02,27.95,0z
	 M16.13,3.41c0.23,1.02,0.68,1.93,0.8,2.95c1.14,0.34,2.27,0.11,3.41,0.23c-0.91,0.57-1.7,1.25-2.61,1.82
	c0.11,1.02,0.57,2.05,0.68,3.07c-0.8-0.57-1.48-1.25-2.39-1.59c-0.68,0.45-1.36,0.91-2.05,1.48c0.11-1.02,0.57-1.93,0.57-2.95
	c-0.91-0.57-1.59-1.25-2.39-1.93h3.07c0.23-0.8,0.45-1.59,0.68-2.27L16.13,3.41z M40.11,3.41c0.34,1.02,0.57,2.16,1.02,3.18
	c1.14,0,2.27-0.11,3.41,0c-1.02,0.45-1.93,1.25-2.95,1.93l0.68,3.07c-0.8-0.57-1.48-1.14-2.27-1.59c-0.91,0.34-1.59,1.14-2.27,1.7
	c0.34-1.02,0.68-2.05,0.57-3.07c-0.8-0.68-1.59-1.36-2.39-1.93h3.18C39.42,5.45,39.65,4.43,40.11,3.41z M48.06,15.45
	c0.23-1.02,0.57-2.16,1.02-3.18c0.23,1.02,0.57,2.05,0.8,3.07c1.14,0.11,2.16,0.11,3.29,0.11c-0.91,0.68-1.7,1.36-2.61,1.93
	c0.23,1.02,0.45,2.05,0.68,2.95c-0.8-0.45-1.48-1.14-2.16-1.59c-0.91,0.23-1.59,1.02-2.39,1.59c0.34-0.91,0.57-1.93,0.68-2.84
	c-0.8-0.68-1.7-1.36-2.5-1.93C45.9,15.45,47.04,15.45,48.06,15.45z M6.93,12.5c0.57,0.91,0.8,1.93,1.02,2.95
	c1.14,0,2.27,0,3.41,0.11c-0.91,0.57-1.82,1.25-2.73,1.93c0.11,1.02,0.45,2.05,0.68,3.07c-0.8-0.57-1.48-1.25-2.39-1.7
	c-0.68,0.45-1.36,1.02-2.16,1.59c0.23-0.91,0.45-1.93,0.68-2.84c-0.8-0.68-1.7-1.14-2.27-2.05h2.95C6.48,14.54,6.7,13.52,6.93,12.5z
	 M3.07,27.49c0.23-1.14,0.57-2.16,1.02-3.18c0.23,1.02,0.45,2.05,0.91,3.07c1.02,0.23,2.16,0,3.29,0.11
	c-0.91,0.68-1.7,1.25-2.61,1.93c0.23,1.02,0.57,1.93,0.68,2.95c-0.8-0.57-1.48-1.14-2.27-1.7c-0.8,0.34-1.48,1.02-2.16,1.59
	c0.11-0.91,0.34-1.93,0.57-2.84c-0.8-0.68-1.7-1.36-2.5-1.93H3.07z M51.47,27.61c0.34-0.91,0.45-2.05,1.02-2.84
	c0.34,0.91,0.68,1.93,0.91,2.84h3.29c-0.91,0.68-1.82,1.36-2.73,1.93c0.34,0.91,0.57,1.93,0.68,2.95c-0.8-0.57-1.48-1.02-2.27-1.7
	c-0.8,0.45-1.48,1.02-2.16,1.59c0.23-0.91,0.23-1.82,0.68-2.61c-0.8-0.91-1.7-1.48-2.61-2.27C49.31,27.61,50.44,27.61,51.47,27.61z
	 M48.06,39.88c0.34-0.91,0.34-2.16,1.14-2.84c0.23,1.02,0.57,1.93,0.8,2.84h3.18c-0.8,0.68-1.82,1.25-2.61,2.05
	c0.11,1.02,0.57,1.93,0.68,2.84c-0.68-0.45-1.36-1.02-2.05-1.48c-0.23-0.23-0.57,0.11-0.8,0.23c-0.57,0.45-1.14,0.8-1.7,1.25
	c0.23-0.91,0.45-1.93,0.68-2.84c-0.8-0.68-1.7-1.36-2.5-2.05H48.06z M6.25,39.65c0.34-1.02,0.57-2.05,0.91-3.07
	c0.45,1.02,0.68,2.05,1.02,3.18h3.18c-0.91,0.68-1.82,1.36-2.61,1.93c0.11,0.57,0.23,1.14,0.45,1.7c0.11,0.34,0.11,0.8,0.23,1.14
	c-0.8-0.45-1.48-1.02-2.27-1.59C6.48,43.51,5.68,44.08,5,44.54c0.11-0.91,0.57-1.82,0.57-2.73c-0.68-0.8-1.7-1.25-2.27-2.05
	C4.2,39.65,5.34,39.88,6.25,39.65z M39.2,48.63c0.23-1.02,0.57-2.05,0.91-3.07c0.34,1.02,0.68,2.05,0.91,3.07h3.29
	c-0.91,0.8-2.05,1.25-2.73,2.16c0.45,0.8,0.57,1.82,0.68,2.73c-0.8-0.57-1.48-1.02-2.27-1.7c-0.68,0.57-1.36,1.14-2.16,1.59
	c0.23-0.91,0.34-1.82,0.68-2.61c-0.91-0.8-1.82-1.7-2.95-2.05c0.11-0.34,0.45-0.45,0.8-0.23C37.38,48.74,38.29,48.74,39.2,48.63z
	 M15,48.85c0.45-1.02,0.45-2.05,1.02-3.07l0.91,3.07h3.29L17.5,50.9c0.45,0.91,0.57,1.82,0.68,2.84c-0.8-0.57-1.48-1.14-2.27-1.7
	c-0.8,0.57-1.48,1.14-2.16,1.59c0.23-0.91,0.34-1.82,0.68-2.73c-0.8-0.68-1.7-1.25-2.5-2.05H15z M28.06,48.97
	c0.57,0.91,0.57,2.05,1.02,2.95h3.18c-0.8,0.68-1.7,1.25-2.5,1.82c0.11,1.02,0.45,2.05,0.68,2.95c-0.91-0.34-1.48-1.25-2.39-1.48
	c-0.8,0.45-1.48,1.02-2.16,1.59c0.23-0.91,0.45-1.93,0.68-2.84c-0.8-0.68-1.7-1.36-2.5-2.05c1.02,0,2.16,0,3.18-0.11
	C27.38,50.9,27.72,49.99,28.06,48.97z"/>
</svg>
