<?xml version="1.0" encoding="UTF-8"?>
<svg width="41px" height="42px" viewBox="0 0 41 42" version="1.1" xmlns="http://www.w3.org/2000/svg" xmlns:xlink="http://www.w3.org/1999/xlink">
    <!-- Generator: Sketch 59 (86127) - https://sketch.com -->
    <title>Icon - Added</title>
    <desc>Created with Sketch.</desc>
    <g id="Symbols" stroke="none" stroke-width="1" fill="none" fill-rule="evenodd">
        <g id="Icon---Added" transform="translate(-8.000000, -4.000000)">
            <g id="Elements-/-Icon-/-Document-/-Default" fill="#6859A3">
                <path d="M14.9357,26.0543 C14.9357,25.6400864 15.2714864,25.3043 15.6857,25.3043 L28.1835,25.3043 C28.5977136,25.3043 28.9335,25.6400864 28.9335,26.0543 C28.9335,26.4685136 28.5977136,26.8043 28.1835,26.8043 L15.6857,26.8043 C15.2714864,26.8043 14.9357,26.4685136 14.9357,26.0543 Z M34.1606,29.26 L15.6857,29.26 C15.2714864,29.26 14.9357,29.5957864 14.9357,30.01 C14.9357,30.4242136 15.2714864,30.76 15.6857,30.76 L34.1606,30.76 C34.5748136,30.76 34.9106,30.4242136 34.9106,30.01 C34.9106,29.5957864 34.5748136,29.26 34.1606,29.26 Z M34.1606,33.2162 L15.6857,33.2162 C15.2714864,33.2162 14.9357,33.5519865 14.9357,33.9662 C14.9357,34.3804136 15.2714864,34.7162 15.6857,34.7162 L34.1606,34.7162 C34.5748136,34.7162 34.9106,34.3804136 34.9106,33.9662 C34.9106,33.5519865 34.5748136,33.2162 34.1606,33.2162 Z M34.1606,37.2416 L15.6857,37.2416 C15.2714864,37.2416 14.9357,37.5773865 14.9357,37.9916 C14.9357,38.4058136 15.2714864,38.7416 15.6857,38.7416 L34.1606,38.7416 C34.5748136,38.7416 34.9106,38.4058136 34.9106,37.9916 C34.9106,37.5773865 34.5748136,37.2416 34.1606,37.2416 Z M41.75,8.69999997 L41.75,41.3 C41.7476854,43.3701083 40.0701083,45.0476854 38,45.05 L12,45.05 C9.92989167,45.0476854 8.2523146,43.3701083 8.24999997,41.3 L8.24999997,18.8754 C8.24999997,18.8508 8.25129997,18.8263 8.25369997,18.8019 C8.25499997,18.7896 8.25719997,18.7776 8.25899997,18.7655 C8.26079997,18.7534 8.26219997,18.7413 8.26459997,18.7293 C8.26699997,18.7173 8.27089997,18.7029 8.27459997,18.6893 C8.27739997,18.6787 8.27959997,18.6681 8.28279997,18.6576 C8.28659997,18.6449 8.29139997,18.6326 8.29589997,18.6202 C8.29979997,18.6096 8.30319997,18.5988 8.30759997,18.5884 C8.31199997,18.578 8.31809997,18.5655 8.32349997,18.5541 C8.32889997,18.5427 8.33349997,18.5325 8.33899997,18.5219 C8.34449997,18.5113 8.35169997,18.5003 8.35819997,18.4895 C8.36469997,18.4787 8.37009997,18.4689 8.37679997,18.4589 C8.38499997,18.4467 8.39399997,18.4352 8.40289997,18.4235 C8.40879997,18.4157 8.41419997,18.4076 8.42049997,18.4 C8.43619997,18.3808 8.45289997,18.3623 8.47049997,18.3447 L8.47049997,18.3447 L21.672,5.16999996 L21.6726,5.16939996 L21.6726,5.16939996 L21.6757,5.16659996 C21.6922,5.15029996 21.7094,5.13469996 21.7274,5.11999996 C21.7358,5.11309996 21.7446,5.10709996 21.7532,5.10059996 C21.7642,5.09239996 21.7749,5.08399996 21.7863,5.07639996 C21.7977,5.06879996 21.8077,5.06329996 21.8185,5.05639996 C21.8293,5.04949996 21.8385,5.04389996 21.8492,5.03829996 C21.8599,5.03269996 21.8717,5.02729996 21.8831,5.02199996 C21.8945,5.01669996 21.9046,5.01199996 21.9156,5.00689996 C21.9266,5.00179996 21.9381,4.99859996 21.9494,4.99459996 C21.9607,4.99059996 21.9729,4.98579996 21.985,4.98219996 C21.9971,4.97859996 22.0075,4.97629996 22.0189,4.97339996 C22.0303,4.97049996 22.0435,4.96689996 22.0562,4.96439996 C22.0689,4.96189996 22.0815,4.96039996 22.0941,4.95859996 C22.1067,4.95679996 22.1171,4.95479996 22.1289,4.95359996 C22.1483,4.95169996 22.1678,4.95099996 22.1874,4.95069996 C22.1924,4.95069996 22.1974,4.94989996 22.2023,4.94989996 L38,4.94989996 C40.0701473,4.9522147 41.7477405,6.62985261 41.75,8.69999997 Z M10.8532,18.0861 L19.7088,18.0861 C20.6734228,18.0826828 21.4533777,17.2993285 21.4526006,16.3347 L21.4526006,7.50809997 L10.8532,18.0861 Z M40.25,8.69999997 C40.2485673,7.45795324 39.2420468,6.45143273 38,6.44999996 L22.9526,6.44999996 L22.9526,16.3347 C22.9526599,18.1274576 21.5015528,19.5819645 19.7088,19.5861 L9.74999997,19.5861 L9.74999997,41.3 C9.75143274,42.5420468 10.7579532,43.5485673 12,43.55 L38,43.55 C39.2420468,43.5485673 40.2485673,42.5420468 40.25,41.3 L40.25,8.69999997 Z" id="icon/icon-document"></path>
            </g>
            <g id="Check" transform="translate(31.000000, 10.000000)">
                <circle id="Oval" fill="#FFFFFF" cx="10" cy="10" r="8"></circle>
                <g id="Elements-/-Icon-/-Tick-/-Circle-/-Filled-with-Surround">
                    <path d="M15.65728,4.34287999 C12.5329389,1.21845051 7.46730946,1.21837888 4.34287999,4.34271999 C1.21845051,7.4670611 1.21837888,12.5326905 4.34271999,15.65712 C6.36381431,17.6782715 9.30965395,18.4676515 12.0705696,17.7279082 C14.8314853,16.9881649 16.9880283,14.831683 17.7278496,12.0707882 C18.467671,9.30989344 17.6783743,6.36403147 15.65728,4.34287999 L15.65728,4.34287999 Z" id="Surround" fill="#FFFFFF"></path>
                    <path d="M15.091192,4.90897027 C12.2794888,2.09718763 7.72075291,2.09712316 4.90897026,4.90882628 C2.09718762,7.7205294 2.09712316,12.2792653 4.90882627,15.091048 C6.72767927,16.9099524 9.37874272,17.6203429 11.8633867,16.9546222 C14.3480306,16.2889015 16.2887786,14.3482085 16.9545695,11.8635834 C17.6203605,9.37895824 16.910045,6.72787471 15.091192,4.90897027 L15.091192,4.90897027 Z" id="Fill" fill="#6859A3"></path>
                    <path d="M13.8984,7.57228 L8.61876,12.852 C8.56249844,12.9082658 8.48618885,12.9398759 8.40662,12.9398759 C8.32705115,12.9398759 8.25074156,12.9082658 8.19448,12.852 L6.10123999,10.75876 C6.02490265,10.6830812 5.99488947,10.5723438 6.02256392,10.4684747 C6.05023836,10.3646056 6.13137036,10.2834812 6.2352421,10.2558166 C6.33911383,10.2281519 6.4498484,10.2581755 6.52551999,10.33452 L8.4066,12.2156 L13.47412,7.14799999 C13.5914195,7.03171239 13.7806529,7.03211783 13.8974531,7.14890698 C14.0142533,7.26569614 14.0146765,7.4549295 13.8984,7.57224 L13.8984,7.57228 Z" id="Path" fill="#FFFFFF"></path>
                </g>
            </g>
        </g>
    </g>
</svg>