<?xml version="1.0" encoding="utf-8"?>
<!-- Generator: Adobe Illustrator 22.1.0, SVG Export Plug-In . SVG Version: 6.00 Build 0)  -->
<svg version="1.1" id="Layer_1" xmlns="http://www.w3.org/2000/svg" xmlns:xlink="http://www.w3.org/1999/xlink" x="0px" y="0px"
	 viewBox="0 0 10.57 20" style="enable-background:new 0 0 10.57 20;" xml:space="preserve">
<style type="text/css">
	.st0{fill:#6859A3;}
</style>
<path class="st0" d="M9.2,10L0.17,0.97c-0.22-0.22-0.22-0.58,0-0.8s0.58-0.22,0.8,0l9.44,9.43c0.22,0.22,0.22,0.58,0,0.8l-9.44,9.43
	C0.86,19.94,0.71,20,0.57,20s-0.29-0.05-0.4-0.17c-0.22-0.22-0.22-0.58,0-0.8L9.2,10z"/>
</svg>
