<?xml version="1.0" encoding="utf-8"?>
<!-- Generator: Adobe Illustrator 22.1.0, SVG Export Plug-In . SVG Version: 6.00 Build 0)  -->
<svg version="1.1" id="Layer_1" xmlns="http://www.w3.org/2000/svg" xmlns:xlink="http://www.w3.org/1999/xlink" x="0px" y="0px"
	 viewBox="0 0 43.39 43.979" style="enable-background:new 0 0 43.39 43.979;" xml:space="preserve">
<style type="text/css">
	.st0{fill:#6859A3;}
</style>
<g>
	<path class="st0" d="M41.492,13.265v-8.68C41.492,2.057,39.435,0,36.907,0H4.584C2.057,0,0,2.057,0,4.585v27.35
		c0,2.927,2.87,2.927,4.584,2.927h10.374l-0.007,3.16l-3.27,2.69c-0.919,0.756-1.012,1.611-0.792,2.161
		c0.166,0.413,0.644,1.105,1.984,1.105h10.774c0.347,0,1.269,0,1.269-0.922c0-0.649-0.427-0.979-1.27-0.979l-10.641,0.022
		l3.547-3.055c0.194-0.161,0.304-0.397,0.3-0.646v-3.514l8.783-0.022v6.898c0,1.112,0.905,2.018,2.018,2.018h13.721
		c1.112,0,2.018-0.905,2.018-2.018V15.278C43.39,14.206,42.549,13.326,41.492,13.265z M25.634,29.061v3.893H4.675
		c-0.206,0-0.406,0.004-0.623,0.008c-0.822,0.016-1.536,0.025-1.833-0.268C2.071,32.548,2,32.3,2,31.935v-2.874H25.634z
		 M27.146,39.743h14.732v2.02c0,0.279-0.227,0.506-0.506,0.506H27.652c-0.279,0-0.506-0.227-0.506-0.506V39.743z M41.878,17.988
		v20.243H27.146V17.988H41.878z M27.652,14.772h13.721c0.279,0,0.506,0.227,0.506,0.506v1.198H27.146v-1.198
		C27.146,14.999,27.373,14.772,27.652,14.772z M39.558,4.585v8.676H27.652c-1.112,0-2.018,0.905-2.018,2.018v11.897H2V4.536
		C2.004,3.114,3.164,1.954,4.584,1.95h32.321C38.356,1.954,39.546,3.137,39.558,4.585z"/>
	<path class="st0" d="M34.96,15.218h-0.887c-0.197,0.04-0.339,0.213-0.339,0.414c0,0.201,0.142,0.375,0.339,0.414h0.887
		c0.168,0.034,0.339-0.037,0.435-0.179c0.095-0.142,0.095-0.328,0-0.47C35.299,15.255,35.127,15.184,34.96,15.218z"/>
	<path class="st0" d="M33.095,41.383h2.843c0.197-0.04,0.339-0.213,0.339-0.414c0-0.201-0.142-0.375-0.339-0.414h-2.843
		c-0.168-0.034-0.339,0.037-0.435,0.179c-0.095,0.142-0.095,0.328,0,0.47C32.755,41.346,32.927,41.417,33.095,41.383z"/>
</g>
</svg>
