<svg id="icon-new-window" xmlns="http://www.w3.org/2000/svg" viewBox="0 0 24 24" style="enable-background:new 0 0 24 24;">
  <style type="text/css">.st0{fill:#6859A3;}</style>
  <title>icon-new-window</title>
  <path class="st0" d="M19.6,22H4.4A2.41,2.41,0,0,1,2,19.6V4.4A2.41,2.41,0,0,1,4.4,2H12V3H4.4A1.4,1.4,0,0,0,3,4.4V19.6A1.4,1.4,0,0,0,4.4,21H19.6A1.4,1.4,0,0,0,21,19.6V12h1v7.6A2.41,2.41,0,0,1,19.6,22Z"/>
  <rect x="8.1" y="7.57" width="15.66" height="1" transform="translate(-1.04 13.63) rotate(-45)" class="st0"/>
  <polygon class="st0" points="21.96 8.2 20.96 8.2 20.96 3.04 15.8 3.04 15.8 2.04 21.96 2.04 21.96 8.2"/>
</svg>