<?xml version="1.0" encoding="utf-8"?>
<!-- Generator: Adobe Illustrator 22.1.0, SVG Export Plug-In . SVG Version: 6.00 Build 0)  -->
<svg version="1.1" id="Layer_1" xmlns="http://www.w3.org/2000/svg" xmlns:xlink="http://www.w3.org/1999/xlink" x="0px" y="0px"
	 viewBox="0 0 17.8 16.8" style="enable-background:new 0 0 17.8 16.8;" xml:space="preserve">
<style type="text/css">
	.st0{fill:#44C0FF;}
</style>
<g>
	<path class="st0" d="M6.496,13.656c0.222,0.223,0.423,0.31,0.717,0.31c0.294,0,0.495-0.087,0.717-0.31
		c0.202-0.204,0.308-0.518,0.308-0.723c0-0.205-0.106-0.52-0.308-0.724c-0.199-0.2-0.453-0.31-0.716-0.31c0,0,0,0,0,0
		c-0.263,0-0.518,0.11-0.717,0.31c-0.202,0.204-0.308,0.519-0.308,0.724C6.188,13.138,6.293,13.452,6.496,13.656z"/>
	<path class="st0" d="M6.496,10.256c0.222,0.223,0.423,0.31,0.717,0.31c0.294,0,0.495-0.087,0.717-0.31
		c0.202-0.204,0.308-0.519,0.308-0.723c0-0.205-0.106-0.519-0.308-0.722C7.73,8.61,7.476,8.5,7.213,8.5c0,0,0,0,0,0
		c-0.263,0-0.518,0.11-0.717,0.311C6.293,9.014,6.188,9.328,6.188,9.533C6.188,9.738,6.293,10.052,6.496,10.256z"/>
	<path class="st0" d="M9.871,13.656c0.222,0.223,0.423,0.31,0.717,0.31c0.294,0,0.495-0.087,0.717-0.31
		c0.222-0.224,0.308-0.426,0.308-0.723c0-0.297-0.086-0.5-0.308-0.724c-0.199-0.2-0.454-0.31-0.717-0.31
		c-0.263,0-0.518,0.11-0.717,0.31c-0.202,0.204-0.308,0.519-0.308,0.724C9.562,13.138,9.668,13.452,9.871,13.656z"/>
	<path class="st0" d="M13.246,10.256c0.222,0.223,0.422,0.31,0.716,0.31c0.294,0,0.495-0.087,0.717-0.31
		c0.222-0.225,0.308-0.427,0.308-0.723c0-0.205-0.106-0.519-0.308-0.723C14.48,8.61,14.226,8.5,13.962,8.5
		c-0.263,0-0.518,0.11-0.717,0.311c-0.202,0.204-0.308,0.518-0.308,0.723S13.043,10.052,13.246,10.256z"/>
	<path class="st0" d="M9.871,10.256c0.222,0.223,0.423,0.31,0.717,0.31c0.294,0,0.495-0.087,0.717-0.31
		c0.222-0.224,0.308-0.427,0.308-0.723c0-0.205-0.106-0.519-0.308-0.722C11.105,8.61,10.851,8.5,10.587,8.5
		c-0.263,0-0.518,0.11-0.717,0.311C9.668,9.014,9.562,9.328,9.562,9.533C9.562,9.738,9.668,10.052,9.871,10.256z"/>
	<path class="st0" d="M13.246,13.656c0.222,0.223,0.423,0.31,0.717,0.31c0.294,0,0.495-0.087,0.717-0.31
		c0.202-0.204,0.308-0.518,0.308-0.723s-0.106-0.519-0.309-0.724c-0.198-0.2-0.453-0.31-0.716-0.31c-0.263,0-0.518,0.11-0.717,0.31
		c-0.222,0.225-0.308,0.427-0.308,0.724C12.938,13.138,13.043,13.452,13.246,13.656z"/>
	<path class="st0" d="M3.121,13.656c0.222,0.223,0.423,0.31,0.717,0.31c0.294,0,0.495-0.087,0.717-0.31
		c0.202-0.204,0.308-0.518,0.308-0.723c0-0.205-0.106-0.52-0.308-0.724c-0.199-0.2-0.454-0.31-0.717-0.31
		c-0.263,0-0.518,0.11-0.717,0.31c-0.222,0.225-0.308,0.427-0.308,0.724C2.812,13.138,2.918,13.452,3.121,13.656z"/>
	<path class="st0" d="M15.087,1.133h-2.35V0.467C12.737,0.183,12.556,0,12.275,0s-0.462,0.183-0.462,0.467v0.667H5.987V0.467
		C5.987,0.183,5.806,0,5.525,0S5.062,0.183,5.062,0.467v0.667h-2.35C1.191,1.133,0,2.333,0,3.866v10.2
		C0,15.599,1.191,16.8,2.712,16.8h12.375c1.521,0,2.712-1.201,2.712-2.733v-10.2C17.8,2.333,16.608,1.133,15.087,1.133z
		 M16.875,14.066c0,0.959-0.835,1.8-1.788,1.8H2.712c-0.952,0-1.788-0.841-1.788-1.8V6.6h15.95V14.066z M16.875,5.667H0.925v-1.8
		c0-0.958,0.835-1.8,1.788-1.8h2.35v0.667c0,0.284,0.182,0.467,0.462,0.467s0.462-0.183,0.462-0.467V2.066h5.825v0.667
		c0,0.284,0.182,0.467,0.463,0.467c0.281,0,0.462-0.183,0.462-0.467V2.066h2.35c0.952,0,1.788,0.841,1.788,1.8V5.667z"/>
	<path class="st0" d="M3.121,10.256c0.222,0.223,0.422,0.31,0.716,0.31c0.294,0,0.495-0.087,0.717-0.31
		c0.202-0.204,0.308-0.519,0.308-0.723c0-0.205-0.106-0.519-0.308-0.722C4.355,8.61,4.101,8.5,3.837,8.5
		c-0.263,0-0.518,0.11-0.717,0.311C2.902,9.031,2.812,9.24,2.812,9.533C2.812,9.829,2.899,10.032,3.121,10.256z"/>
</g>
</svg>
