<?xml version="1.0" encoding="utf-8"?>
<!-- Generator: Adobe Illustrator 22.1.0, SVG Export Plug-In . SVG Version: 6.00 Build 0)  -->
<svg version="1.1" xmlns="http://www.w3.org/2000/svg" xmlns:xlink="http://www.w3.org/1999/xlink" x="0px" y="0px"
	 viewBox="0 0 76 93" style="enable-background:new 0 0 76 93;" xml:space="preserve">
<style type="text/css">
	.st0{clip-path:url(#SVGID_3_);}
	.st1{clip-path:url(#SVGID_8_);}
	.st2{clip-path:url(#SVGID_9_);}
	.st3{clip-path:url(#SVGID_14_);}
	.st4{clip-path:url(#SVGID_15_);}
	.st5{clip-path:url(#dot_3_1_);}
	.st6{clip-path:url(#dot_2_1_);}
</style>
<g id="Layer_1">
	<g id="circles">
		<defs>
			<circle id="SVGID_1_" cx="38" cy="55" r="38"/>
		</defs>
		<defs>
			<circle id="SVGID_2_" cx="38" cy="55" r="33"/>
		</defs>
		<use xlink:href="#SVGID_1_"  style="overflow:visible;opacity:0.4;fill-rule:evenodd;clip-rule:evenodd;fill:#5ABAEA;"/>
		<use xlink:href="#SVGID_2_"  style="overflow:visible;fill-rule:evenodd;clip-rule:evenodd;fill:#5ABAEA;"/>
		<clipPath id="SVGID_3_">
			<use xlink:href="#SVGID_1_"  style="overflow:visible;opacity:0.4;"/>
		</clipPath>
		<clipPath id="SVGID_4_" class="st0">
			<use xlink:href="#SVGID_2_"  style="overflow:visible;"/>
		</clipPath>
	</g>
	<g id="B">
		<defs>
			<path id="SVGID_5_" d="M40.607,43.182h-9.288v9.856h9.288c2.717,0,4.928-2.211,4.928-4.928
				C45.535,45.392,43.325,43.182,40.607,43.182z M40.607,50.093h-6.343v-3.963h6.343c1.093,0,1.981,0.888,1.981,1.981
				C42.588,49.203,41.7,50.093,40.607,50.093z"/>
		</defs>
		<defs>
			<path id="SVGID_6_" d="M42.293,56.092H31.319v10.452h10.974c2.881,0,5.225-2.345,5.225-5.227
				C47.518,58.436,45.174,56.092,42.293,56.092z M42.293,63.595h-8.028v-4.557h8.028c1.255,0,2.278,1.022,2.278,2.278
				C44.571,62.574,43.548,63.595,42.293,63.595z"/>
		</defs>
		<defs>
			<path id="SVGID_7_" d="M50.466,53.102c0.914-1.575,1.438-3.404,1.438-5.354c0-5.898-4.799-10.696-10.696-10.696H24.951v35.859
				h17.342c6.392,0,11.593-5.202,11.593-11.595C53.886,58.11,52.577,55.202,50.466,53.102z M42.293,69.625H28.235V40.337h12.973
				c4.087,0,7.411,3.324,7.411,7.411c0,2.864-1.17,4.746-2.129,5.896c1.85,1.141,4.112,3.73,4.112,7.672
				C50.602,65.898,46.874,69.625,42.293,69.625z"/>
		</defs>
		<use xlink:href="#SVGID_5_"  style="overflow:visible;fill-rule:evenodd;clip-rule:evenodd;fill:#FFFFFF;"/>
		<use xlink:href="#SVGID_6_"  style="overflow:visible;fill-rule:evenodd;clip-rule:evenodd;fill:#FFFFFF;"/>
		<use xlink:href="#SVGID_7_"  style="overflow:visible;fill-rule:evenodd;clip-rule:evenodd;fill:#FFFFFF;"/>
		<clipPath id="SVGID_8_">
			<use xlink:href="#SVGID_5_"  style="overflow:visible;"/>
		</clipPath>
		<clipPath id="SVGID_9_" class="st1">
			<use xlink:href="#SVGID_6_"  style="overflow:visible;"/>
		</clipPath>
		<clipPath id="SVGID_10_" class="st2">
			<use xlink:href="#SVGID_7_"  style="overflow:visible;"/>
		</clipPath>
	</g>
	<g id="help">
		<defs>
			<path id="SVGID_11_" d="M58.937,8.034C43.429,4.01,27.892,2.379,12.871,3.002C7.526,3.176,4.521,8.291,5.905,13.89
				c1.559,6.557,2.952,12.997,4.185,19.315c1.107,5.412,4.999,8.508,9.004,7.363c8.95-2.444,18.424-3.728,28.189-3.753
				c2.081,2.102,4.047,4.122,5.908,6.054c0.166,0.174,0.415,0.265,0.684,0.268c0.134,0,0.273-0.02,0.409-0.065
				c0.415-0.132,0.732-0.451,0.803-0.812c0.328-1.688,0.639-3.402,0.932-5.139c4.385,0.182,8.692-2.073,9.48-5.624
				c0.898-4.295,1.687-8.747,2.363-13.357C68.482,14.287,64.434,9.491,58.937,8.034"/>
		</defs>
		<defs>
			<path id="SVGID_12_" d="M58.5,7.596C42.992,3.573,27.454,1.941,12.433,2.564c-5.345,0.174-8.35,5.289-6.966,10.889
				C7.027,20.01,8.42,26.45,9.652,32.768c1.107,5.412,4.999,8.508,9.004,7.363c8.95-2.444,18.424-3.728,28.189-3.753
				c2.081,2.102,4.047,4.122,5.908,6.054c0.166,0.174,0.415,0.265,0.684,0.268c0.134,0,0.273-0.02,0.409-0.065
				c0.415-0.132,0.732-0.451,0.803-0.812c0.328-1.688,0.639-3.402,0.932-5.139c4.385,0.182,8.692-2.073,9.48-5.624
				c0.898-4.295,1.687-8.747,2.363-13.357C68.044,13.849,63.997,9.053,58.5,7.596"/>
		</defs>
		<defs>
			<path id="SVGID_13_" d="M55.527,34.729c-0.305-0.028-0.608-0.055-0.913-0.08c-0.605-0.052-1.161,0.324-1.245,0.832
				c-0.219,1.302-0.448,2.592-0.688,3.866c-1.461-1.531-2.994-3.121-4.603-4.764c-0.181-0.185-0.446-0.294-0.733-0.298
				c-10.001-0.168-19.684,1.064-28.763,3.582c-2.942,0.846-5.834-1.45-6.646-5.383C10.694,26.206,9.272,19.8,7.667,13.266
				c-1.034-4.086,1.144-7.81,5.02-8.003c14.886-0.858,30.389,0.694,45.87,4.815c4.016,1.087,6.97,4.546,6.521,7.371
				c-0.675,4.594-1.479,9.02-2.403,13.273C62.077,33.341,58.826,34.998,55.527,34.729z"/>
		</defs>
		<use xlink:href="#SVGID_11_"  style="overflow:visible;fill-rule:evenodd;clip-rule:evenodd;fill:#CECCCC;"/>
		<use xlink:href="#SVGID_12_"  style="overflow:visible;fill-rule:evenodd;clip-rule:evenodd;fill:#FFFFFF;"/>
		<use xlink:href="#SVGID_13_"  style="overflow:visible;fill-rule:evenodd;clip-rule:evenodd;fill:#675AA2;"/>
		<clipPath id="SVGID_14_">
			<use xlink:href="#SVGID_11_"  style="overflow:visible;"/>
		</clipPath>
		<clipPath id="SVGID_15_" class="st3">
			<use xlink:href="#SVGID_12_"  style="overflow:visible;"/>
		</clipPath>
		<clipPath id="SVGID_16_" class="st4">
			<use xlink:href="#SVGID_13_"  style="overflow:visible;"/>
		</clipPath>
	</g>
	<g id="dots">
		<defs>
			<circle id="dot_3" cx="52.145" cy="21.277" r="5.345"/>
		</defs>
		<defs>
			<circle id="dot_2" cx="38.778" cy="19.966" r="5.345"/>
		</defs>
		<defs>
			<circle id="dot_1" cx="24.364" cy="20.489" r="6.014"/>
		</defs>
		<use xlink:href="#dot_3"  style="overflow:visible;opacity:0.5;fill-rule:evenodd;clip-rule:evenodd;fill:#FFFFFF;"/>
		<use xlink:href="#dot_2"  style="overflow:visible;opacity:0.75;fill-rule:evenodd;clip-rule:evenodd;fill:#FFFFFF;"/>
		<use xlink:href="#dot_1"  style="overflow:visible;fill-rule:evenodd;clip-rule:evenodd;fill:#FFFFFF;"/>
		<clipPath id="dot_3_1_">
			<use xlink:href="#dot_3"  style="overflow:visible;opacity:0.5;"/>
		</clipPath>
		<clipPath id="dot_2_1_" class="st5">
			<use xlink:href="#dot_2"  style="overflow:visible;opacity:0.75;"/>
		</clipPath>
		<clipPath id="dot_1_1_" class="st6">
			<use xlink:href="#dot_1"  style="overflow:visible;"/>
		</clipPath>
	</g>
</g>
<g id="Layer_2">
</g>
</svg>
