<?xml version="1.0" encoding="utf-8"?>
<!-- Generator: Adobe Illustrator 23.0.1, SVG Export Plug-In . SVG Version: 6.00 Build 0)  -->
<svg version="1.1" id="Layer_1" xmlns="http://www.w3.org/2000/svg" xmlns:xlink="http://www.w3.org/1999/xlink" x="0px" y="0px"
	 viewBox="0 0 284.53 258.52" style="enable-background:new 0 0 284.53 258.52;" xml:space="preserve">
<style type="text/css">
	.st0{fill:#675BA1;}
	.st1{fill:#D1CDE2;}
	.st2{fill:#FFFFFF;}
	.st3{fill:#EFEEF4;}
</style>
<g>
	<g>
		<g>
			<path class="st0" d="M46.96,124.55l-0.13,0c-1.77,0.01-3.2,1.49-3.11,3.26c0,0.07,0.01,0.13,0.01,0.2
				c0.09,1.77,1.65,3.1,3.41,2.94l0.13-0.01c1.69-0.15,2.94-1.62,2.86-3.31c0-0.02,0-0.04,0-0.06
				C50.05,125.87,48.66,124.54,46.96,124.55z"/>
		</g>
	</g>
	<g>
		<g>
			<path class="st0" d="M44.14,114.51c-0.01,0.07-0.01,0.13-0.02,0.2c-0.19,1.76,1.14,3.32,2.91,3.44l0.13,0.01
				c1.69,0.12,3.16-1.13,3.34-2.82c0-0.02,0-0.04,0.01-0.06c0.19-1.69-0.97-3.23-2.65-3.48l-0.13-0.02
				C45.98,111.51,44.34,112.75,44.14,114.51z"/>
		</g>
	</g>
	<g>
		<g>
			<path class="st0" d="M75.91,57.89c-0.05,0.04-0.1,0.08-0.16,0.12c-1.4,1.09-1.59,3.13-0.45,4.49l0.08,0.1
				c1.1,1.3,3.01,1.48,4.35,0.43c0.02-0.01,0.03-0.03,0.05-0.04c1.34-1.04,1.64-2.94,0.65-4.32l-0.08-0.11
				C79.34,57.12,77.31,56.81,75.91,57.89z"/>
		</g>
	</g>
	<g>
		<g>
			<path class="st0" d="M51.25,88.91c-0.03,0.06-0.06,0.12-0.08,0.18c-0.74,1.61,0.04,3.51,1.67,4.19l0.12,0.05
				c1.57,0.65,3.35-0.08,4.06-1.62c0.01-0.02,0.02-0.04,0.03-0.06c0.71-1.54,0.1-3.37-1.41-4.14l-0.11-0.06
				C53.94,86.65,51.99,87.3,51.25,88.91z"/>
		</g>
	</g>
	<g>
		<g>
			<path class="st0" d="M46.66,101.43c-0.02,0.06-0.04,0.13-0.05,0.19c-0.47,1.71,0.6,3.46,2.32,3.86l0.13,0.03
				c1.65,0.39,3.3-0.62,3.75-2.25c0.01-0.02,0.01-0.04,0.02-0.06c0.45-1.64-0.44-3.34-2.06-3.85l-0.13-0.04
				C48.95,98.76,47.13,99.72,46.66,101.43z"/>
		</g>
	</g>
	<g>
		<g>
			<path class="st0" d="M66.07,66.88c-0.04,0.05-0.09,0.1-0.13,0.14c-1.21,1.3-1.07,3.34,0.27,4.5l0.1,0.09
				c1.29,1.11,3.21,0.98,4.37-0.26c0.01-0.02,0.03-0.03,0.04-0.05c1.16-1.24,1.15-3.17-0.04-4.37l-0.09-0.09
				C69.33,65.58,67.28,65.59,66.07,66.88z"/>
		</g>
	</g>
	<g>
		<g>
			<path class="st0" d="M57.78,77.3c-0.04,0.05-0.07,0.11-0.11,0.16c-0.99,1.47-0.53,3.47,0.98,4.4l0.11,0.07
				c1.45,0.89,3.32,0.46,4.27-0.95c0.01-0.02,0.02-0.03,0.03-0.05c0.95-1.41,0.64-3.31-0.73-4.31l-0.11-0.08
				C60.79,75.49,58.76,75.83,57.78,77.3z"/>
		</g>
	</g>
</g>
<g>
	<g>
		<g>
			<path class="st0" d="M126.74,235.5l-0.03,0.13c-0.35,1.74,0.8,3.44,2.55,3.72c0.07,0.01,0.13,0.02,0.2,0.03
				c1.75,0.27,3.37-0.98,3.58-2.74l0.02-0.13c0.2-1.68-0.98-3.2-2.66-3.47c-0.02,0-0.04-0.01-0.06-0.01
				C128.67,232.76,127.08,233.84,126.74,235.5z"/>
		</g>
	</g>
	<g>
		<g>
			<path class="st0" d="M154.93,232.99c-0.02,0-0.04,0.01-0.06,0.01c-1.68,0.27-2.85,1.8-2.65,3.48l0.02,0.13
				c0.21,1.76,1.84,3.01,3.59,2.73c0.07-0.01,0.13-0.02,0.2-0.03c1.75-0.28,2.9-1.98,2.54-3.72l-0.03-0.13
				C158.2,233.8,156.6,232.72,154.93,232.99z"/>
		</g>
	</g>
	<g>
		<g>
			<path class="st0" d="M142.67,233.99c-0.02,0-0.04,0-0.06,0c-1.69,0-3.09,1.32-3.16,3.01l-0.01,0.17
				c-0.07,1.75,1.32,3.23,3.08,3.23c0.01,0,0.02,0,0.03,0c0.07,0,0.14,0,0.21,0c1.77-0.01,3.17-1.5,3.1-3.27l-0.01-0.13
				C145.77,235.3,144.37,233.98,142.67,233.99z"/>
		</g>
	</g>
</g>
<g>
	<g>
		<g>
			<path class="st0" d="M215,67.26l-0.14,0.14c-1.19,1.18-1.22,3.09-0.08,4.32c0.03,0.03,0.06,0.06,0.09,0.1
				c1.13,1.24,3.03,1.38,4.31,0.3l0.15-0.13c1.34-1.13,1.49-3.15,0.31-4.45c-0.06-0.07-0.12-0.13-0.18-0.2
				C218.27,66.06,216.24,66.03,215,67.26z"/>
		</g>
	</g>
	<g>
		<g>
			<path class="st0" d="M223.26,77.05l-0.16,0.12c-1.36,0.98-1.69,2.85-0.77,4.26c0.02,0.04,0.05,0.07,0.07,0.11
				c0.92,1.4,2.78,1.85,4.22,0.98l0.17-0.1c1.5-0.9,1.97-2.88,1.01-4.34c-0.05-0.07-0.1-0.15-0.15-0.22
				C226.69,76.38,224.69,76.03,223.26,77.05z"/>
		</g>
	</g>
	<g>
		<g>
			<path class="st0" d="M238.22,125.2l-0.2,0c-1.68-0.03-3.06,1.28-3.16,2.95c0,0.01,0,0.02,0,0.03c0,0.03,0,0.07-0.01,0.1
				c-0.1,1.68,1.12,3.14,2.8,3.3l0.2,0.02c1.74,0.17,3.3-1.13,3.4-2.88c0-0.06,0.01-0.12,0.01-0.17c0-0.03,0-0.06,0.01-0.09
				C241.36,126.71,239.97,125.24,238.22,125.2z"/>
		</g>
	</g>
	<g>
		<g>
			<path class="st0" d="M229.88,88.02l-0.18,0.09c-1.5,0.75-2.12,2.55-1.44,4.08c0.02,0.04,0.03,0.08,0.05,0.11
				c0.69,1.53,2.45,2.26,4.01,1.64l0.19-0.08c1.62-0.65,2.4-2.53,1.69-4.13c-0.04-0.08-0.07-0.16-0.11-0.24
				C233.36,87.9,231.44,87.24,229.88,88.02z"/>
		</g>
	</g>
	<g>
		<g>
			<path class="st0" d="M234.65,99.91l-0.19,0.06c-1.6,0.5-2.5,2.18-2.07,3.8c0.01,0.04,0.02,0.08,0.03,0.12
				c0.43,1.62,2.05,2.63,3.69,2.26l0.2-0.04c1.71-0.38,2.78-2.11,2.33-3.8c-0.02-0.09-0.05-0.17-0.07-0.26
				C238.11,100.35,236.32,99.39,234.65,99.91z"/>
		</g>
	</g>
	<g>
		<g>
			<path class="st0" d="M237.45,112.41l-0.2,0.03c-1.66,0.23-2.82,1.75-2.65,3.42c0,0.04,0.01,0.09,0.01,0.13
				c0.17,1.67,1.6,2.92,3.28,2.82l0.2-0.01c1.75-0.1,3.08-1.64,2.91-3.38c-0.01-0.09-0.02-0.18-0.03-0.27
				C240.79,113.41,239.18,112.17,237.45,112.41z"/>
		</g>
	</g>
	<g>
		<g>
			<path class="st0" d="M205.29,58.9l-0.12,0.16c-0.99,1.36-0.71,3.24,0.6,4.28c0.03,0.03,0.07,0.05,0.1,0.08
				c1.31,1.05,3.21,0.89,4.31-0.39l0.13-0.15c1.14-1.33,0.97-3.35-0.4-4.44c-0.07-0.06-0.14-0.11-0.21-0.17
				C208.33,57.19,206.32,57.48,205.29,58.9z"/>
		</g>
	</g>
</g>
<circle class="st1" cx="146.03" cy="134.5" r="78.5"/>
<path class="st2" d="M108.67,125.48c0.85,0,1.66-0.32,2.27-0.92c0.51-0.5,0.82-1.14,0.92-1.83l0.09-14.24
	c0.01-1,0.28-1.93,0.75-2.74c0.99-1.68,2.86-2.73,4.8-2.72c3.03,0.02,5.47,2.49,5.46,5.52l-0.08,13.82c0,0.3-0.02,0.59-0.04,0.89
	l-0.05,8.18c-0.01,1.76,1.41,3.2,3.18,3.21c1.62,0.01,2.97-1.2,3.18-2.76l0.14-23.31c0.01-1,0.28-1.93,0.75-2.74
	c0.76-1.31,2.06-2.26,3.58-2.58c0.4-0.09,0.82-0.14,1.23-0.13c3.03,0.02,5.47,2.49,5.46,5.52l-0.14,22.89c0,0.3-0.02,0.59-0.04,0.89
	l-0.04,7.32c-0.01,1.76,1.41,3.2,3.18,3.21c1.76,0.01,3.2-1.41,3.21-3.18l0.04-7.31c-0.02-0.3-0.03-0.59-0.03-0.89l0.14-22.89
	c0.02-3.03,2.49-5.47,5.52-5.46c0.01,0,0.01,0,0.02,0c0.01,0,0.01,0,0.02,0c3.03,0.02,5.47,2.49,5.46,5.52l-0.14,23.2
	c0.07,0.73,0.37,1.42,0.89,1.95c0.6,0.61,1.4,0.94,2.25,0.95c0.85,0,1.66-0.32,2.27-0.92c0.61-0.6,0.94-1.4,0.95-2.25l0.27-44.64
	c0.02-3.48,2.54-6.29,6-6.68c3.45-0.4,6.55,1.77,7.35,5.15l2.29,9.6c0.41,1.73,2.11,2.85,3.86,2.55c0.9-0.15,1.69-0.65,2.21-1.41
	c0.52-0.76,0.72-1.66,0.54-2.57l-4.41-23.09c-1.39-7.26-4.87-13.88-10.08-19.13l-9.33-9.42c-1.03-1.04-1.6-2.44-1.59-3.9l0.12-19.84
	c0-0.56,0.1-1.1,0.26-1.61c-0.24-0.17-0.46-0.39-0.65-0.64c-12.03,0.18-24.06,0.72-36.09,1c0.06,0.33,0.1,0.68,0.09,1.03
	l-0.12,19.84c-0.01,1.46-0.6,2.85-1.64,3.88l-6.1,6.01c-7.07,6.96-10.99,16.26-11.05,26.18l-0.17,27.95l-0.12,20.31
	C105.48,124.03,106.9,125.47,108.67,125.48z"/>
<path class="st3" d="M111.51,122.62c0.85,0,1.66-0.33,2.26-0.94c0.5-0.5,0.81-1.15,0.9-1.84l0-14.24c0-1,0.27-1.93,0.73-2.74
	c0.97-1.69,2.84-2.75,4.79-2.75c3.03,0,5.49,2.46,5.49,5.49l0,13.82c0,0.3-0.01,0.59-0.03,0.89l0,8.18c0,1.76,1.44,3.2,3.2,3.19
	c1.62,0,2.96-1.21,3.16-2.78l-0.01-23.31c0-1,0.27-1.93,0.73-2.74c0.76-1.31,2.04-2.27,3.56-2.61c0.4-0.09,0.82-0.14,1.23-0.14
	c3.03,0,5.49,2.46,5.49,5.49l0.01,22.89c0,0.3-0.01,0.59-0.03,0.89l0,7.32c0,1.76,1.44,3.2,3.2,3.19c1.76,0,3.2-1.44,3.19-3.2
	l0-7.31c-0.02-0.29-0.03-0.59-0.03-0.89l-0.01-22.89c0-3.03,2.46-5.49,5.49-5.49c0.01,0,0.01,0,0.02,0s0.01,0,0.02,0
	c3.03,0,5.49,2.46,5.49,5.49l0.01,23.2c0.07,0.73,0.38,1.42,0.91,1.95c0.6,0.6,1.41,0.93,2.26,0.93c0.85,0,1.66-0.33,2.26-0.94
	c0.6-0.6,0.94-1.41,0.93-2.26l-0.02-44.64c0-3.48,2.5-6.3,5.95-6.72c3.45-0.42,6.56,1.73,7.39,5.11l2.35,9.58
	c0.42,1.73,2.13,2.84,3.88,2.53c0.9-0.16,1.69-0.66,2.21-1.42c0.52-0.76,0.71-1.67,0.53-2.57l-4.56-23.06
	c-1.43-7.26-4.96-13.85-10.2-19.07l-9.39-9.36c-1.03-1.03-1.61-2.43-1.61-3.89l-0.01-19.84c0-0.56,0.09-1.1,0.25-1.61
	c-0.24-0.17-0.47-8.27-0.66-8.52c-12.03,0.26-24.06,8.75-36.08,9.11c0.06,0.33,0.1,0.68,0.1,1.03l0.01,19.84
	c0,1.46-0.58,2.86-1.61,3.89l-6.07,6.05c-7.02,7.01-10.89,16.33-10.88,26.25l0.01,27.95l0.01,20.31
	C108.31,121.18,109.75,122.62,111.51,122.62z"/>
<path class="st2" d="M130.85,207.72c-0.43-0.74-1.12-1.27-1.94-1.49c-0.69-0.18-1.4-0.13-2.05,0.14l-12.33,7.12
	c-0.86,0.5-1.81,0.74-2.74,0.74c-1.95,0-3.8-1.09-4.77-2.77c-1.52-2.63-0.62-5.98,2.01-7.5l11.97-6.91
	c0.26-0.15,0.52-0.29,0.79-0.42l7.09-4.09c1.53-0.88,2.05-2.84,1.17-4.37c-0.81-1.4-2.53-1.96-3.99-1.35l-20.19,11.66
	c-0.86,0.5-1.81,0.74-2.74,0.74c-1.51,0-2.98-0.63-4.04-1.78c-0.28-0.3-0.53-0.64-0.74-0.99c-1.52-2.63-0.62-5.98,2.01-7.5
	l19.83-11.45c0.26-0.15,0.52-0.29,0.78-0.42l6.34-3.66c1.53-0.88,2.05-2.84,1.17-4.37c-0.88-1.53-2.84-2.05-4.37-1.17l-6.33,3.66
	c-0.25,0.16-0.5,0.32-0.75,0.47l-19.83,11.45c-2.63,1.52-5.98,0.62-7.5-2.01c0,0,0-0.01-0.01-0.01c0,0-0.01-0.01-0.01-0.01
	c-1.52-2.63-0.62-5.98,2.01-7.5l20.1-11.6c0.6-0.43,1.04-1.04,1.23-1.76c0.22-0.82,0.11-1.69-0.32-2.42
	c-0.43-0.74-1.12-1.27-1.94-1.49c-0.82-0.22-1.69-0.11-2.42,0.32l-38.66,22.32c-3.01,1.74-6.71,0.98-8.8-1.8
	c-2.09-2.78-1.78-6.54,0.73-8.95l7.12-6.83c1.28-1.23,1.39-3.26,0.25-4.62c-0.59-0.7-1.42-1.13-2.33-1.2
	c-0.92-0.07-1.8,0.22-2.49,0.83l-17.7,15.47c-5.57,4.87-9.52,11.22-11.42,18.36l-3.41,12.81c-0.38,1.41-1.3,2.61-2.56,3.34
	l-17.18,9.92c-0.49,0.28-1,0.47-1.52,0.59c-0.02,0.29-0.1,0.6-0.22,0.89c6.23,10.29,12.77,20.4,19.09,30.64
	c0.26-0.22,0.54-0.43,0.84-0.6l17.18-9.92c1.26-0.73,2.76-0.93,4.17-0.55l8.27,2.23c9.58,2.58,19.58,1.27,28.18-3.69l24.2-13.97
	l17.59-10.16C131.2,211.2,131.73,209.24,130.85,207.72z"/>
<path class="st3" d="M127.51,210.59c-0.43-0.74-1.12-1.27-1.94-1.49c-0.69-0.18-1.4-0.13-2.05,0.14l-12.32,7.14
	c-0.86,0.5-1.81,0.74-2.74,0.74c-1.95,0-3.8-1.08-4.78-2.76c-1.52-2.62-0.62-5.98,2-7.5l11.96-6.93c0.26-0.15,0.52-0.29,0.79-0.42
	l7.08-4.1c1.52-0.88,2.05-2.84,1.16-4.37c-0.81-1.4-2.53-1.95-3.99-1.35l-20.17,11.68c-0.86,0.5-1.81,0.74-2.74,0.74
	c-1.51,0-2.99-0.63-4.04-1.78c-0.28-0.3-0.53-0.63-0.74-0.99c-1.52-2.62-0.62-5.98,2-7.5l19.81-11.47c0.26-0.15,0.52-0.29,0.78-0.42
	l6.33-3.67c1.52-0.88,2.05-2.84,1.16-4.37c-0.88-1.53-2.84-2.05-4.37-1.16l-6.33,3.66c-0.25,0.16-0.5,0.32-0.75,0.47l-19.81,11.47
	c-2.62,1.52-5.98,0.62-7.5-2c0,0,0-0.01-0.01-0.01c0,0-0.01-0.01-0.01-0.01c-1.52-2.62-0.62-5.98,2-7.5l20.08-11.63
	c0.6-0.43,1.04-1.04,1.23-1.76c0.22-0.82,0.1-1.69-0.32-2.42c-0.43-0.74-1.12-1.27-1.94-1.49c-0.83-0.22-1.69-0.11-2.42,0.32
	l-38.63,22.38c-3.01,1.74-6.71,0.99-8.8-1.79c-2.09-2.78-1.79-6.54,0.72-8.95l7.11-6.84c1.28-1.23,1.39-3.26,0.24-4.62
	c-0.59-0.7-1.42-1.13-2.33-1.2c-0.92-0.07-1.8,0.22-2.49,0.83l-17.67,15.49c-5.56,4.87-9.5,11.23-11.4,18.38l-3.4,12.82
	c-0.37,1.41-1.29,2.61-2.55,3.34l-17.17,9.94c-0.48,0.28-1,0.47-1.51,0.59c-0.02,0.29-6.92,4.55-7.04,4.84
	c6.25,10.28,19.63,16.43,25.96,26.67c0.26-0.22,0.54-0.43,0.84-0.6l17.17-9.94c1.26-0.73,2.76-0.93,4.17-0.55l8.28,2.22
	c9.58,2.57,19.59,1.24,28.17-3.73l24.18-14.01l17.58-10.18C127.87,214.07,128.39,212.11,127.51,210.59z"/>
<path class="st2" d="M190.85,149.75c-0.42,0.74-0.53,1.6-0.3,2.43c0.19,0.69,0.6,1.27,1.16,1.69l12.39,7.01
	c0.87,0.49,1.55,1.18,2.02,1.99c0.99,1.68,0.99,3.82,0.03,5.52c-1.49,2.64-4.84,3.57-7.48,2.07l-12.03-6.8
	c-0.26-0.15-0.51-0.3-0.76-0.46l-7.12-4.03c-1.53-0.87-3.49-0.33-4.36,1.21c-0.8,1.41-0.4,3.17,0.86,4.12l20.29,11.48
	c0.87,0.49,1.55,1.18,2.02,1.99c0.77,1.3,0.97,2.89,0.51,4.38c-0.12,0.39-0.28,0.78-0.48,1.14c-1.49,2.64-4.84,3.57-7.48,2.07
	l-19.92-11.27c-0.26-0.15-0.51-0.3-0.76-0.46l-6.37-3.6c-1.53-0.87-3.49-0.33-4.35,1.21c-0.87,1.53-0.33,3.49,1.21,4.36l6.36,3.6
	c0.27,0.13,0.53,0.26,0.79,0.41l19.92,11.27c2.64,1.49,3.57,4.84,2.07,7.48c0,0-0.01,0.01-0.01,0.01c0,0,0,0.01-0.01,0.01
	c-1.49,2.64-4.84,3.57-7.48,2.07l-20.2-11.43c-0.67-0.3-1.42-0.37-2.14-0.17c-0.82,0.23-1.51,0.76-1.93,1.51
	c-0.42,0.74-0.53,1.61-0.3,2.43c0.23,0.82,0.76,1.51,1.51,1.93l38.85,21.98c3.03,1.71,4.25,5.28,2.92,8.49
	c-1.34,3.21-4.74,4.85-8.08,3.91l-9.5-2.67c-1.71-0.48-3.52,0.45-4.11,2.13c-0.31,0.87-0.25,1.79,0.15,2.62
	c0.4,0.83,1.1,1.44,1.98,1.73l22.31,7.4c7.02,2.33,14.5,2.51,21.62,0.52l12.77-3.56c1.4-0.39,2.91-0.21,4.18,0.51l17.27,9.77
	c0.49,0.28,0.91,0.62,1.28,1.01c0.27-0.13,0.57-0.22,0.88-0.26c5.7-10.6,11.1-21.36,16.71-32c-0.32-0.11-0.64-0.25-0.95-0.42
	l-17.27-9.77c-1.27-0.72-2.2-1.91-2.59-3.32l-2.28-8.26c-2.64-9.56-8.84-17.52-17.48-22.4l-24.32-13.76l-17.68-10
	C193.67,147.68,191.72,148.22,190.85,149.75z"/>
<g>
	<g>
		<path class="st0" d="M122.74,1.61C121.71,0.59,120.3,0,118.86,0c-1.44,0-2.86,0.59-3.88,1.61s-1.61,2.44-1.61,3.88
			s0.59,2.86,1.61,3.88c1.02,1.02,2.44,1.61,3.88,1.61c1.45,0,2.86-0.59,3.89-1.61c1.02-1.02,1.6-2.44,1.6-3.88
			S123.76,2.63,122.74,1.61z"/>
	</g>
</g>
<g>
	<g>
		<path class="st0" d="M197.25,91.29l-4.55-23.06c-1.85-9.4-6.42-17.95-13.21-24.72l-7.77-7.75V5.49c0-3.03-2.46-5.49-5.49-5.49
			c-3.03,0-5.49,2.46-5.49,5.49v32.54c0,1.46,0.58,2.86,1.61,3.89l9.39,9.36c5.24,5.22,8.76,11.82,10.19,19.07l4.55,23.06
			c0.18,0.9-0.01,1.81-0.53,2.57c-0.52,0.76-1.3,1.26-2.21,1.42c-1.75,0.31-3.45-0.8-3.88-2.53l-2.35-9.58
			c-0.83-3.38-3.93-5.53-7.39-5.11c-3.45,0.42-5.96,3.24-5.96,6.72v44.64c0,1.76-1.43,3.2-3.2,3.2c-1.62,0-2.96-1.21-3.16-2.78
			v-23.31c0-3.03-2.46-5.49-5.49-5.49c-0.01,0-0.01,0-0.02,0c0,0-0.01,0-0.02,0c-3.03,0-5.49,2.46-5.49,5.49v22.89
			c0,0.3,0.01,0.6,0.03,0.89v7.31c0,1.76-1.43,3.2-3.2,3.2s-3.2-1.43-3.2-3.2v-7.31c0.02-0.29,0.03-0.59,0.03-0.89v-22.89
			c0-3.03-2.46-5.49-5.49-5.49c0,0-0.01,0-0.02,0s-0.01,0-0.02,0c-3.03,0-5.49,2.46-5.49,5.49v23.31c-0.21,1.56-1.54,2.78-3.17,2.78
			c-1.76,0-3.2-1.43-3.2-3.2v-8.19c0.02-0.29,0.03-0.59,0.03-0.89v-13.82c0-3.03-2.46-5.49-5.49-5.49c0,0-0.01,0-0.02,0
			c0,0-0.01,0-0.02,0c-3.03,0-5.49,2.46-5.49,5.49v14.24c-0.21,1.56-1.54,2.78-3.17,2.78c-1.76,0-3.2-1.43-3.2-3.2v-19.23V90.22
			V74.21c0-9.92,3.87-19.24,10.89-26.24l6.07-6.05c1.03-1.03,1.61-2.43,1.61-3.89V25.06c0-3.03-2.46-5.49-5.49-5.49
			s-5.49,2.46-5.49,5.49v10.69l-4.45,4.44c-9.1,9.08-14.12,21.16-14.12,34.02v16.01v13.03v19.23c0,7.81,6.36,14.17,14.17,14.17
			c1.36,0,2.67-0.2,3.92-0.55c1.9,5.59,7.2,9.63,13.42,9.63c1.47,0,2.88-0.22,4.21-0.64c2.11,5.18,7.2,8.84,13.13,8.84
			s11.02-3.66,13.13-8.84c1.33,0.41,2.74,0.64,4.21,0.64c7.81,0,14.17-6.36,14.17-14.17v-25.57c2.99,2.01,6.72,2.9,10.5,2.23
			c3.83-0.68,7.15-2.82,9.35-6.03C197.2,98.97,198,95.1,197.25,91.29z"/>
	</g>
</g>
<g>
	<g>
		<path class="st0" d="M140.23,202.32c-0.67-1.16-1.49-2.21-2.44-3.12c3.89-4.44,4.73-11.05,1.62-16.43
			c-0.73-1.27-1.63-2.38-2.65-3.32c1.15-1.48,2-3.18,2.5-5.04c0.98-3.66,0.47-7.48-1.42-10.75c-2.97-5.13-8.68-7.7-14.22-6.94
			c-0.31-1.37-0.83-2.71-1.56-3.96c-1.89-3.28-4.95-5.62-8.61-6.6c-3.66-0.98-7.48-0.47-10.75,1.42l-22.14,12.79
			c0.24-3.59-0.85-7.27-3.32-10.21c-2.5-2.98-6.02-4.79-9.9-5.08c-3.88-0.3-7.63,0.95-10.56,3.51L39.1,164.06
			c-7.22,6.31-12.33,14.54-14.8,23.81l-2.82,10.61l-15.21,8.79c-2.62,1.52-3.52,4.87-2.01,7.5c1.02,1.76,2.86,2.74,4.76,2.74
			c0.93,0,1.87-0.24,2.74-0.74l17.18-9.93c1.26-0.73,2.18-1.93,2.56-3.34l3.41-12.81c1.9-7.15,5.85-13.5,11.41-18.37l17.69-15.47
			c0.69-0.6,1.57-0.9,2.49-0.83c0.91,0.07,1.74,0.5,2.33,1.2c1.14,1.36,1.03,3.39-0.25,4.62l-7.12,6.83
			c-2.51,2.41-2.82,6.17-0.73,8.95c2.09,2.78,5.79,3.54,8.8,1.79l38.65-22.34c0.74-0.43,1.6-0.54,2.42-0.32
			c0.82,0.22,1.51,0.75,1.94,1.49c0.43,0.74,0.54,1.6,0.32,2.42c-0.19,0.72-0.63,1.33-1.23,1.76l-20.09,11.61
			c-2.62,1.52-3.52,4.87-2.01,7.5c0,0,0.01,0.01,0.01,0.01c0,0,0,0.01,0.01,0.01c1.52,2.62,4.87,3.52,7.5,2.01l19.82-11.45
			c0.26-0.15,0.51-0.31,0.75-0.47l6.33-3.66c1.53-0.88,3.48-0.36,4.37,1.17c0.88,1.53,0.36,3.48-1.17,4.37l-6.33,3.66
			c-0.26,0.13-0.52,0.27-0.78,0.42l-19.82,11.45c-2.62,1.52-3.52,4.87-2.01,7.5c0.21,0.36,0.46,0.69,0.74,0.99
			c1.05,1.15,2.53,1.78,4.04,1.78c0.93,0,1.87-0.24,2.74-0.74l20.18-11.66c1.46-0.6,3.18-0.05,3.99,1.35
			c0.88,1.53,0.36,3.48-1.17,4.37l-7.09,4.1c-0.26,0.13-0.53,0.27-0.79,0.42l-11.96,6.91c-2.62,1.52-3.52,4.87-2.01,7.5
			c0.98,1.68,2.82,2.77,4.77,2.77c0.93,0,1.87-0.24,2.74-0.74l12.33-7.12c0.65-0.27,1.36-0.32,2.05-0.14
			c0.82,0.22,1.51,0.75,1.94,1.49c0.88,1.53,0.36,3.48-1.17,4.37l-17.59,10.16l-24.2,13.98c-8.59,4.96-18.59,6.28-28.17,3.7
			l-8.27-2.23c-1.41-0.38-2.91-0.18-4.17,0.55l-17.18,9.93c-2.62,1.52-3.52,4.87-2.01,7.5c1.02,1.76,2.86,2.74,4.76,2.74
			c0.93,0,1.87-0.24,2.74-0.74L50.68,249l6.07,1.63c12.42,3.34,25.38,1.64,36.52-4.8l13.86-8.01c0,0,0,0,0,0l10.34-5.98l0.94-0.54
			l16.65-9.62C141.82,217.78,144.14,209.09,140.23,202.32z"/>
	</g>
</g>
<path class="st3" d="M193.38,152.29c-0.43,0.74-0.55,1.6-0.34,2.42c0.18,0.69,0.57,1.28,1.13,1.71l12.27,7.23
	c0.86,0.51,1.53,1.21,1.99,2.02c0.96,1.7,0.92,3.84-0.06,5.52c-1.54,2.61-4.9,3.48-7.51,1.94l-11.9-7.02
	c-0.26-0.15-0.51-0.31-0.75-0.48l-7.05-4.16c-1.52-0.89-3.48-0.39-4.38,1.13c-0.82,1.4-0.46,3.17,0.79,4.14l20.08,11.84
	c0.86,0.51,1.53,1.21,1.99,2.02c0.74,1.32,0.92,2.91,0.44,4.39c-0.13,0.39-0.29,0.77-0.5,1.13c-1.54,2.61-4.9,3.48-7.52,1.94
	l-19.72-11.63c-0.26-0.15-0.5-0.31-0.75-0.48l-6.3-3.72c-1.52-0.89-3.48-0.39-4.38,1.13c-0.9,1.52-0.39,3.48,1.13,4.38l6.3,3.71
	c0.26,0.13,0.52,0.27,0.78,0.43l19.72,11.63c2.61,1.54,3.48,4.9,1.94,7.51c0,0-0.01,0.01-0.01,0.01c0,0,0,0.01-0.01,0.01
	c-1.54,2.61-4.9,3.48-7.52,1.94l-19.99-11.78c-0.67-0.31-1.41-0.4-2.14-0.21c-0.83,0.21-1.52,0.74-1.95,1.47
	c-0.43,0.74-0.55,1.6-0.34,2.42c0.21,0.83,0.74,1.52,1.47,1.95l38.46,22.67c3,1.76,4.16,5.36,2.76,8.54
	c-1.39,3.19-4.82,4.77-8.15,3.77L183.9,229c-1.7-0.51-3.52,0.39-4.15,2.06c-0.32,0.86-0.28,1.79,0.1,2.62
	c0.39,0.83,1.08,1.46,1.94,1.76l22.17,7.79c6.98,2.45,14.45,2.77,21.61,0.91l12.83-3.33c1.41-0.37,2.91-0.16,4.17,0.58l17.09,10.08
	c0.48,0.28,0.9,0.64,1.26,1.03c0.27-0.12,7.36,3.8,7.67,3.76c5.89-10.49,4.68-25.17,10.49-35.7c-0.32-0.11-0.63-0.26-0.94-0.44
	l-17.09-10.08c-1.26-0.74-2.17-1.95-2.53-3.36l-2.13-8.3c-2.47-9.61-8.53-17.67-17.08-22.71l-24.08-14.19l-17.5-10.32
	C196.24,150.27,194.28,150.77,193.38,152.29z"/>
<g>
	<g>
		<path class="st0" d="M281.79,207.24l-15.21-8.78l-1.62-6.08c-3.31-12.42-11.27-22.81-22.4-29.24l-24.2-13.97l-17.59-10.16
			c-3.28-1.89-7.1-2.4-10.75-1.42c-3.66,0.98-6.71,3.32-8.61,6.6c-0.68,1.17-1.16,2.41-1.48,3.66c-2.11-0.42-4.31-0.36-6.45,0.21
			c-3.66,0.98-6.71,3.32-8.61,6.6c-0.72,1.26-1.24,2.59-1.56,3.96c-5.54-0.76-11.25,1.82-14.22,6.95
			c-2.96,5.13-2.34,11.37,1.09,15.79c-1.03,0.96-1.93,2.07-2.66,3.33c-3.91,6.77-1.58,15.45,5.19,19.36l22.14,12.78
			c-3.23,1.58-5.87,4.37-7.18,7.97c-1.33,3.66-1.14,7.6,0.54,11.11c1.68,3.51,4.63,6.14,8.32,7.39l22.24,7.59
			c9.07,3.1,18.76,3.41,28.02,0.92l10.6-2.86l15.21,8.78c0.86,0.5,1.81,0.74,2.74,0.74c1.9,0,3.74-0.98,4.76-2.74
			c1.52-2.63,0.62-5.98-2.01-7.5l-17.18-9.92c-1.26-0.73-2.76-0.93-4.17-0.55l-12.8,3.45c-7.14,1.92-14.61,1.68-21.61-0.71
			l-22.24-7.59c-0.87-0.3-1.56-0.92-1.96-1.74c-0.4-0.83-0.44-1.76-0.13-2.62c0.61-1.67,2.42-2.59,4.13-2.09l9.47,2.76
			c3.34,0.97,6.75-0.64,8.12-3.84c1.36-3.2,0.17-6.78-2.84-8.52l-38.66-22.32c-1.53-0.88-2.05-2.84-1.17-4.37
			c0.43-0.74,1.12-1.27,1.94-1.49c0.69-0.18,1.4-0.13,2.05,0.14l20.19,11.66c0.86,0.5,1.81,0.74,2.74,0.74
			c1.51,0,2.98-0.63,4.03-1.78c0.28-0.3,0.53-0.64,0.74-0.99c1.52-2.63,0.62-5.98-2.01-7.5l-19.83-11.45
			c-0.26-0.15-0.52-0.29-0.79-0.42l-6.33-3.65c-1.53-0.88-2.05-2.84-1.17-4.37c0.43-0.74,1.12-1.27,1.94-1.49
			c0.82-0.22,1.69-0.11,2.42,0.32l6.33,3.66c0.25,0.16,0.5,0.32,0.76,0.47l19.83,11.45c0.86,0.5,1.81,0.74,2.74,0.74
			c1.51,0,2.98-0.63,4.04-1.78c0.28-0.3,0.53-0.64,0.74-0.99c1.52-2.63,0.62-5.98-2.01-7.5l-20.1-11.6
			c-0.6-0.43-1.04-1.04-1.23-1.76c-0.22-0.82-0.11-1.69,0.32-2.42s1.12-1.27,1.94-1.49c0.82-0.22,1.69-0.11,2.42,0.32l7.09,4.09
			c0.24,0.16,0.49,0.32,0.75,0.47l11.97,6.91c0.86,0.5,1.81,0.74,2.74,0.74c1.51,0,2.98-0.63,4.03-1.78
			c0.28-0.3,0.53-0.64,0.74-0.99c1.52-2.63,0.62-5.98-2.01-7.5l-12.33-7.12c-1.25-0.96-1.63-2.73-0.82-4.13
			c0.43-0.74,1.12-1.27,1.94-1.49c0.83-0.22,1.69-0.11,2.42,0.32l16.65,9.61l0.94,0.54l10.34,5.97c0,0,0,0,0,0l13.86,8
			c8.59,4.96,14.73,12.97,17.28,22.56l2.21,8.28c0.38,1.41,1.3,2.61,2.56,3.34l17.18,9.92c0.86,0.5,1.81,0.74,2.74,0.74
			c1.9,0,3.74-0.98,4.76-2.74C285.31,212.11,284.41,208.75,281.79,207.24z"/>
	</g>
</g>
</svg>
