<?xml version="1.0" encoding="utf-8"?>
<!-- Generator: Adobe Illustrator 22.1.0, SVG Export Plug-In . SVG Version: 6.00 Build 0)  -->
<svg version="1.1" id="Layer_1" xmlns="http://www.w3.org/2000/svg" xmlns:xlink="http://www.w3.org/1999/xlink" x="0px" y="0px"
	 viewBox="0 0 20 20" style="enable-background:new 0 0 20 20;" xml:space="preserve">
<style type="text/css">
	.st0{fill:#fff;}
</style>
<g>
	<path class="st0" d="M17.08,2.92c-3.89-3.89-10.27-3.89-14.16,0s-3.89,10.27,0,14.16s10.27,3.89,14.16,0S20.97,6.81,17.08,2.92z
		 M16.29,16.29c-3.46,3.46-9.12,3.46-12.59,0c-3.46-3.46-3.46-9.12,0-12.59c3.46-3.46,9.12-3.46,12.59,0
		C19.75,7.17,19.75,12.83,16.29,16.29z"/>
	<polygon class="st0" points="11,5 9,5 9,9 5,9 5,11 9,11 9,15 11,15 11,11 15,11 15,9 11,9 	"/>
</g>
</svg>
