<?xml version="1.0" encoding="utf-8"?>
<!-- Generator: Adobe Illustrator 22.1.0, SVG Export Plug-In . SVG Version: 6.00 Build 0)  -->
<svg version="1.1" id="Layer_1" xmlns="http://www.w3.org/2000/svg" xmlns:xlink="http://www.w3.org/1999/xlink" x="0px" y="0px"
	 viewBox="0 0 10.57 20" style="enable-background:new 0 0 10.57 20;" xml:space="preserve">
<style type="text/css">
	.st0{fill:#6859A3;}
</style>
<path class="st0" d="M1.37,10l9.04-9.03c0.22-0.22,0.22-0.58,0-0.8c-0.22-0.22-0.58-0.22-0.8,0L0.17,9.6c-0.22,0.22-0.22,0.58,0,0.8
	l9.44,9.43C9.71,19.94,9.86,20,10,20c0.14,0,0.29-0.05,0.4-0.17c0.22-0.22,0.22-0.58,0-0.8L1.37,10z"/>
</svg>
