<?xml version="1.0" encoding="utf-8"?>
<!-- Generator: Adobe Illustrator 23.0.1, SVG Export Plug-In . SVG Version: 6.00 Build 0)  -->
<svg version="1.1" id="logo-visa" xmlns="http://www.w3.org/2000/svg" xmlns:xlink="http://www.w3.org/1999/xlink" x="0px" y="0px"
	 viewBox="0 0 24 24" style="enable-background:new 0 0 24 24;" xml:space="preserve">
<style type="text/css">
	.st0{fill:#FFFFFF;}
	.st1{fill:#FAA61A;}
</style>
<title>logo-visa</title>
<g id="logo">
	<polygon id="letter" class="st0" points="10.5,14.9 8.8,14.9 9.9,7.1 11.6,7.1 	"/>
	<path id="letter-2" class="st0" d="M17,7.3C16.5,7.1,16,7,15.4,7c-1.8,0-3,1.1-3,2.6c0.1,1,0.7,1.8,1.6,2.1c0.7,0.4,0.9,0.6,0.9,1
		c0,0.5-0.6,0.8-1.1,0.8c-0.6,0-1.2-0.1-1.7-0.4l-0.2-0.1l-0.3,1.7c0.6,0.3,1.3,0.4,2,0.4c1.9,0,3.1-1,3.1-2.6
		c0-0.9-0.6-1.8-1.5-2.1c-0.6-0.4-1-0.6-1-1s0.3-0.7,1-0.7c0.5,0,0.9,0.1,1.3,0.3L16.7,9L17,7.3z"/>
	<path id="letter-3" class="st0" d="M19.4,12.1c0.1-0.4,0.7-2.2,0.7-2.2s0.1-0.4,0.2-0.7l0.1,0.7l0.4,2.2H19.4z M21.6,7.1h-1.4
		c-0.4,0-0.8,0.2-0.9,0.6l-2.6,7.1h1.9l0.4-1.2h2.3l0.2,1.2H23C23,14.9,21.6,7.1,21.6,7.1z"/>
	<path id="letter-4" class="st0" d="M7.3,7.1l-1.7,5.3l-0.2-1.1C4.9,10,4,8.9,2.9,8.1l1.6,6.8h1.9l2.8-7.7L7.3,7.1z"/>
	<path id="accent" class="st1" d="M3.9,7.1H1v0.2c2,0.5,3.7,2.1,4.3,4.1L4.7,7.8C4.6,7.4,4.3,7.1,3.9,7.1z"/>
</g>
</svg>
