<?xml version="1.0" encoding="UTF-8"?>
<svg width="570px" height="205px" viewBox="0 0 570 205" version="1.1" xmlns="http://www.w3.org/2000/svg" xmlns:xlink="http://www.w3.org/1999/xlink">
    <!-- Generator: Sketch 58 (84663) - https://sketch.com -->
    <title>Elements / Uploader / Illustration / Default / Desktop</title>
    <desc>Created with Sketch.</desc>
    <g id="Elements-/-Uploader-/-Illustration-/-Default-/-Desktop" stroke="none" stroke-width="1" fill="none" fill-rule="evenodd">
        <g>
            <g id="Keylines/Primary" transform="translate(0.000000, 181.000000)" fill="#6859A3">
                <polygon id="Rectangle" points="0 0 570 0 570 2 0 2"></polygon>
            </g>
            <g id="Laptop" transform="translate(135.000000, 0.000000)">
                <path d="M247.513793,204.644828 L51.5655172,204.644828 C39.3172414,204.644828 30.137931,202.496552 27.6034483,199.87931 L271.393103,199.87931 L271.393103,198.168966 L255.696552,198.168966 C256.27931,197.855172 256.827586,197.489655 257.344828,197.07931 L259.227586,197.07931 L259.227586,196.437931 L270.844828,196.437931 C276.210345,200.375862 264.662069,204.644828 247.513793,204.644828 M40.5206897,198.168966 L26.9206897,198.168966 C27.0103448,197.593103 27.4310345,197.010345 28.2137931,196.437931 L34.3896552,196.437931 L34.3896552,197.07931 L38.8724138,197.07931 C39.3896552,197.489655 39.937931,197.855172 40.5206897,198.168966 M267.72069,194.727586 L259.568966,194.727586 C260.275862,193.734483 260.827586,192.613793 261.189655,191.403448 L267.72069,194.727586 M36.6482759,194.727586 L31.7517241,194.727586 L35.7344828,193.203448 C36,193.737931 36.3068966,194.248276 36.6482759,194.727586" id="Fill-205" fill="#E6E3EF"></path>
                <polyline id="Fill-206" fill="#E4E4DF" points="13.6689655 195.582759 284.617241 195.582759 13.6689655 195.582759"></polyline>
                <polygon id="Fill-207" fill="#6859A3" points="13.6689655 196.437931 284.617241 196.437931 284.617241 194.727586 13.6689655 194.727586"></polygon>
                <path d="M9.47931034,195.262069 L0.382758621,195.262069" id="Fill-208" fill="#E4E4DF"></path>
                <polygon id="Fill-209" fill="#6859A3" points="0.382758621 196.117241 9.47931034 196.117241 9.47931034 194.406897 0.382758621 194.406897"></polygon>
                <path d="M287.765517,195.262069 L297.455172,195.262069" id="Fill-210" fill="#E4E4DF"></path>
                <polygon id="Fill-211" fill="#6859A3" points="287.765517 196.117241 297.455172 196.117241 297.455172 194.406897 287.765517 194.406897"></polygon>
                <polyline id="Fill-212" fill="#E4E4DF" points="34.3896552 196.224138 259.227586 196.224138 34.3896552 196.224138"></polyline>
                <polygon id="Fill-213" fill="#6859A3" points="34.3896552 197.07931 259.227586 197.07931 259.227586 195.368966 34.3896552 195.368966"></polygon>
                <polyline id="Fill-214" fill="#E4E4DF" points="26.7862069 199.024138 271.393103 199.024138 26.7862069 199.024138"></polyline>
                <polygon id="Fill-215" fill="#6859A3" points="26.7862069 199.87931 271.393103 199.87931 271.393103 198.168966 26.7862069 198.168966"></polygon>
                <path d="M23.6034483,198.77931 L16.7,198.77931" id="Fill-216" fill="#E4E4DF"></path>
                <polygon id="Fill-217" fill="#6859A3" points="16.7 199.634483 23.6034483 199.634483 23.6034483 197.924138 16.7 197.924138"></polygon>
                <path d="M62.0482759,194.827586 L235.634483,194.827586 C238.941379,194.827586 241.62069,192.148276 241.62069,188.841379 L241.62069,87.6896552 C241.62069,82.0482759 237.048276,77.4758621 231.403448,77.4758621 L66.2793103,77.4758621 C60.6344828,77.4758621 56.062069,82.0482759 56.062069,87.6896552 L56.062069,188.841379 C56.062069,192.148276 58.7413793,194.827586 62.0482759,194.827586" id="Fill-218" fill="#FFFFFE"></path>
                <g id="Document" transform="translate(110.000000, 0.000000)">
                    <path d="M2.20459016,0.988852459 C1.30885246,0.988852459 0.583606557,1.71540984 0.583606557,2.61114754 L0.583606557,100.563934 C0.583606557,101.460984 1.30885246,102.18623 2.20459016,102.18623 L54.557377,102.18623 C54.987541,102.18623 55.3993443,102.017049 55.7036066,101.710164 L78.6006557,78.8144262 C78.904918,78.5101639 79.0754098,78.0970492 79.0754098,77.6681967 L79.0754098,2.61114754 C79.0754098,1.71540984 78.3488525,0.988852459 77.4531148,0.988852459 L2.20459016,0.988852459 L2.20459016,0.988852459 Z" id="Path" fill="#FFFFFF"></path>
                    <path d="M3.82688525,4.23213115 L75.8321311,4.23213115 L75.8321311,24.0170492 L3.82688525,24.0170492 L3.82688525,4.23213115 Z M75.8321311,76.695082 L54.557377,76.695082 C54.0196721,76.695082 53.5829508,77.1318033 53.5829508,77.6681967 L53.5829508,98.9429508 L3.82688525,98.9429508 L3.82688525,25.9632787 L75.8321311,25.9632787 L75.8321311,76.695082 Z M55.5291803,97.2970492 L55.5291803,78.6413115 L74.184918,78.6413115 L55.5291803,97.2970492 Z M2.20459016,0.988852459 C1.30885246,0.988852459 0.583606557,1.71540984 0.583606557,2.61114754 L0.583606557,100.563934 C0.583606557,101.460984 1.30885246,102.18623 2.20459016,102.18623 L54.557377,102.18623 C54.987541,102.18623 55.3993443,102.017049 55.7036066,101.710164 L78.6006557,78.8144262 C78.904918,78.5101639 79.0754098,78.0970492 79.0754098,77.6681967 L79.0754098,2.61114754 C79.0754098,1.71540984 78.3488525,0.988852459 77.4531148,0.988852459 L2.20459016,0.988852459 L2.20459016,0.988852459 Z" id="Fill-19" fill="#6859A3"></path>
                    <path d="M16.6386885,41.5318033 L63.0203279,41.5318033 C63.5567213,41.5318033 63.9921311,41.0977049 63.9921311,40.56 C63.9921311,40.0222951 63.5567213,39.5868852 63.0203279,39.5868852 L16.6386885,39.5868852 C16.1009836,39.5868852 15.6655738,40.0222951 15.6655738,40.56 C15.6655738,41.0977049 16.1009836,41.5318033 16.6386885,41.5318033" id="Fill-20" fill="#6859A3"></path>
                    <path d="M16.6386885,53.2091803 L63.0203279,53.2091803 C63.5567213,53.2091803 63.9921311,52.775082 63.9921311,52.2360656 C63.9921311,51.6983607 63.5567213,51.2629508 63.0203279,51.2629508 L16.6386885,51.2629508 C16.1009836,51.2629508 15.6655738,51.6983607 15.6655738,52.2360656 C15.6655738,52.775082 16.1009836,53.2091803 16.6386885,53.2091803" id="Fill-21" fill="#6859A3"></path>
                    <path d="M16.6386885,64.8865574 L39.6668852,64.8865574 C40.2032787,64.8865574 40.64,64.452459 40.64,63.9121311 C40.64,63.3757377 40.2032787,62.9403279 39.6668852,62.9403279 L16.6386885,62.9403279 C16.1009836,62.9403279 15.6655738,63.3757377 15.6655738,63.9121311 C15.6655738,64.452459 16.1009836,64.8865574 16.6386885,64.8865574" id="Fill-22" fill="#6859A3"></path>
                </g>
                <path d="M231.403448,77.4758621 C237.048276,77.4758621 241.62069,82.0482759 241.62069,87.6896552 L241.62069,87.6896552 L241.62069,188.841379 C241.62069,192.148276 238.941379,194.827586 235.634483,194.827586 L235.634483,194.827586 L62.0482759,194.827586 C58.7413793,194.827586 56.062069,192.148276 56.062069,188.841379 L56.062069,188.841379 L56.062069,87.6896552 C56.062069,82.0482759 60.6344828,77.4758621 66.2793103,77.4758621 L66.2793103,77.4758621 Z M230.334483,84.6862069 L67.5034483,84.6862069 C64.9862069,84.6862069 62.9448276,86.7275862 62.9448276,89.2448276 L62.9448276,89.2448276 L62.9448276,184.17931 L234.893103,184.17931 L234.893103,89.2448276 C234.893103,86.7275862 232.851724,84.6862069 230.334483,84.6862069 L230.334483,84.6862069 Z" id="Combined-Shape" fill="#FFFFFE"></path>
                <path d="M62.0482759,194.827586 L62.0482759,196.272414 L235.634483,196.272414 C239.737931,196.272414 243.062069,192.944828 243.065517,188.841379 L243.065517,87.6896552 C243.062069,81.2517241 237.844828,76.0310345 231.403448,76.0310345 L66.2793103,76.0310345 C59.837931,76.0310345 54.6206897,81.2517241 54.6172414,87.6896552 L54.6172414,188.841379 C54.6206897,192.944828 57.9448276,196.272414 62.0482759,196.272414 L62.0482759,193.386207 C59.5413793,193.37931 57.5103448,191.348276 57.5034483,188.841379 L57.5034483,87.6896552 C57.5137931,82.8448276 61.4344828,78.9275862 66.2793103,78.9172414 L231.403448,78.9172414 C236.248276,78.9275862 240.168966,82.8448276 240.17931,87.6896552 L240.17931,188.841379 C240.172414,191.348276 238.141379,193.37931 235.634483,193.386207 L62.0482759,193.386207 L62.0482759,194.827586" id="Fill-219" fill="#6859A3"></path>
                <path d="M250.231034,198.417241 L45.9862069,198.417241 C41.1,198.417241 36.8862069,194.97931 35.9,190.193103 L35.6655172,189.055172 L260.551724,189.055172 L260.317241,190.193103 C259.331034,194.97931 255.117241,198.417241 250.231034,198.417241" id="Fill-220" fill="#FFFFFE"></path>
                <path d="M250.231034,198.417241 L250.231034,197.272414 L45.9862069,197.272414 C41.6413793,197.272414 37.8965517,194.217241 37.0206897,189.962069 L36.7862069,188.824138 L35.6655172,189.055172 L35.6655172,190.2 L260.551724,190.2 L260.551724,189.055172 L259.431034,188.824138 L259.196552,189.962069 C258.32069,194.217241 254.575862,197.272414 250.231034,197.272414 L250.231034,199.562069 C255.662069,199.562069 260.344828,195.744828 261.437931,190.424138 L261.672414,189.286207 L261.951724,187.910345 L34.262069,187.910345 L34.7793103,190.424138 C35.8758621,195.744828 40.5551724,199.562069 45.9862069,199.562069 L250.231034,199.562069 L250.231034,198.417241" id="Fill-221" fill="#6859A3"></path>
                <path d="M250.231034,198.417241 L250.231034,197.272414 L45.9862069,197.272414 C41.7241379,197.272414 38.0344828,194.331034 37.0724138,190.2 L37.1206897,190.2 C38.9206897,193.296552 42.2413793,195.331034 45.9862069,195.331034 L250.231034,195.331034 C253.975862,195.331034 257.296552,193.296552 259.096552,190.2 L259.144828,190.2 C258.182759,194.331034 254.493103,197.272414 250.231034,197.272414 L250.231034,198.417241" id="Fill-222" fill="#EFEEF4"></path>
                <path d="M250.231034,199.068966 L45.9862069,199.068966 C41.1,199.068966 36.8862069,195.631034 35.9,190.844828 L35.6655172,189.706897 L36.8517241,189.706897 C36.937931,189.872414 37.0275862,190.037931 37.1206897,190.2 L37.0724138,190.2 C38.0344828,194.331034 41.7241379,197.272414 45.9862069,197.272414 L250.231034,197.272414 L250.231034,199.068966 M250.231034,199.068966 L250.231034,197.272414 C254.493103,197.272414 258.182759,194.331034 259.144828,190.2 L259.096552,190.2 C259.189655,190.037931 259.282759,189.872414 259.365517,189.706897 L260.551724,189.706897 L260.317241,190.844828 C259.331034,195.631034 255.117241,199.068966 250.231034,199.068966" id="Fill-223" fill="#6859A3"></path>
                <path d="M47.3034483,192.765517 L245.782759,192.765517" id="Fill-224" fill="#CACBC6"></path>
                <polyline id="Fill-225" fill="#6859A3" points="47.3034483 193.244828 245.782759 193.244828 246.265517 192.765517 245.782759 192.282759 47.3034483 192.282759 46.8206897 192.765517 47.3034483 193.244828"></polyline>
                <path d="M170.641379,190.424138 L170.641379,190.424138 C170.641379,193 168.534483,195.103448 165.962069,195.103448 L131.875862,195.103448 C129.303448,195.103448 127.196552,193 127.196552,190.424138" id="Fill-226" fill="#E0DCED"></path>
                <path d="M169.92069,190.424138 C169.917241,192.596552 168.134483,194.37931 165.962069,194.382759 L131.875862,194.382759 C129.703448,194.37931 127.92069,192.596552 127.917241,190.424138 C127.917241,190.024138 127.596552,189.703448 127.196552,189.703448 C126.796552,189.703448 126.475862,190.024138 126.475862,190.424138 C126.475862,193.4 128.9,195.824138 131.875862,195.827586 L165.962069,195.827586 C168.937931,195.824138 171.362069,193.4 171.362069,190.424138 C171.362069,190.024138 171.041379,189.703448 170.641379,189.703448 C170.241379,189.703448 169.92069,190.024138 169.92069,190.424138" id="Fill-227" fill="#6859A3"></path>
                <path d="M62.9448276,184.17931 L62.9448276,89.2448276 C62.9448276,86.7275862 64.9862069,84.6862069 67.5034483,84.6862069 L230.334483,84.6862069 C232.851724,84.6862069 234.893103,86.7275862 234.893103,89.2448276 L234.893103,184.17931 L62.9448276,184.17931" id="Fill-228" fill="#6859A3" opacity="0.300000012"></path>
                <path d="M62.9448276,184.17931 L63.4241379,184.17931 L63.4241379,89.2448276 C63.4275862,86.9931034 65.2517241,85.1689655 67.5034483,85.1655172 L230.334483,85.1655172 C232.586207,85.1689655 234.410345,86.9931034 234.413793,89.2448276 L234.413793,183.696552 L62.9448276,183.696552 L62.9448276,184.17931 L63.4241379,184.17931 L62.9448276,184.17931 L62.9448276,184.662069 L234.893103,184.662069 L235.375862,184.17931 L235.375862,89.2448276 C235.375862,86.462069 233.117241,84.2034483 230.334483,84.2034483 L67.5034483,84.2034483 C64.7206897,84.2034483 62.462069,86.462069 62.462069,89.2448276 L62.462069,184.17931 L62.9448276,184.662069 L62.9448276,184.17931" id="Fill-229" fill="#6859A3"></path>
            </g>
        </g>
    </g>
</svg>