<?xml version="1.0" encoding="UTF-8"?>
<svg width="30px" height="22px" viewBox="0 0 30 22" version="1.1" xmlns="http://www.w3.org/2000/svg" xmlns:xlink="http://www.w3.org/1999/xlink">
    <!-- Generator: Sketch 62 (91390) - https://sketch.com -->
    <title>Default</title>
    <desc>Created with Sketch.</desc>
    <g id="Symbols" stroke="none" stroke-width="1" fill="none" fill-rule="evenodd">
        <g id="1-Elements/4-Icons/8-Muli-use/6-Feedback/1-Tick/2-Tick/Default" transform="translate(-10.000000, -14.000000)" fill="#FFFFFF">
            <path d="M18.8435357,36 C18.6452485,36 18.4551008,35.9208669 18.3149778,35.7800765 L10.2262289,27.6553057 C10.0330484,27.4667566 9.95602217,27.1884193 10.024654,26.9269069 C10.0932858,26.6653945 10.2969387,26.4612378 10.5576064,26.3926361 C10.8182741,26.3240343 11.0955567,26.4016199 11.2832451,26.5956747 L18.8435357,34.1894304 L38.7167549,14.2275817 C38.9044433,14.0335269 39.1817259,13.9559413 39.4423936,14.024543 C39.7030613,14.0931447 39.9067142,14.2973014 39.975346,14.5588139 C40.0439778,14.8203263 39.9669516,15.0986636 39.7737711,15.2872127 L19.3725917,35.7800765 C19.2323468,35.9209895 19.0419955,36 18.8435357,36 Z" id="Default"></path>
        </g>
    </g>
</svg>