<svg xmlns="http://www.w3.org/2000/svg" viewBox="0 0 14.9 23.24">
  <defs>
    <style>.cls-1{fill:none;stroke:#071d49;stroke-width:2px;}</style>
  </defs>
  <title>Asset 182</title>
  <g id="Layer_2" data-name="Layer 2">
    <g id="Layer_1-2" data-name="Layer 1">
      <polygon class="cls-1" points="13.9 1.24 1 4.06 1 22.24 13.9 22.24 13.9 1.24"/>
      <line class="cls-1" x1="11.41" y1="7.43" x2="8.49" y2="7.43"/>
      <line class="cls-1" x1="11.41" y1="11.51" x2="8.49" y2="11.51"/>
      <line class="cls-1" x1="11.41" y1="15.6" x2="8.49" y2="15.6"/>
      <line class="cls-1" x1="6.41" y1="7.43" x2="3.49" y2="7.43"/>
      <line class="cls-1" x1="6.41" y1="11.51" x2="3.49" y2="11.51"/>
      <line class="cls-1" x1="6.41" y1="15.6" x2="3.49" y2="15.6"/>
      <rect class="cls-1" x="6.95" y="19.58" width="0.98" height="2.56"/>
    </g>
  </g>
</svg>