<svg xmlns="http://www.w3.org/2000/svg" viewBox="0 0 20.29 20.29">
  <defs>
    <style>.cls-1{fill:none;stroke:#071d49;stroke-width:2px;}</style>
  </defs>
  <title>Asset 183</title>
  <g id="Layer_2" data-name="Layer 2">
    <g id="Layer_1-2" data-name="Layer 1">
      <polygon class="cls-1" points="19.29 7.53 12.76 7.53 12.76 1 7.53 1 7.53 7.53 1 7.53 1 12.76 7.53 12.76 7.53 19.29 12.76 19.29 12.76 12.76 19.29 12.76 19.29 7.53"/>
    </g>
  </g>
</svg>