<?xml version="1.0" encoding="UTF-8"?>
<svg width="40px" height="40px" viewBox="0 0 40 40" version="1.1" xmlns="http://www.w3.org/2000/svg" xmlns:xlink="http://www.w3.org/1999/xlink">
    <title>1 Elements/4 Icons/8 Muli-use/6 Feedback/2 Cross/2 Circle/Default Copy</title>
    <g id="Config" stroke="none" stroke-width="1" fill="none" fill-rule="evenodd">
        <g id="Icons" transform="translate(-521.000000, -2410.000000)" fill="#FFFFFF">
            <g transform="translate(80.000000, 391.000000)" id="Feedback">
                <g transform="translate(0.000000, 1846.000000)">
                    <g id="1-Elements/4-Icons/8-Muli-use/6-Feedback/2-Cross/2-Circle/Default" transform="translate(436.000000, 168.000000)">
                        <path d="M24.9983532,45 C16.9100548,44.9995815 9.61833905,40.1269678 6.52299296,32.6540316 C3.42764688,25.1810953 5.13817284,16.579327 10.8570323,10.8593301 C17.2572006,4.45788893 27.1589045,3.15369625 34.9982181,7.67959882 C42.8375317,12.2055014 46.6595831,21.4328852 44.3167004,30.1767354 C41.9738177,38.9205857 34.0502403,45.0004684 24.9983532,45 L24.9983532,45 Z M24.9983532,6.49875745 C16.1733212,6.50015379 8.57809367,12.7353556 6.85736972,21.3914234 C5.13664577,30.0474911 9.76963857,38.7137525 17.9231403,42.0905405 C26.076642,45.4673285 35.4799426,42.6142242 40.3826544,35.2759826 C45.2853662,27.9377411 44.322108,18.1580264 38.0819399,11.9174143 C34.6190126,8.4368478 29.9080246,6.48578332 24.9983532,6.49875745 Z M32.0100178,30.9560471 L26.0501029,24.9958454 L31.998847,19.0466155 C32.1947433,18.8590588 32.2737877,18.5801602 32.2054327,18.3177032 C32.1370777,18.0552462 31.9320308,17.8503441 31.669535,17.7821839 C31.4070391,17.7140236 31.1282136,17.7932822 30.9408138,17.9893293 L24.9925683,23.937861 L19.0558925,18.0006004 C18.8669287,17.8115918 18.591489,17.7377566 18.3333287,17.8069076 C18.0751685,17.8760587 17.8735085,18.0776904 17.8043121,18.33585 C17.7351157,18.5940096 17.8088954,18.8694765 17.9978593,19.058485 L23.9346347,24.9955462 L17.9866885,30.9441776 C17.707414,31.2382481 17.7133166,31.7013076 17.9999961,31.9881632 C18.2866756,32.2750188 18.7497095,32.2811838 19.0439238,32.0020623 L24.9921693,26.0535306 L30.9527825,32.0133334 C31.1392654,32.2134728 31.420116,32.2958574 31.6851563,32.2281675 C31.9501965,32.1604776 32.157155,31.9535092 32.2248416,31.6884561 C32.2925283,31.4234031 32.2101477,31.142539 32.0100178,30.9560471 Z" id="Default"></path>
                    </g>
                </g>
            </g>
        </g>
    </g>
</svg>