<svg xmlns="http://www.w3.org/2000/svg" viewBox="0 0 23.37 20.83">
  <defs>
    <style>.cls-1{fill:none;stroke:#071d49;stroke-width:2px;}.cls-2{fill:#071d49;}</style>
  </defs>
  <title>Asset 189</title>
  <g id="Layer_2" data-name="Layer 2">
    <g id="Layer_1-2" data-name="Layer 1">
      <path class="cls-1" d="M2.72,7.49H20.66A1.72,1.72,0,0,1,22.37,9.2V16a0,0,0,0,1,0,0H1a0,0,0,0,1,0,0V9.2A1.72,1.72,0,0,1,2.72,7.49Z"/>
      <path class="cls-1" d="M2.44,16H5.55a0,0,0,0,1,0,0v3.3a.51.51,0,0,1-.51.51H2.95a.51.51,0,0,1-.51-.51V16A0,0,0,0,1,2.44,16Z"/>
      <path class="cls-1" d="M17.82,16h3.11a0,0,0,0,1,0,0v3.3a.51.51,0,0,1-.51.51h-2.1a.51.51,0,0,1-.51-.51V16A0,0,0,0,1,17.82,16Z"/>
      <path class="cls-1" d="M16.06,1H7.43A2.58,2.58,0,0,0,5.06,2.56L3,7.49H20.53L18.42,2.56A2.55,2.55,0,0,0,16.06,1Z"/>
      <circle class="cls-2" cx="3.95" cy="11.26" r="1.14"/>
      <circle class="cls-2" cx="19.43" cy="11.26" r="1.14"/>
    </g>
  </g>
</svg>