<?xml version="1.0" encoding="utf-8"?>
<svg version="1.1" id="Layer_1" xmlns="http://www.w3.org/2000/svg" xmlns:xlink="http://www.w3.org/1999/xlink" x="0px" y="0px"
	 viewBox="0 0 20 20" style="enable-background:new 0 0 20 20;" xml:space="preserve">
<path fill="#0040bb" d="M6,9.8l-1,1l3.1,3.1L15.1,7l-1-1l-6,6L6,9.8z M10,19c5,0,9-4,9-9s-4-9-9-9s-9,4-9,9S5,19,10,19z M10,20
	C4.5,20,0,15.5,0,10S4.5,0,10,0s10,4.5,10,10S15.5,20,10,20z"/>
</svg>