<?xml version="1.0" encoding="utf-8"?>
<!-- Generator: Adobe Illustrator 22.1.0, SVG Export Plug-In . SVG Version: 6.00 Build 0)  -->
<svg version="1.1" id="Layer_1" xmlns="http://www.w3.org/2000/svg" xmlns:xlink="http://www.w3.org/1999/xlink" x="0px" y="0px"
	 viewBox="0 0 18 17.182" style="enable-background:new 0 0 18 17.182;" xml:space="preserve">
<style type="text/css">
	.st0{fill:#000;}
</style>
<path class="st0" d="M14.6425,10.2228v5.3741c0,0.3593-0.1777,0.5778-0.2592,0.5778h-2.673c-0.1,0-0.1814-0.0815-0.1814-0.1815
	V11.508c0-0.6519-0.5294-1.1815-1.181-1.1815H7.649c-0.6516,0-1.181,0.5296-1.181,1.1815v4.4926c0,0.1-0.0814,0.1815-0.1814,0.1815
	h-2.673c-0.1407,0-0.2592-0.1148-0.2592-0.2593V6.1894l5.6199-5.0222l5.6681,5.0704V10.2228z M17.8338,7.7524L9.3632,0.1746
	C9.3484,0.1598,9.3335,0.1487,9.315,0.1376C9.1299-0.0402,8.8337-0.0476,8.6375,0.1265L0.1669,7.7043
	c-0.2073,0.1852-0.2221,0.5-0.0407,0.7074c0.1,0.1111,0.2369,0.1667,0.3739,0.1667c0.1185,0,0.2369-0.0407,0.3332-0.1259
	l1.5253-1.3667v8.837c0,0.6926,0.5627,1.2593,1.2587,1.2593h2.673c0.6516,0,1.181-0.5296,1.181-1.1815V11.508
	c0-0.1,0.0814-0.1815,0.1814-0.1815h2.6989c0.1,0,0.1814,0.0815,0.1814,0.1815v4.4926c0,0.6519,0.5294,1.1815,1.181,1.1815h2.673
	c0.7034,0,1.2587-0.6926,1.2587-1.5778V7.1339l1.5253,1.3667c0.0963,0.0852,0.2147,0.1259,0.3332,0.1259
	c0.137,0,0.274-0.0556,0.3739-0.1667C18.0559,8.2524,18.0374,7.9376,17.8338,7.7524z"/>
</svg>
