<svg xmlns="http://www.w3.org/2000/svg" viewBox="0 0 15.12 22.97">
  <defs>
    <style>.cls-1,.cls-2{fill:none;stroke:#071d49;}.cls-1{stroke-width:2px;}.cls-2{stroke-width:1.75px;}</style>
  </defs>
  <title>Asset 172</title>
  <g id="Layer_2" data-name="Layer 2">
    <g id="Layer_1-2" data-name="Layer 1">
      <path class="cls-1" d="M14.12,20.89A18.49,18.49,0,0,1,7.51,22,17.57,17.57,0,0,1,1,20.89V9.12A22.64,22.64,0,0,1,7.56,8a22.64,22.64,0,0,1,6.56,1.08Z"/>
      <path class="cls-1" d="M3.05,8.39V5A4.11,4.11,0,0,1,7.41,1c2.18,0,4.45,1.88,4.45,4V8.39"/>
      <path class="cls-2" d="M9.64,13.33A2.08,2.08,0,1,0,6.31,15l-.62,3.52h3.7L8.7,15.07A2.09,2.09,0,0,0,9.64,13.33Z"/>
    </g>
  </g>
</svg>