<?xml version="1.0" encoding="utf-8"?>
<svg version="1.1" id="Layer_1" xmlns="http://www.w3.org/2000/svg" xmlns:xlink="http://www.w3.org/1999/xlink" x="0px" y="0px"
	 viewBox="0 0 14.99 15" style="enable-background:new 0 0 14.99 15;" xml:space="preserve">
<path class="st0" fill="#fff" d="M14.98,6.62c-0.28-1.65-1.06-3.16-2.26-4.35s-2.7-1.98-4.36-2.26C8.14-0.03,7.92,0.12,7.88,0.35
	C7.84,0.59,7.99,0.81,8.23,0.85C9.7,1.1,11.05,1.8,12.12,2.87c1.07,1.07,1.77,2.42,2.02,3.89c0.03,0.21,0.22,0.35,0.42,0.35
	c0.03,0,0.05,0,0.07-0.01C14.87,7.07,15.02,6.85,14.98,6.62z M8.1,3.57C8.93,3.71,9.69,4.1,10.29,4.7c0.6,0.6,0.99,1.35,1.13,2.18
	c0.03,0.21,0.22,0.35,0.42,0.35c0.03,0,0.05,0,0.07-0.01c0.23-0.04,0.39-0.26,0.35-0.49c-0.17-1-0.65-1.92-1.37-2.64
	c-0.73-0.72-1.64-1.2-2.65-1.37C8.02,2.69,7.8,2.84,7.76,3.07S7.87,3.53,8.1,3.57z M12.99,12.63
	C12.98,12.63,12.98,12.63,12.99,12.63c-0.12,0.13-0.25,0.25-0.39,0.39c-0.21,0.2-0.42,0.4-0.61,0.63c-0.32,0.34-0.7,0.5-1.19,0.5
	c-0.05,0-0.1,0-0.15,0c-0.94-0.06-1.82-0.43-2.47-0.74c-1.79-0.87-3.37-2.1-4.68-3.66c-1.08-1.3-1.8-2.5-2.28-3.8
	c-0.29-0.79-0.4-1.4-0.35-1.98C0.9,3.6,1.04,3.29,1.31,3.03l1.08-1.08C2.54,1.8,2.71,1.72,2.87,1.72c0.2,0,0.36,0.12,0.46,0.22
	l0.01,0.01c0.19,0.18,0.38,0.37,0.57,0.57c0.1,0.1,0.2,0.2,0.3,0.31l0.86,0.86c0.34,0.34,0.34,0.65,0,0.98
	C4.98,4.76,4.9,4.86,4.8,4.95c-0.27,0.27-0.52,0.53-0.8,0.77C4,5.72,4,5.73,3.99,5.73C3.72,6.01,3.77,6.27,3.83,6.45l0.01,0.03
	c0.22,0.54,0.54,1.06,1.02,1.67l0,0c0.87,1.08,1.8,1.92,2.81,2.56c0.13,0.08,0.26,0.15,0.39,0.21c0.11,0.06,0.22,0.11,0.31,0.17
	c0.01,0.01,0.03,0.02,0.04,0.02c0.11,0.05,0.21,0.08,0.31,0.08c0.26,0,0.43-0.16,0.48-0.22l1.08-1.08c0.11-0.11,0.28-0.24,0.48-0.24
	c0.2,0,0.36,0.12,0.46,0.23l0.01,0.01l1.75,1.74C13.31,11.96,13.31,12.29,12.99,12.63z M11.85,9.29c-0.31-0.32-0.68-0.49-1.07-0.49
	c-0.39,0-0.76,0.17-1.08,0.49l-1,1c-0.08-0.04-0.16-0.09-0.24-0.13c-0.11-0.06-0.22-0.11-0.31-0.17C7.2,9.4,6.35,8.62,5.53,7.62
	c-0.4-0.5-0.66-0.92-0.86-1.35c0.26-0.24,0.5-0.48,0.74-0.72C5.5,5.46,5.59,5.37,5.68,5.28c0.67-0.66,0.67-1.53,0-2.19L4.81,2.22
	c-0.1-0.1-0.2-0.2-0.29-0.3c-0.19-0.2-0.39-0.4-0.6-0.59c-0.31-0.3-0.67-0.47-1.06-0.47c-0.39,0-0.76,0.16-1.08,0.47L1.78,1.34
	L0.7,2.43C0.29,2.83,0.06,3.32,0.01,3.9c-0.08,0.92,0.2,1.79,0.41,2.35c0.51,1.38,1.28,2.67,2.42,4.04
	c1.39,1.66,3.06,2.96,4.96,3.88c0.73,0.35,1.7,0.75,2.79,0.82c0.07,0,0.14,0.01,0.2,0.01c0.73,0,1.35-0.26,1.83-0.79
	c0-0.01,0.01-0.01,0.01-0.02c0.16-0.2,0.35-0.38,0.55-0.57c0.14-0.13,0.28-0.27,0.41-0.41c0.31-0.33,0.48-0.71,0.48-1.1
	c0-0.39-0.17-0.77-0.49-1.09L11.85,9.29z"/>
</svg>
