<?xml version="1.0" encoding="UTF-8"?>
<svg width="50px" height="50px" viewBox="0 0 50 50" version="1.1" xmlns="http://www.w3.org/2000/svg" xmlns:xlink="http://www.w3.org/1999/xlink">
    <!-- Generator: Sketch 59.1 (86144) - https://sketch.com -->
    <title>Elements  / Icon  / Document Upload / Default</title>
    <desc>Created with Sketch.</desc>
    <g id="Elements--/-Icon--/-Document-Upload-/-Default" stroke="none" stroke-width="1" fill="none" fill-rule="evenodd">
        <path d="M36.7166667,21.75 C35.6083333,16.225 30.8583333,12 25,12 C20.4083333,12 16.45,14.6 14.55,18.5 C9.64166667,19.15 6,23.2125 6,28.25 C6,33.6125 10.275,38 15.5,38 L36.0833333,38 C40.5166667,38 44,34.425 44,29.875 C44,25.65 40.675,22.075 36.7166667,21.75 Z M28.1666667,26.625 L28.1666667,33.125 L21.8333333,33.125 L21.8333333,26.625 L17.0833333,26.625 L25,18.5 L32.9166667,26.625 L28.1666667,26.625 Z" id="Upload-Icon" fill="#005eb8"></path>
    </g>
</svg>