<svg xmlns="http://www.w3.org/2000/svg" viewBox="0 0 22.5 17.19">
  <defs>
    <style>.cls-1{fill:none;stroke:#071d49;stroke-width:2px;}</style>
  </defs>
  <title>Asset 169</title>
  <g id="Layer_2" data-name="Layer 2">
    <g id="Layer_1-2" data-name="Layer 1">
      <g id="Icons">
        <rect class="cls-1" x="1" y="1" width="20.5" height="15.19"/>
        <polyline class="cls-1" points="1 1 11.25 11.25 21.5 1"/>
      </g>
    </g>
  </g>
</svg>