<?xml version="1.0" encoding="UTF-8"?>
<svg width="33px" height="15px" viewBox="0 0 33 15" version="1.1" xmlns="http://www.w3.org/2000/svg" xmlns:xlink="http://www.w3.org/1999/xlink">
    <title>Visa</title>
    <g id="Config" stroke="none" stroke-width="1" fill="none" fill-rule="evenodd">
        <g id="Remaining-Assets" transform="translate(-202.000000, -2035.000000)">
            <g id="Misc" transform="translate(79.000000, 1498.000000)">
                <g id="Payment-Brand-Marks" transform="translate(1.000000, 384.000000)">
                    <g id="Single-Marks" transform="translate(0.000000, 72.000000)">
                        <g id="Visa" transform="translate(122.000000, 81.000000)">
                            <rect id="Rectangle" x="0" y="0" width="33" height="15"></rect>
                            <path d="M12.1800133,0.182916298 L7.98010758,10.2027557 L5.23984528,10.2027557 L3.17287063,2.20605659 C3.04771737,1.71466108 2.93874596,1.53379311 2.55734602,1.32609195 C1.93403773,0.987502212 0.904749486,0.670829649 0,0.473779842 L0.0610403774,0.182916298 L4.47253907,0.182916298 C5.03398764,0.182916298 5.53951667,0.556737402 5.66794727,1.2040112 L6.76011936,7.00264223 L9.45634248,0.182916298 L12.1800133,0.182916298 Z M15.8844268,0.182916298 L13.7410492,10.2027557 L11.1486767,10.2027557 L13.2920543,0.182916298 L15.8844268,0.182916298 Z M22.9163603,6.93136015 C22.9272164,4.2873696 19.2604922,4.14070882 19.2844578,2.9592293 C19.2932657,2.6001562 19.6353376,2.21773209 20.3842088,2.12002653 C20.7551622,2.0720955 21.7799441,2.03379163 22.9407355,2.56861185 L23.3948513,0.442645153 C22.7711332,0.21712349 21.9685956,0 20.9702372,0 C18.4075655,0 16.6048262,1.36111848 16.5904878,3.31174772 C16.5736915,4.75459476 17.8780711,5.55877102 18.8590185,6.03931036 C19.8694622,6.53009135 20.2082568,6.84553496 20.2035456,7.2840834 C20.1963764,7.95634693 19.3967065,8.25396999 18.653161,8.26503095 C17.3493959,8.28571917 16.5935603,7.91271736 15.9907355,7.63189066 L15.520233,9.82832011 C16.1267449,10.1062791 17.2445211,10.3477778 18.40224,10.3600678 C21.1265253,10.3600678 22.9083718,9.01451667 22.9163603,6.93136015 L22.9163603,6.93136015 Z M29.683444,10.2027557 L32.0802005,10.2027557 L29.9861878,0.182916298 L27.7748056,0.182916298 C27.2760361,0.182916298 26.8569467,0.472346008 26.670958,0.91744916 L22.7811702,10.2027557 L25.5034071,10.2027557 L26.0433481,8.70603747 L29.3692294,8.70603747 L29.683444,10.2027557 Z M26.7897614,6.65278665 L28.1547717,2.88999559 L28.9388743,6.65278665 L26.7897614,6.65278665 Z" id="Shape" fill="#1A1F71" fill-rule="nonzero"></path>
                        </g>
                    </g>
                </g>
            </g>
        </g>
    </g>
</svg>