<svg xmlns="http://www.w3.org/2000/svg" viewBox="0 0 22 7">
  <title>logo-direct-debit</title>
  <g id="Layer_2" data-name="Layer 2">
    <g id="logo-direct-debit">
      <path fill="#fff" fill-rule="evenodd" d="M10.35,1.47h1.14s1.13,0,1.12,1c0,.75-1.1.86-1.1.86H10.35V1.47Zm3.41,3.62c0,.15.14.31.5.33A1.44,1.44,0,0,0,15,5.25V5.6a5.17,5.17,0,0,1-.78.12c-.26,0-1,0-1-.76s.64-.75,1-.75c.64,0,.94.24.93.88Zm0-.28h.88s0-.32-.42-.32a.41.41,0,0,0-.46.32Zm2.77-.35a.93.93,0,0,1,.7-.24A.74.74,0,0,1,18,5c0,.16-.07.75-.89.75a.79.79,0,0,1-.62-.23v.19H16v-2h.55v.81ZM17,5.4A.5.5,0,0,0,17.49,5c0-.14-.08-.42-.5-.42a.45.45,0,0,0-.46.37v.14A.44.44,0,0,0,17,5.4Zm4.83-.06v.31a2.45,2.45,0,0,1-.43.06c-.17,0-.62-.1-.62-.53V4.53h-.47V4.24h.47V3.89h.57v.35h.47v.29h-.47v.56s0,.28.23.28.24,0,.24,0ZM20.11,1.77h.66V3.33h.56V1.77H22V1.45H20.11v.32Zm-.23.08L20,1.53a2.09,2.09,0,0,0-.79-.13c-.49,0-1.28.27-1.28,1s.83,1,1.35,1a1.84,1.84,0,0,0,.68-.08l-.06-.36a2.21,2.21,0,0,1-.61.07c-.38,0-.77-.31-.77-.63a.79.79,0,0,1,.8-.62,1.87,1.87,0,0,1,.61.1Zm-5-.39s.94-.05.94.49-.54.5-.54.5a.36.36,0,0,1,.22.12c.06.09.43.76.43.76h-.57a1.33,1.33,0,0,1-.13-.19L15,2.89a.39.39,0,0,0-.35-.28h-.21v.72h-.55V1.46Zm-.35.84h.3s.41,0,.43-.27-.4-.27-.4-.27h-.33V2.3Zm2.29.29h.92V2.24h-.92V1.82h1V1.46H16.21V3.33h1.57V3h-1V2.59ZM19,4h.56V3.65H19V4Zm0,1.64h.56V4.24H19V5.67ZM12.91,3.33h.54V1.46h-.54V3.33Zm-2.56.47h1.14s1.13,0,1.12,1c0,.75-1.1.86-1.1.86H10.35V3.8Zm.56,1.51h.36s.76,0,.76-.62-.8-.63-.8-.63h-.32V5.31Zm0-2.34h.36s.76-.05.76-.61-.8-.63-.8-.63h-.32V3Z"/>
      <path fill="#fff" fill-rule="evenodd" d="M5.23,2.58V6.34S3,6,3,4.45C3,3.26,4.65,2.74,5.23,2.58Zm0-.07C3.9,2.42.88,3,.88,4.37c0,.88,1.6,2.16,4.2,2.19a3,3,0,0,0,3-3.23A3,3,0,0,0,5.42.17V0C8,.17,10,1.68,10,3.5S7.73,7,5,7,0,5.43,0,3.5,2.23,0,5,0h.25V2.51Z"/>
    </g>
  </g>
</svg>