{
  "VehicleDetails_Vehicles": {
    "url": "sas/v1/baskets/1/vehicles?quoteid={quoteid}&include=all"
  },
  "VehicleDetails_Vehicle": {
    "url": "sas/v1/baskets/1/vehicles/{vehicleid}/?include=all"
  },
  "VehicleDetails_Searching": {
    "url": "/sas/v1/baskets/1/vehicledefinitionslookup?registrationnumber={registrationnumber}"
  },
  "VehicleSpecificationLookup_Year": {
    "url": "/sas/v1/baskets/1/vehicledefinitionslookup?registrationyearid={registrationyearid}"
  },
  "VehicleSpecificationLookup_Make": {
    "url": "/sas/v1/baskets/1/vehicledefinitionslookup?registrationyearid={registrationyearid}&makeid={makeid}"
  },
  "VehicleSpecificationLookup_Model": {
    "url": "/sas/v1/baskets/1/vehicledefinitionslookup?registrationyearid={registrationyearid}&makeid={makeid}&modelid={modelid}"
  },
  "VehicleSpecificationLookup_Style": {
    "url": "/sas/v1/baskets/1/vehicledefinitionslookup?registrationyearid={registrationyearid}&makeid={makeid}&modelid={modelid}&styleid={styleid}"
  },
  "VehicleSpecificationLookup_EngineCapacity": {
    "url": "/sas/v1/baskets/1/vehicledefinitionslookup?registrationyearid={registrationyearid}&makeid={makeid}&modelid={modelid}&styleid={styleid}&enginecapacityid={enginecapacityid}"
  },
  "VehicleSpecificationLookup_Trim": {
    "url": "/sas/v1/baskets/1/vehicledefinitionslookup?registrationyearid={registrationyearid}&makeid={makeid}&modelid={modelid}&styleid={styleid}&enginecapacityid={enginecapacityid}&trimid={trimid}"
  },
  "VehicleSpecificationLookup_Transmission": {
    "url": "/sas/v1/baskets/1/vehicledefinitionslookup?registrationyearid={registrationyearid}&makeid={makeid}&modelid={modelid}&styleid={styleid}&enginecapacityid={enginecapacityid}&trimid={trimid}&transmissionid={transmissionid}"
  },
  "VehicleSpecificationLookup_Specification": {
    "url": "/sas/v1/baskets/1/vehicledefinitionslookup?registrationyearid={registrationyearid}&makeid={makeid}&modelid={modelid}&styleid={styleid}&enginecapacityid={enginecapacityid}&trimid={trimid}&transmissionid={transmissionid}"
  },
  "VehicleDetails_SecurityDevices": {
    "url": "/sas/v1/baskets/1/securitydevices"
  },
  "VehicleDetails_ReferenceData_OvernightParking": {
    "url": "sas/v1/referencedata/overnightParkings"
  },
  "VehicleDetails_Update": {
    "url": "/sas/v1/baskets/1/vehicles/{vehicleid}"
  },
  "VehicleDetails_VehicleModifications": {
    "url": "/sas/v1/vehiclemodificationslookup"
  },
  "VehicleDetails_VehicleModifications_Post": {
    "url": "/sas/v1/baskets/1/vehicles/{vehicleid}/vehiclemodifications"
  },
  "VehicleDetails_VehicleModifications_Delete": {
    "url": "/sas/v1/baskets/1/vehicles/{vehicleid}/vehiclemodifications/{vehiclemodificationid}"
  },
  "VehicleDetails_VehicleModifications_RemoveAll": {
    "url": "/sas/v1/baskets/1/vehicles/{vehicleid}/vehiclemodifications"
  },
  "VehicleDetails_PersonLookup": {
    "url": "/sas/v1/personslookup?policyid={policyid}"
  },
  "VehicleDetails_Policy": {
    "url": "sas/v1/policies/{policyid}?include=all"
  },
  "VehicleDetails_VehiclePolicy": {
    "url": "/sas/v1/vehicles/{vehicleid}?include=all"
  },
  "VehicleDetails_VehicleBodyType": {
    "url": "/sas/v1/referencedata/vanBodyTypes"
  },
  "VehicleDetails_ContactDetails": {
    "url": "/sas/v1/customerservices/contactdetails?policyid={policyid}"
  }
}
