{
  "CoverDetails_Quotes": {
    "url": "/sas/v1/baskets/1/quotes"
  },
  "CoverDetails_Features": {
    "url": "/sas/v1/baskets/1/quotes/{quoteid}/features"
  },
  "CoverDetails_Covers": {
    "url": "/sas/v1/baskets/1/covers?policyid={quoteid}&include=coverLevels.features,drivers,excesses"
  },
  "CoverDetails_Covers_DTS": {
    "url": "/sas/v1/baskets/1/covers?policyid={quoteid}&include=coverLevels.features,drivers"
  },
  "CoverDetails_Cover": {
    "url": "/sas/v1/baskets/1/covers/{coverid}?include=coverLevels,drivers"
  },
  "CoverDetails_Excesses": {
    "url": "/sas/v1/baskets/1/covers/{coverid}/excesses"
  },
  "CoverDetails_Excess_Update": {
    "url": "/sas/v1/baskets/1/excesses/{excessid}"
  },
  "CoverDetails_PersonLookup": {
    "url": "/sas/v1/personslookup?policyid={quoteid}"
  },
  "CoverDetails_ReferenceData_ClassOfUses": {
    "url": "/sas/v1/referencedata/classOfUses"
  },
  "CoverDetails_ReferenceData_Titles": {
    "url": "/sas/v1/referencedata/titles"
  },
  "CoverDetails_ReferenceData_MaritalStatuses": {
    "url": "/sas/v1/referencedata/maritalStatuses"
  },
  "CoverDetails_ReferenceData_RelationshipStatuses": {
    "url": "/sas/v1/referencedata/personRelationships"
  },
  "CoverDetails_PatchCover": {
    "url": "/sas/v1/baskets/1/covers/{coverid}"
  },
  "CoverDetails_DemandsAndNeeds": {
    "url": "/sas/v1/baskets/1/quotes/{quoteid}/coverdemandsandneeds"
  },
  "CoverDetails_PutDemandsAndNeeds": {
    "url": "/sas/v1/baskets/1/quotes/{quoteid}/coverdemandsandneeds"
  },
  "CoverDetails_PaymentDetails": {
    "url": "sas/v1/baskets/1/quotes/{quoteid}/paymentdetails"
  },
  "CoverDetails_NcdStepbacksLookup": {
    "url": "/sas/v1/ncdstepbackslookup?quoteid={quoteid}"
  },
  "CoverDetails_NcdPercentagesLookup": {
    "url": "/sas/v1/ncdpercentageslookup?quoteid={quoteid}"
  },
  "CoverDetails_PatchDriver": {
    "url": "/sas/v1/baskets/1/drivers/{driverid}"
  },
  "CoverDetails_Vehicles": {
    "url": "sas/v1/baskets/1/vehicles?quoteid={quoteid}&include=all"
  },
  "CoverDetails_UpdateVehicle": {
    "url": "sas/v1/baskets/1/vehicles/{vehicleid}"
  },
  "CoverDetails_PostPerson": {
    "url": "sas/v1/baskets/1/customeraccounts/{customeraccountid}/persons"
  },
  "CoverDetails_PersonPatch": {
    "url": "/sas/v1/baskets/1/persons/{personid}"
  },
  "CoverDetails_NcdSourceCodes": {
    "url": "/sas/v1/referencedata/ncdSourceCodes"
  }
}