{
  "Houston_Quotes": {
    "url": "/sas/v1/baskets/1/quotes"
  },
  "Houston_Quote": {
    "url": "/sas/v1/baskets/1/quotes/{quoteid}?include=covers,fees,underwriters"
  },
  "Houston_PaymentDetails": {
    "url": "/sas/v1/baskets/1/quotes/{quoteid}/paymentdetails"
  },
  "Houston_PaymentDetailsPolicy": {
    "url": "/sas/v1/policies/{policyid}/paymentdetails"
  },
  "Houston_Policy": {
    "url": "sas/v1/policies/{policyid}?include=all"
  },
  "Houston_Policies": {
    "url": "sas/v1/policies?customeraccountid={userid}&include=all"
  },
  "Houston_Cover": {
    "url": "sas/v1/covers/{coverid}"
  },
  "Houston_Messages": {
    "url": "sas/v1/customerservices/messages"
  },
  "Houston_Person": {
    "url": "/sas/v1/persons/{personid}?include="
  },
  "Houston_ContactCentre": {
    "url": "sas/v1/customerservices/contactdetails?policyid={policyId}"
  },
  "Houston_ProductVariants": {
    "url": "/sas/v1/baskets/1/quotes/{quoteid}/variants?include=all"
  },
  "Houston_DeleteBasket": {
    "url": "/sas/v1/baskets/1/"
  }
}